"일련번호","강좌스케줄 일련번호","강좌 일련번호","강좌명","강좌 예약날","강좌 예약시간","강좌 장소","예약구분 코드","내용","전화여부","확인여부","취소여부","최종확인여부","시작일"
"146","16","16","매듭공예","목","야간","사랑방","Q001","전통문화강좌 매듭공예를 신청합니다:)","Y","Y","N","Y","2019-03-12 09:52:24.0"
"17","7","7","한글한문서예","수","오후","안방","Q001","안녕하세요?  한글한문서예강좌 신청합니다  고맙습니다","N","Y","N","N","2017-07-03 18:05:57.0"
"93","8","8","규방공예(조각보)","화","오후","대청마루","Q001","9월부터 화요일 오후 조각보 수업 신청하고 싶습니다~","N","Y","N","N","2018-08-28 14:17:59.0"
"156","14","14","문인화","화","오전","안방","Q001","4월2일 화요일부터 시작하는 오전강좌가 가능하면 신청합니다. 사군자는 한 번도 배워보지 않은 초급입니다.","Y","Y","N","Y","2019-03-15 11:44:52.0"
"41","7","7","한글한문서예","화","야간","대청마루","Q002","10월부터 야간시간에 수강 가능한 한글한문서예 강좌가 있을까요? 요일 상관없이 평일 야간시간으로 수강하고자 합니다. 수강료 이외의 비용이 어느 정도 되는지도 궁금합니다.","Y","Y","N","Y","2017-09-24 20:37:58.0"
"125","8","8","규방공예","화","오후","대청마루","Q001","규방공예 신청합니다","Y","Y","N","Y","2019-03-08 13:58:58.0"
"155","5","5","가야금","토","오전","안방","Q002","가야금 강좌 관련 문의드립니다. 현재 가야금을 취미로 따로 배우고 있는데 이런 경우도 참여 가능한지 궁금합니다.  완전 기초는 아닌 상태고 12현 17현 25현을 다 만져봤습니다. 다만 12현을 손에서 놓으니까 자꾸 감을 잃는 것 같아서 해보고 싶은데 완전 기초에서 시작하는지 궁금해서요.  가야금이 있으면 수강료만 지불하면 되는건지도 확인 부탁드립니다. :)","Y","Y","N","Y","2019-03-15 11:19:24.0"
"161","16","16","매듭공예","목","야간","사랑방","Q001","매듭공예 신청 하려고 합니다.  수시로 등록이 가능한가요?","Y","Y","N","Y","2019-03-17 23:28:44.0"
"6","8","8","규방공예(조각보)","화","오후","대청마루","Q001","조각보 규방공예 오후반 신청합니다.","Y","Y","N","N","2017-04-07 17:46:00.0"
"75","14","14","문인화","화","오후","안방","Q002","안녕하세요? 문인화 강좌를 받으려고 합니다. 화요일 오후수업은 몇시부터 몇시까지 인지요? 그리고 문인화관련 기초 지식이 없는데 어느 정도 수업 받아야 혼자서 즐기면서 그릴 수 있는지요?","Y","Y","N","Y","2018-06-07 16:14:42.0"
"154","20","20","닥종이인형","목","오전","안방","Q001","목요일 오전에 진행하는 <닥종이인형> 수강신청에 대해 문의 드립니다. 수업 시작일이 따로 없고 상시 접수가 가능한 것으로 되어있는데 절차를 안내받고 싶습니다. 감사합니다.","Y","Y","N","Y","2019-03-14 13:12:24.0"
"157","24","24","가죽공예","토","오전","별당","Q002","강의시간은 어떻게 되는지 알려주세요  ** 문자로 연락주세요 ^^","Y","Y","N","Y","2019-03-15 14:52:11.0"
"171","16","16","매듭공예","토","오전","대청마루","Q001","매듭공예 토요일 수업 신청하고 싶습니다 언제부터 수업인가요?","Y","Y","N","Y","2019-03-20 14:28:01.0"
"26","8","8","규방공예(조각보)","화","오전","대청마루","Q002","안녕하세요^^   규방공예(조각보) 강좌관련 수강문의 드려요~  1. 9월에도 진행하시죠? (아이들 개학하면 가려구요!!) 신청은 8월말에 하면 되나요?  2. 재료비외에 적어두신 준비물을 모두 가져가야 하나요?? ^^;; 처음 배우는거라 있는게 없어서요~ 구매 부탁드릴수 있는지요??   3. 혹시 주차 가능한곳 있을까요?    감사합니다!!   안희경 드림","Y","Y","N","Y","2017-08-09 12:42:55.0"
"45","7","7","한글한문서예","화","야간","대청마루","Q002","11월 강좌신청 가능한가요?","Y","Y","N","Y","2017-11-09 14:12:25.0"
"65","5","5","가야금","토","오전","안방","Q002","가야금 배우려고 하는데 구입하기에는 다소 어려움이 있어 대여하려고 하는데 대여비 어느정도인지 문의드려봅니다.","Y","Y","N","Y","2018-03-26 13:08:08.0"
"100","16","16","매듭공예","토","오전","대청마루","Q001","토요일 오전 [매듭공예] 를 신청하고자 합니다.  한번도 해본적은 없는데 초보자도 신청이 가능한 강좌인가요?","Y","Y","N","N","2018-10-04 19:02:06.0"
"117","15","15","칠보공예","수","오후","대청마루","Q001","칠보공예 배워보고 싶습니다","Y","Y","N","Y","2019-02-08 17:51:53.0"
"160","5","5","가야금","토","오전","안방","Q002","안녕하세요~ 토요일 오전에 하는 가야금 강좌 문의입니다 아이와 함께 배우고 싶은데 아이는 5살입니다 가능한가요? 그리고 가야금은 개별 구매하여 준비해서 가야하나요?","Y","Y","N","Y","2019-03-17 22:29:03.0"
"53","4","4","실용민화","목","야간","안방","Q001","목요일 야간 실용민화 신청 가능하신지요  신청기간이 따로 있는 건가요  2년전 즈음에 민화를 배우다가 그만두어서   다시하고 싶은데....","N","Y","N","N","2018-02-02 10:12:57.0"
"66","14","14","문인화","화","야간","별당","Q002","화요일 야간 문인화 수업 현재 신청가능한지 문의드립니다  상시모집인건지 학기개강월이 따로 있는지 알수 없어서 문의드립니다~   재료는 각자 준비하면 되는건가요?","Y","Y","N","Y","2018-04-05 13:47:05.0"
"27","8","8","규방공예(조각보)","화","오전","대청마루","Q001","9월부터 규방공애(조각보) 화요일 오전반 신청 가능할까요?","N","Y","N","N","2017-08-14 13:06:28.0"
"36","16","16","매듭","목","야간","별당","Q001","지금 매듭 수강신청 가능한가요?","N","Y","N","N","2017-08-24 14:35:05.0"
"39","22","22","풀짚","목","야간","사랑방","Q002","안녕하세요!풀짚공예를 너무 너무 배우고싶어서.                                                         인터넷으로 많이 찾아보았는데 거의 서울이 아닌 너무 먼 지역에서 배워야 하더라구요.  그나마 가까운 강화도로 나중에. .. 배우러가야하나 실망하던차에..                                             여기서 수업하는 강좌가 있는걸 지금 알게되어 완젼 깜짝 놀라! 들어왔는데 ......흑..ㅠ 강의시간이 한타임밖에 없는것같아서  문의드려요~ 혹시 평일오전이나 금일요일 중에는 배울수 있는 방법이 없을까요?  아님 혹 강좌시간이 10월에 변경될수도 있나요?~ 꼭 배우고싶어요!","Y","Y","N","Y","2017-09-24 14:57:04.0"
"58","13","13","대금/소금/단소","화","야간","안방","Q002","강좌를 신청하고는 싶은데 자세한 내용을 알 수가 없어 몇가지 문의드립니다.  1. 강좌의 시작일은 언제부터인지요? 예를들면 현재로 시작이 3월부터인지 아니면 신청일부터 3개월인지요? 2. 매월5만원씩 (현금)납부하는지요? 아니면 3개월분 15만원을 납부하는 건지요?  3. 카드납부도 가능한지요? 4. 단소말고 소금/대금을 현장에서 구입이 가능한지요?","Y","Y","Y","Y","2018-03-03 20:12:00.0"
"81","10","10","생활자수","화","야간","대청마루","Q001","안녕하세요. 전통자수 강좌 수강하고 싶어서 문의드립니다^^ 이렇게 신청하는게 맞는지 모르겠네요..","N","Y","N","N","2018-07-06 01:45:19.0"
"83","4","4","실용민화","금","오전","안방","Q002","안녕하세요. 금요일 오전 실용민화 강의 문의드립니다.  강좌 일정표를 보면 6~8월 강좌라고 적혀있는데 중도에 신청이 가능한가요?  하게 된다면 7월부터 가능할 것 같습니다. 그리고 3개월 연속 수강이 필수과정인지도 궁금합니다.  무엇보다 민화 외에도 기타 그리기 과정을 이수한 적이 없어 조금 걱정되기도 합니다.    답변 부탁드리겠습니다. 감사합니다.","Y","Y","N","Y","2018-07-20 22:43:23.0"
"89","21","21","전통섬유그림","화","야간","사랑방","Q002","안녕하세요. <전통섬유그림>  문은의드립니다.  수업을 참여해본 적이 없는데 신청하려면 어떻게 해야 하나요? 몇월 몇일부터 시작할 수 있는 것인지도 궁금합니다.  그리고 처음 수업 참여 시 물품 구입처에 연락해서 어떤걸 구입해야 하는지도 문의드립니다.  안녕히계세요.","Y","Y","N","Y","2018-08-13 19:06:48.0"
"123","16","16","매듭공예","토","오전","대청마루","Q001","매듭공예 강좌신청이 가능한지 알고싶습니다.","Y","Y","N","Y","2019-03-08 01:27:12.0"
"124","7","7","서예","목","야간","별당","Q001","서예강좌 신청가능여부가 궁금합니다.  강좌신청을 위해서 특별한 조건이 있을까요?   20년전에 한문서예를 배운적이 있기는 합니다.","Y","Y","N","Y","2019-03-08 01:30:02.0"
"134","24","24","가죽공예","토","오전","별당","Q001","가죽공예 수강 신청합니다.","Y","Y","N","Y","2019-03-10 12:39:21.0"
"136","8","8","규방공예","화","오전","대청마루","Q002","3월 19일부터 신청해서 수강할 수도 있나요? 혹시 마감되어서 신청이 안될 수도 있나요?","Y","Y","N","Y","2019-03-10 23:31:00.0"
"187","5","5","가야금","토","오전","안방","Q001","가야금강좌 신청이 가능한가요??? 그리고 가야금은 개별로 준비해야하나요?","Y","Y","N","Y","2019-04-04 11:09:16.0"
"30","7","7","한글한문서예","수","오후","안방","Q001","언제부터 수업수강가능한지 문의드립니다 ^^","N","Y","N","N","2017-08-23 15:30:53.0"
"33","4","4","실용민화","월","오전","안방","Q001","월요일 오전 전통민화 신청합니다 ^.^","N","Y","N","N","2017-08-24 13:11:14.0"
"37","10","10","생활자수","목","오전","대청마루","Q001","생활자수수업신청합니다~^^","N","Y","N","N","2017-09-09 20:25:05.0"
"94","8","8","규방공예(조각보)","화","오전","대청마루","Q001","안녕하세요. 조각보 수업을 듣고 싶은데요. 신청 방법이 궁금합니다.","N","Y","N","N","2018-08-30 14:10:06.0"
"147","7","7","서예","금","오전","별당","Q002","전화받기 어려울수도있으니 문자남겨주시면 고맙겠습니다. 금요일 오전 서예강의를 신청하고싶습니다. 마감되었는지요 그리고 재료비도 궁금합니다. 보통몇명정도 참석할까요? 저는 서예를 해본적이 없는데 참여해도 될런지요 다음주부터 참석이 가능한데 괜찮은지도 답변부탁드립니다.","Y","Y","N","Y","2019-03-12 17:08:54.0"
"163","5","5","가야금","토","오전","안방","Q002","토요일 가야금 가야금을 구매해야만 할 수 있나요?","Y","Y","N","Y","2019-03-18 16:11:10.0"
"169","24","24","가죽공예","토","오전","별당","Q001","가죽공예 강좌 신청합니다.","Y","Y","N","Y","2019-03-20 11:28:19.0"
"170","16","16","매듭공예","토","오전","대청마루","Q001","매듭공예 토요일 오후 2시 수업 신청가능한가요?","Y","Y","N","Y","2019-03-20 14:22:36.0"
"86","13","13","대금/소금/단소","월","오후","안방","Q002","안녕하세요. 전통문화강좌/대금 관련하여 몇가지 문의드립니다. 기존에 대금을 조금 불다가 이번에 북촌에서 배워보고 싶은데 ● 신청은 매 학기가 시작하는 시점에 가능한거가요?그렇다면 9월부터 배울수있는건가요? ● 3개월과정이라고 명시가 되있는데 계속적으로 배우는 것도 가능한 것인지요. ●오후 레슨은 1400-1700로 명시되있는데 3시간 동안 수업이 진행되는 것인가요? ●선생님께서는 정악대금과 산조대금 중 어느 것으로 수업을 진행하시는지 알고싶습니다. ● 월요일 및 화요일 오후에 레슨을 받고 싶은데 현재 몇명정도 수강하고 있는지도 궁금합니다. 답변부탁드리겠습니다.","Y","Y","N","Y","2018-08-07 04:40:39.0"
"227","19","8","규방공예","화","오전","별당","Q001","안녕하세요. 관심이 있어 알아보는 중 알게 되어 신청합니다. 연락 부탁드립니다.","Y","Y","N","Y","2019-08-27 20:02:09.0"
"254","30","43","가야금(12현)","화","야간","마을서재 사랑방","Q001","가야금 어렸을때 배운적이 있는데 언젠가는 다시 해보고 싶다는 생각이 들었습니다. 개인 가야금을 들고와야 하나요?  가야금 배울 때 가장 어려운 점이..현을 맞추는 일이었는데..(절대음감 없는 것 같아요) 그것도 걱정이네요.","Y","Y","N","Y","2019-11-14 11:24:09.0"
"302","27","34","펜드로잉","화","야간","사랑방","Q001","우연히 검색 중에 펜드로잉 강좌가 있다는 것을 알게되었습니다. 강좌 시작일이 따로 있는 것인지요? 강좌를 들으려면 어떻게 해야 하는지 안내 부탁드립니다.","Y","Y","N","Y","2020-05-09 19:20:01.0"
"174","4","4","실용민화","목","야간","안방","Q002","안녕하세요 실용 민화 강좌 문의드립니다.  1. 수강료가 월 기준인데 4회 기준일까요? 2. 준비물 준비 관련 12~15만원 정도로 안내된 준비물을 전부 구입 가능한 것일까요?  감사합니다. 한미령 드림","Y","Y","N","Y","2019-03-22 12:46:22.0"
"179","14","14","문인화","화","야간","안방","Q002","안녕하세요. 문인화를 배워보고 싶은 이현주 입니다.  아래 문의사항에 확인 주시면 감사하겠습니다.  1. 가능하다면 화요일 야간 반으로 수강하고 싶습니다.     등록 가능한가요? 그리고 해당 반에 현재 몇 분 정도 참석하시는지요?  2. 개강일 이래로 수업이 많이 진행되었나요?     문인화를 배워본 적이 없어 참여하게 되었을 시 강좌를 따라갈 수 있는지 궁금합니다.  3. 필요한 준비물은 어떤 것이 있는지요?   감사합니다.","Y","Y","N","Y","2019-03-24 12:43:52.0"
"180","22","22","풀짚공예","수","오전","사랑방","Q001","풀집공예 꼭 배우고 싶습니다. 배우는 곳을 못 찾아서 많이 속상했습니다. 북촌문화센터에서 열심히 배워서 바구니도 만들고 낮은 의자도 만들고 싶습니다.","Y","Y","N","Y","2019-03-24 13:27:50.0"
"242","80","38","장구","토","오전","마을서재 사랑방","Q001","장구","Y","Y","N","Y","2019-10-07 04:34:36.0"
"246","38","39","목조각","수","오후","대청마루","Q001","목조각 신청합니다","Y","Y","N","Y","2019-10-18 18:25:34.0"
"97","8","8","규방공예(조각보)","화","오전","대청마루","Q002","보자기 수업을 배우고 싶습니다. 연령제한은 없는지요? 나이 들어 배우려니 부끄럽습니다.  화요일 9시 30분까지 가면되는지요? 바느질 도구도 당일 그곳에서 구입했으면합니다. 추석지내고 10월부터 등록하려고합니다. 가부간을 연락주셧으면합니다.","Y","Y","N","Y","2018-09-17 12:37:15.0"
"69","16","16","매듭","토","오전","대청마루","Q002","매듭 주말 강좌 관련해서 문의드리고 싶습니다. 신청인마다 진도를 별개로 해서 운영되는건지 아니면 매달 첫째주 이렇게 해서 같이 시작되는 것인지 궁금합니다.","Y","Y","N","Y","2018-04-25 16:11:33.0"
"78","16","16","매듭","목","야간","별당","Q001","윤서아 윤상아 2명 신청합니다!","N","Y","N","N","2018-06-26 00:13:41.0"
"110","15","15","칠보공예","수","오후","대청마루","Q002","칠보공예에 관한 문의 입니다.   최종 몇개월 과정인지 처음부터 최종까지 과정을 수료할경우 어느정도까지 습득이 가능한지 알고 싶습니다.","Y","Y","N","Y","2018-11-20 01:55:13.0"
"126","5","5","가야금","토","오전","안방","Q001","가야금 신청하고 싶습니다. 가야금 처음 신청합니다","Y","Y","N","Y","2019-03-08 14:52:15.0"
"133","4","4","실용민화","목","야간","안방","Q001","신청합니다","Y","Y","N","Y","2019-03-09 23:19:13.0"
"21","14","14","문인화","화","오후","안방","Q002","안녕하세요 제 외국인 친구가 이 수업을 듣고 싶어하는데 어떻게 신청하는지 몰라서 제게 부탁을 했습니다 그 친구는 영어는 잘 하지만 한국어가 아직 서툴러서요 한국어를 잘 못해도 이 수업을 잘 따라갈수 있는지요?! 수업신청은 어떻게 해야하는지요?! 그럼 답변 부탁드리겠습니다 감사합니다","Y","Y","N","Y","2017-07-21 01:09:50.0"
"96","16","16","매듭","목","야간","별당","Q002","문의드립니다. 가을학기 일정은 변동이 없나요? 신청은 언제까지 가능한가요? 재료비는 월 3만원인지 궁금합니다.  답변부탁드립니다~","Y","Y","N","Y","2018-08-31 21:34:00.0"
"119","4","4","실용민화","금","오전","안방","Q002","실용민화 신청에 대해 문의 드립니다. 3월에 시작하려 합니다만 한 주는 출장으로 빠질 것 같은데 보강이나 미룰 수가 있을까요? 혹은 매달 개강한다면 4월에 수강 시작해도 괜찮을까요? 감사합니다.","Y","Y","N","Y","2019-02-13 19:35:31.0"
"172","23","23","캘리그라피","월","오후","안방","Q001","오래전붙 배우고 싶었으나 망설이다 용기내어 신청해봅니다","Y","Y","N","Y","2019-03-21 04:52:52.0"
"255","48","48","캘리그라피","월","오전","안방","Q001","캘리그라프 입문 과정 신청합니다.","Y","Y","N","Y","2019-12-12 18:14:13.0"
"258","48","48","캘리그라피","월","오전","안방","Q002","안녕하세요. 몇 가지 여쭤볼게 있어서 연락드립니다.   1월에 6일부터 개강하시나요? 그렇다면 마지막 주는 설날인데 3주 수업인지 알고 싶어요.   또 강습비 외에 재료비 3만원인데 총 8만원 입금하면 되나요? 재료비를 내면 선생님께서 수업 첫날 준비해 주시는지 제가 개인적으로 준비할건 없는지 궁금합니다.   편하신 시간에 연락부탁드립니다.","Y","Y","N","Y","2019-12-13 10:51:41.0"
"268","7","7","서예","목","야간","별당","Q001","목요일 야간 서예교실내년 1월부터 배울 수 있나요.?동네서실에서 한 1년정도 전서체 정도만 배웠는데학업을 병행하다보니 가다 안하다가 지속이 되어 지금은 안다닌지 2년정도 되었습니다. 혼자 집에서 쓰려니 집중이 안되고 해서체 같은 실용적인 서체도 쓰고 싶은데 배운게 짧아서 어렵습니다. 그래서 방학기간과 학기중에도 6시 이전에 수업이 끝나서 시간이 되어 신청해보려 합니다. 1월부터 가능할까요.? 혹시 결재는 카드결제도 가능한가요.? 연락처 : 01099808773","Y","Y","N","Y","2019-12-25 16:32:23.0"
"291","53","53","꽃차","화","야간","대청마루","Q001","꽃차 화(야간)","Y","Y","N","Y","2020-02-01 22:36:10.0"
"301","30","43","가야금","화","야간","마을서재 사랑방","Q002","2년 전에 여기서 가야금 계속 배웠었는데 다시 수업 받고 싶습니다.","Y","Y","N","Y","2020-05-07 13:25:57.0"
"209","16","16","매듭공예","토","오전","대청마루","Q002","안녕하세요 수시신청이 가능한 수업인가요?.. 수강인원도 궁금합니다. 수업신청 후 수업은 언제부터인가요?","Y","Y","N","Y","2019-07-13 14:20:43.0"
"120","4","4","실용민화","금","오전","안방","Q001","3월 신청합니다 준비물은 어떻게 되나요?","Y","Y","N","Y","2019-02-22 09:21:06.0"
"121","4","4","실용민화","금","오전","안방","Q001","신청하고 싶습니다.","Y","Y","N","Y","2019-02-27 13:11:50.0"
"122","24","24","가죽공예","토","오전","별당","Q001","가죽공예 강좌 신청합니다.^^","Y","Y","Y","Y","2019-03-07 07:14:07.0"
"137","16","16","매듭공예","목","야간","사랑방","Q002","이렇게 좋은 강좌가 있는 것을 이제야 알았어요~ 혹시 3월21일부터 수강이 가능한데 신청할 수 있나요? 마감되었나요?","Y","Y","N","Y","2019-03-10 23:34:53.0"
"14","9","9","<주민사랑방>","화","오전","별당","Q002","안녕하세요  <규방공예> 조각보 수업을 듣고 작품을 만들고싶은데 수업일정과 수업료 안내를 받고싶습니다.  감사합니다^^","Y","Y","N","Y","2017-05-31 17:37:24.0"
"38","5","5","가야금","토","오전","안방","Q002","가야금 강의료가 월 5만원 이던데  9월(4회) 오만원인지  그냥 4회 5만원 인지 궁금합니다~   지금처럼 9월 중반에는 도중에 강의 신청을 못하는지....  아니면 지금부터 강의신청을 할 수 있고  신청한 날로부터 4회 수강한 것을 한 달 강의료로 계산하나요???","Y","Y","N","Y","2017-09-12 01:22:59.0"
"79","16","16","매듭","목","야간","별당","Q001","TEST","N","N","N","N","2018-06-28 09:34:55.0"
"140","16","16","매듭공예","토","오전","대청마루","Q001","매듭공예 강좌 신청 합니다","Y","Y","N","Y","2019-03-11 01:42:11.0"
"141","8","8","규방공예","화","오후","대청마루","Q001","전통규방","Y","Y","N","Y","2019-03-11 11:17:14.0"
"22","4","4","실용민화","목","야간","안방","Q002","안녕하세요 제 외국인 친구가 이 수업을 듣고 싶어하는데 어떻게 신청하는지 몰라서 제게 부탁을 했습니다 그 친구는 영어는 잘 하지만 한국어가 아직 서툴러서요 한국어를 잘 못해도 이 수업을 잘 따라갈수 있는지요?! 수업신청은 어떻게 해야하는지요?! 그럼 답변 부탁드리겠습니다 감사합니다","Y","Y","N","Y","2017-07-21 01:11:12.0"
"67","5","5","가야금","토","오전","안방","Q001","토요일 오전 가야금 강좌 문의 드립니다.  가야금을 처음 접합니다.  5월부터 시작할 수 있는 반이 있는지  신청은 어떻게 할 수 있는지 궁금하여 문의 남깁니다.   감사합니다.","N","Y","N","N","2018-04-09 11:59:58.0"
"142","4","4","실용민화","목","야간","안방","Q001","민화 신청합니다. 감사합니다.","Y","Y","N","Y","2019-03-11 13:21:52.0"
"153","10","10","생활자수","화","야간","대청마루","Q001","생활자수 강좌 수강 신청합니다","Y","Y","N","Y","2019-03-14 09:02:12.0"
"183","4","4","실용민화","금","오전","안방","Q001","실용 민화 강좌를 신청합니다. ^^","Y","Y","N","Y","2019-03-29 00:12:31.0"
"216","39","25","한복인형퀼트","수","오후","별당","Q001","한복인형퀼트 9월부터 신청합니다.","Y","Y","N","Y","2019-08-08 15:41:03.0"
"219","26","14","문인화","화","야간","안방","Q001","북촌 한옥 문인화 수업(화요일 저녁반) 신청하고자 합니다. 회신 부탁드립니다.  감사합니다.","Y","Y","N","Y","2019-08-16 10:08:53.0"
"240","25","25","한복인형퀼트","수","오후","별당","Q002","1.수강신청기간이 정해져 있나요?  2.1단계에서 5단계가 있는데 단계별로 한달과정인가요?","Y","Y","N","Y","2019-10-02 11:45:36.0"
"178","16","16","매듭공예","토","오전","대청마루","Q001","클릭을 잘 못 해서 목요일로 신청이 되었네요 죄송합니다 토요일 오전 프로그램 신청합니다","Y","Y","N","Y","2019-03-22 17:56:02.0"
"185","23","23","캘리그라피","월","오후","안방","Q002","캘리그라피 월요일 수업 입문반 수강이 가능한지 문의드립니다.","Y","Y","N","Y","2019-03-31 11:56:09.0"
"193","24","24","가죽공예","토","오전","별당","Q001","가죽공예 신청합니다.","Y","Y","Y","Y","2019-04-30 22:14:58.0"
"175","19","19","한국화","목","야간","대청마루","Q001","한국화강좌 신청하고싶습니다:) 언제부터 수강이 가능한지 또 준비물은 어떤 것들이 있는지 안내받을 수 있을까요?  감사합니다 즐거운 하루 보내시길 바랍니다!","Y","Y","N","Y","2019-03-22 16:59:18.0"
"283","30","43","가야금","화","야간","마을서재 사랑방","Q001","안녕하세요. 가야금 강좌 신청 문의드립니다","Y","Y","N","Y","2020-01-20 20:07:59.0"
"98","16","16","매듭","목","야간","별당","Q001","안녕하세요.   목요일야간에 진행하는 매듭공예수업에 참여하고싶은데 참여가능한지 문의드립니다. 9월부터 강의가 시작해서 다른 수강생분들보다 늦게 참여하는 것이지만 그래도 꼭 배우고싶습니다.","N","Y","N","N","2018-09-22 07:47:27.0"
"106","16","16","매듭공예","토","오전","대청마루","Q002","안녕하세요.  매듭공예 문의드립니다.  12월 강좌(토) 신청가능한가요??  총 몇명정도 함께 수업듣나요?","Y","Y","N","Y","2018-11-02 13:20:00.0"
"116","24","24","가죽공예","화","야간","사랑방","Q001","가죽공예 신청하고싶습니다~","Y","Y","N","Y","2019-01-22 13:27:02.0"
"150","16","16","매듭공예","목","야간","사랑방","Q001","안녕하세요  매듭공예 신청하고 싶은데요.  목요일 저녁과 토요일 오전 수업이 있는데  직장인이라서 혹시 수업 빠질일이 생길수 있을거 같아서요.  목요일 저녁 수업을 못들을 경우 토요일 오전 수업을 대체해서 들을 수가 있을까요??","Y","Y","N","Y","2019-03-13 10:29:03.0"
"159","16","16","매듭공예","목","야간","사랑방","Q001","목요일 오후 매듭공예 신청합니다.","Y","Y","N","Y","2019-03-17 11:53:13.0"
"5","8","8","규방공예(조각보)","화","오전","대청마루","Q001","안녕하세요.  혹시 4월에 화요일 오후에 규방공예(조각보) 개강에 자리가 있으면 등록하고 싶습니다.  강의시간은 시간표에 나와있는데로 2시에 시작하는 거 맞나요?  연락부탁드립니다.  감사합니다.","Y","Y","N","N","2017-03-30 16:05:04.0"
"10","6","6","한지공예","화","오전","안방","Q001","한지공예","Y","Y","N","N","2017-04-16 10:31:00.0"
"13","11","11","전통주빚기(기초)","목","오후","대청마루","Q001","전통주빚기 금욜오전에 신청을 목욜오후로 바꿔신청합니다 죄송합니다","N","Y","N","N","2017-05-19 13:41:30.0"
"16","7","7","한글한문서예","화","야간","대청마루","Q001","화요일 야간수업인 한글한문서예 교육 신청합니다.","N","Y","N","N","2017-06-28 22:21:35.0"
"85","13","13","대금/소금/단소","월","오후","안방","Q002","안녕하세요. 전통문화강좌/대금 관련하여 몇가지 문의드립니다. 기존에 대금을 조금 불다가 이번에 북촌에서 배워보고 싶은데 ● 신청은 매 학기가 시작하는 시점에 가능한거가요?그렇다면 9월부터 배울수있는건가요? ● 3개월과정이라고 명시가 되있는데 계속적으로 배우는 것도 가능한 것인지요. ●오후 레슨은 1400-1700로 명시되있는데 3시간 동안 수업이 진행되는 것인가요? ● 월요일 및 화요일 오후에 레슨을 받고 싶은데 현재 몇명정도 수강하고 있는지도 궁금합니다. 답변부탁드리겠습니다.","Y","Y","Y","Y","2018-08-07 04:36:17.0"
"95","20","20","닥종이인형","목","오전","안방","Q001","닥종이인형","N","Y","N","N","2018-08-30 16:58:02.0"
"149","24","24","가죽공예","토","오전","별당","Q002","언제부터 개강인가요? 개인사정에 의해 4월 2주정도 빠져도 되는지요?","Y","Y","N","Y","2019-03-12 21:40:34.0"
"151","5","5","가야금","토","오전","안방","Q001","정말 꼭 배우고싶은 강좌에요! 꽤 오랫동안의 버킷리스트였던 가야금 강좌를 보고 배우고싶은 욕구가 가득 찼습니다! 가격이 너무 부담됐었는데 이번기회에 전통악기에 대해 알아보고싶습니다~^^","Y","Y","N","Y","2019-03-13 10:35:47.0"
"48","5","5","가야금","토","오전","안방","Q001","안녕하세요  처음 배워보려고 하는데요 가능할까요? 기초부터 꾸준히 잘 배워보고 싶습니다.","N","Y","N","N","2017-11-25 22:11:22.0"
"226","24","8","규방공예","화","오후","별당","Q001","규방공예 오후반","Y","Y","N","Y","2019-08-23 14:47:43.0"
"8","4","4","실용민화","목","야간","안방","Q002","안녕하세요.  목요일 민화수업 신청하고 싶습니다.  강좌는 개인별 등록할때부터 시작인건가요?  4회에 5만원이고 재료비는 별도인가요?  안내 부탁드립니다.  감사합니다.","Y","Y","N","Y","2017-04-13 17:15:58.0"
"15","20","20","닥종이인형","목","오전","안방","Q002","닥종이인형 강좌를 배우고 싶은 직장인입니다. 혹시 토요일날 강의를 개설해 주실 수는 없나요? 또는 토요일날 강의를 해 주시는 곳이 있으면 소개부탁드립니다.  바쁘시겠지만 꼭 부탁드립니다. 감사합니다.","Y","Y","N","Y","2017-06-28 09:47:14.0"
"18","21","21","전통섬유그림","화","야간","사랑방","Q001","안녕하세요?  전통섬유그림강좌 신청합니다  감사합니다","N","Y","N","N","2017-07-03 18:07:08.0"
"19","8","8","규방공예(조각보)","화","오후","대청마루","Q001","안녕하세요  규방공예(조각보)클래스 신청합니다.  6월부터 8월까지 3개월 간으로 알고 있는데요 늦었지만 지금부터 들을 수 있을런지요? 열심히 따라잡도록 하겠습니다.  확인하시고 연락주세요.  꼭 듣고싶습니다!!!! ^^","N","Y","N","N","2017-07-07 07:54:35.0"
"20","10","10","생활자수","목","오전","대청마루","Q001","자수 완전 초보입니다. 전통자수를 배워보고싶어서요 수강이가능할까요?","N","Y","N","N","2017-07-13 21:23:04.0"
"28","4","4","실용민화","목","야간","안방","Q001","9월 부터 민화 강좌를 수강하고 싶습니다. 언제 어디로 가서 신청을 하고 수강료는 3월치를 결제하는 건지 궁금합니다. 자세한 정보는 어디서 얻을 수 있을까요? 재료는 무엇을 준비해야할지 답변 부탁드려요^^","N","Y","N","N","2017-08-16 15:00:33.0"
"43","5","5","가야금","토","오전","안방","Q002","가야금만 있는 건가요??  가야금병창을 배워보고 싶은데..혹 가능할까요? 11월 부터 갈수 있을것 같은데요 ㅠㅜ 제가 토요일 12시반부터 교회에서 제자교육을 받고 있어서..완전일찍이나 완전 오후 만 가능한데..몇시 수업인가요..ㅠㅠ","Y","Y","N","Y","2017-10-18 10:41:04.0"
"50","15","15","칠보공예","수","오후","대청마루","Q002","수업은 언제부터 진행되는 건가요?","Y","Y","N","Y","2017-12-19 16:05:22.0"
"52","5","5","가야금","토","오전","안방","Q002","전통문화강좌 중 가야금을 신청하고 싶은데 가야금을 배운적인 한번도 없어도 가능한가요?  그리고 가야금을 대여해야하는걸로 알고 있는데 대여는 어떻게 하면 될까요?","Y","Y","N","Y","2018-02-01 14:39:23.0"
"57","14","14","문인화","화","야간","별당","Q001","3월 수업 수강하고 싶습니다. 먹은 처음 접해봅니다.","N","Y","Y","N","2018-02-28 10:06:10.0"
"61","16","16","매듭","토","오전","대청마루","Q001","토요일 매듭강좌 신청 가능할까요?","N","Y","N","N","2018-03-16 09:06:10.0"
"70","8","8","규방공예(조각보)","화","오후","대청마루","Q001","안녕하세요 한순자선생님 저는 조각보에 관심이 있는 학생입니다! 그래서 배우는곳을 알아보던 중 북촌문화센터를 통해 선생님께서 조각보를 지도하시는 것을 알게 되었어요. 기회가 된다면 배우고싶습니다!","N","Y","N","N","2018-04-25 16:22:12.0"
"148","10","10","생활자수","화","야간","대청마루","Q001","프랑스 자수를 배웠는덕 우리 문양으로 다시 배울 수 있어 기대돼요!","Y","Y","N","Y","2019-03-12 19:20:34.0"
"105","16","16","매듭공예","목","야간","별당","Q001","매듭공예 언제부터 수강가능한가요?","Y","Y","N","Y","2018-10-19 19:56:43.0"
"269","27","34","펜드로잉","화","야간","사랑방","Q001","펜드로잉 신청합니다","Y","Y","N","Y","2019-12-27 11:23:13.0"
"101","25","25","한복인형퀼트","수","오전","별당","Q002","안녕하세요:) 한복을 배우고 싶어 찾다가 알게 되어 신청하고 싶은데 매월 초 수시 신청이 가능하다고 써져 있어 문의 드립니다. 10월 초 접수기간은 끝났는지와 신청하려면 따로 연락을 드리면 되는지 재료비는 별도라고 적혀있는데 보통 한달에 얼마정도 드는지 알고 싶습니다. 감사합니다.","Y","Y","N","Y","2018-10-07 15:49:21.0"
"103","4","4","실용민화","목","야간","안방","Q002","안녕하세요.  실용민화 수강문의 드립니다.  1. 수업일정 2. 수업내용 3. 재료준비   등입니다.   고맙습니다! ^^","Y","Y","N","Y","2018-10-18 15:46:34.0"
"111","8","8","규방공예","화","오전","대청마루","Q002","안녕하세요  인터넷을 통해 규방공예 수업에 관해 알게 되었는데요 화요일 오전 규방공예 수업을 듣고 싶은데 바느질을 전혀 못해도 신청이 가능한지요ㅠ 그리고 겨울학기 신청은 언제쯤 할 수 있는지 문의 드립니다","Y","Y","N","Y","2018-11-29 11:12:03.0"
"114","16","16","매듭공예","토","오전","대청마루","Q002","매듭공예를 듣고 싶은데 궁금한 점이 있어 문의 드립니다. 시작일 종료일 같은 기재가 없는데 분기나 월초 일괄적으로 시작 종료가 아니라 개인적으로 수강하여 진행되는 건지요? 그럼 지금 신청해서 몇 일부터 시작하겠다고  말씀드리면 되는 건가요?  답 부탁드립니다.","Y","Y","N","Y","2019-01-17 12:30:17.0"
"115","4","4","실용민화","목","야간","안방","Q001","민화를 배우고자 합니다. 초보이기에 천천히 제대로 배우고 싶네요~","Y","Y","N","Y","2019-01-21 21:37:29.0"
"138","7","7","서예","목","야간","별당","Q002","혹시 연령제한이 있나요? 성인대상 수업인가요? 초등학교 4학년 아이에게는 무리인 수업인가요?","Y","Y","N","Y","2019-03-10 23:43:06.0"
"139","25","25","한복인형퀼트","수","오전","별당","Q001","신청합니다","Y","Y","N","Y","2019-03-11 00:23:59.0"
"143","5","5","가야금","토","오전","안방","Q002","1. 가야금은 아주 기초부터 배우나요?  2. 가야금은 얼마정도 하나요? 굳이 좋은 건 필요없고 취미 목적으로 하는거라서 싼 거를 원합니다. 가능하면 구입하는 것이 아니라 빌릴 수 있다면 더 좋고요.","Y","Y","N","Y","2019-03-11 23:24:45.0"
"144","24","24","가죽공예","토","오전","별당","Q002","혹시 만드는 것이 정해져 있나요? 만들고 싶은 것을 만드는건 안되나요?","Y","Y","N","Y","2019-03-11 23:27:24.0"
"145","25","25","한복인형퀼트","수","오후","별당","Q002","1. 오전반이랑 오후반이랑 다른 점이 있나요?  2. 수업은 언제부터 시작되나요?","Y","Y","N","Y","2019-03-11 23:30:27.0"
"72","7","7","한글한문서예","금","오후","안방","Q001","test","N","N","Y","N","2018-05-29 10:18:50.0"
"82","16","16","매듭","목","야간","별당","Q001","이번주목요일부터 신청도 가능한가요?","N","Y","N","N","2018-07-18 14:13:06.0"
"9","4","4","실용민화","월","오전","안방","Q001","실용민화 한지공예","Y","Y","N","N","2017-04-16 10:30:11.0"
"46","5","5","가야금","토","오전","안방","Q001","가야금 사고 싶은데 어디서 사야할 지 몰라서 선생님께 도움받고 싶어요~","N","Y","N","N","2017-11-19 19:57:44.0"
"73","16","16","매듭","토","오전","대청마루","Q002","TEST입니다.","N","N","Y","N","2018-05-29 15:29:55.0"
"54","14","14","문인화","화","야간","별당","Q001","문인화 배우고 싶은데 등록은 어떻개 하나요 일주일에 한번 수업 맞나? 주4회에 5만원 인가요?","N","Y","N","N","2018-02-20 08:04:45.0"
"7","18","18","직물놀이","화","오전","사랑방","Q001","직물놀이 화요일 오전반 신청합니다~!","Y","Y","N","N","2017-04-07 17:49:30.0"
"62","4","4","실용민화","월","오전","안방","Q001","개발자테스트중입니다.","N","N","Y","N","2018-03-16 10:05:03.0"
"92","5","5","가야금","토","오전","안방","Q001","가야금 신청합니다","N","Y","N","N","2018-08-28 11:10:44.0"
"166","4","4","실용민화","목","야간","안방","Q001","민화에 관심이 많아 배워보고 싶습니다.","Y","Y","N","Y","2019-03-19 16:52:03.0"
"23","15","15","칠보공예","수","오후","대청마루","Q001","수요일 오후 칠보 강의 신청합니다!","N","Y","N","N","2017-08-02 16:47:14.0"
"47","13","13","대금/소금/단소","화","야간","안방","Q001","단소 야간반","N","Y","N","N","2017-11-24 20:11:26.0"
"87","14","14","문인화","화","야간","별당","Q001","야간반 신청합니다. 한번도 문인화를 배운적이 없는 초보입니다. 9월부터 가능한것인지 8월부터 배울수 있는지 연락부탁드립니다","N","Y","N","N","2018-08-07 16:58:31.0"
"91","5","5","가야금","토","오전","안방","Q002","가야금을 완전 처음 접하는 초보입니다. (공연이나 기타 경험도 전무합니다..^^;)  시작날짜는 아무때나 가능한 건지 궁금합니다.","Y","Y","N","Y","2018-08-16 17:54:35.0"
"130","4","4","실용민화","금","오전","안방","Q001","실용민화를 배우고 싶었습니다^^","Y","Y","N","Y","2019-03-09 09:16:36.0"
"162","10","10","생활자수","화","야간","대청마루","Q001","수강신청합니다.","Y","Y","N","Y","2019-03-18 15:38:45.0"
"32","5","5","가야금","토","오전","안방","Q001","안녕하세요! 9월부터 시작되는 가야금 수업을 듣고 싶어서 신청합니다. 어릴 때 피아노와 드럼을 했었지만 가야금은 전혀 배워본 적 없는 왕초보입니다.","N","Y","N","N","2017-08-24 05:22:15.0"
"42","16","16","매듭","토","오전","대청마루","Q001","매듭 공예를 배워보고싶습니다.   해본적이 없어 완전 생초보입니다.   언제부터 수강이 가능한가요?","N","Y","N","N","2017-10-07 15:09:16.0"
"131","4","4","실용민화","금","오전","안방","Q001","실용민화","Y","Y","N","Y","2019-03-09 21:50:45.0"
"132","5","5","가야금","토","오전","안방","Q001","신청합니다","Y","Y","N","Y","2019-03-09 23:16:43.0"
"56","16","16","매듭","토","오전","대청마루","Q001","매듭(토) 강좌 신청합니다.","N","Y","N","N","2018-02-27 02:18:32.0"
"158","24","24","가죽공예","토","오전","별당","Q001","토요일 가죽공예 수업 신청합니다.","Y","Y","N","Y","2019-03-17 11:51:40.0"
"109","15","15","칠보공예","수","오후","대청마루","Q001","칠보공예 오후반","Y","Y","N","Y","2018-11-19 18:51:11.0"
"129","4","4","실용민화","금","오전","안방","Q001","실용민화","Y","Y","N","Y","2019-03-09 09:11:38.0"
"164","16","16","매듭공예","토","오전","대청마루","Q001","매듭공예 주말반 신청하고 싶습니다.","Y","Y","N","Y","2019-03-18 16:17:16.0"
"167","5","5","가야금","토","오전","안방","Q002","안녕하세요 ^^  가야금 강의를 듣고싶은데 혹시 가야금 대여 및 악보구입 관련 비용은 대략 얼마인지 미리 알 수 있을까요 ?^^","Y","Y","N","Y","2019-03-20 10:28:10.0"
"168","24","24","가죽공예","토","오전","별당","Q001","가죽공예 신청합니다","Y","Y","N","Y","2019-03-20 11:20:09.0"
"25","4","4","실용민화","월","오전","안방","Q002","안녕하세요! 수강 희망자인데 몇 가지 궁금한 점이 있어서 문의 드립니다. 혹시 수강신청 기간이 따로 있는 과목인지 먼저 여쭙고 싶어요. 그리고 준비물을 따로 준비해가야 하는 것인지도 궁금합니다. 그럼 답변 기다리겠습니다. 감사합니다. ^^","Y","Y","N","Y","2017-08-08 17:55:51.0"
"44","21","21","전통섬유그림","화","야간","사랑방","Q002","다음 차수 교육은 언제 신청받는지 궁금합니다. (현재 여름학기 8월 시간표까지 업로드되어 있음)","Y","Y","N","Y","2017-10-24 11:59:45.0"
"60","5","5","가야금","토","오전","안방","Q002","토요일 가야금 강좌 신천하고자 합니다 3월 강좌가 이미 시작한거 같은데 이번주부터 시작이 가능한지 등  강사님이 전화가 안되서 이쪽으로 문의드립니다^^","Y","Y","N","Y","2018-03-13 18:06:35.0"
"135","5","5","가야금","토","오전","안방","Q001","토요일 오전 가야금 수강 신청합니다. 가야금 구입계획도 있습니다. 현재 소지한 가야금은 없습니다.","Y","Y","N","Y","2019-03-10 14:26:20.0"
"204","16","16","매듭공예","목","야간","사랑방","Q001","매듭공예 야간반 신청합니다.","Y","Y","N","Y","2019-06-12 16:38:38.0"
"276","56","47","실용민화","목","야간","안방","Q001","수업 신청은 언제 가능한가요? 전에도 선생님 전화번호만 주셔서 문의를 따로 해야하는지요?","Y","Y","N","Y","2020-01-10 10:35:28.0"
"77","5","5","가야금","토","오전","안방","Q001","7월부터 가야금 강좌 신청하고자 합니다!   혹시 아직 수강 가능한가요?","N","Y","N","N","2018-06-18 20:10:54.0"
"112","14","14","문인화","화","오후","안방","Q001","12월첫주부터 시작하고 싶습니다. 문인화 수강가능하지요? 챙겨가야할 준비물있나요?","Y","Y","N","Y","2018-12-01 22:52:53.0"
"165","10","10","생활자수","화","야간","대청마루","Q001","화요일 저녁 시간에 있는 생활 자수 수업 아직 신청 가능한가요?","Y","Y","N","Y","2019-03-19 09:05:43.0"
"59","10","10","생활자수","화","야간","대청마루","Q001","생활 자수를 배우려고 하는데 혹시 신청가능한가요 전통 자수기법도 배우고 싶어서 문의 드립니다","N","Y","N","N","2018-03-06 10:39:23.0"
"127","5","5","가야금","토","오전","안방","Q002","안녕하세요 가야금 강좌(토 오전)에 관심이 있어서 몇가지 문의 드립니다.   1. 개강일: 개강일은 언제인가요? 혹시 이미 시작되었다면 중간 합류가 가능한가요?  2. 악기준비: 혹시 대여는 불가능한가요? 구매를 해야한다면 어떤 제품을 어디서 구매하면 되는지 알려주시면 감사하겠습니다. 가야금은 처음입니다.  3. 학생교류: 혼자 등록을 할지 친구와 함께 등록할지 고민중입니다. 혼자 등록하는 경우 학생들과의 교류가 있는 편인가요?^^   회신 주시면 고민 후 신청하려고 합니다. 감사합니다.","Y","Y","N","Y","2019-03-08 15:06:47.0"
"221","19","8","규방공예","화","오전","별당","Q001","오전","Y","Y","N","Y","2019-08-17 20:35:15.0"
"223","56","4","실용민화","목","야간","안방","Q001","배우고싶습니다","Y","Y","Y","Y","2019-08-20 10:16:23.0"
"228","8","8","규방공예","화","오전","별당","Q001","규방공예 신청하려고합니다","Y","Y","N","Y","2019-08-28 09:23:24.0"
"282","56","47","실용민화","목","야간","안방","Q002","안녕하새요 실용민화 야간반 수강하고자 하는데 몇가지 문의사항이있습니다. 1.수업이 언제부터 시작해서 언제 끝나는 건가요? 2.수업기간 동안 수업료 5만원 재료비 15만원해서 약 20만원이 드는건가요? 답변 부탁드리겠습니다. 감사합니다.","Y","Y","N","Y","2020-01-17 21:57:27.0"
"304","56","47","실용민화","목","야간","안방","Q001","안녕하세요. 실용민화 야간반 수업을 신청하고 싶어  연락드립니다.  현재 수업이 진행중인지 혹 개강 준비중인지요?","Y","Y","N","Y","2020-05-11 16:06:16.0"
"310","17","8","규방공예","화","오전","사랑방","Q001","규방공예 화요일 오전반 신청합니다.","Y","Y","N","Y","2020-05-18 12:10:01.0"
"218","16","16","매듭공예","목","야간","사랑방","Q001","전통매듭 목요일 야간수업을 신청합니다.","Y","Y","N","Y","2019-08-15 19:34:14.0"
"265","30","43","가야금","화","야간","마을서재 사랑방","Q002","안녕하세요 가야금 수업 문의 드립니다 수업을 들을 때 가야금을 직접 준비해가야 하는지요??  가야금 한번도 배워본적 없어서 배워보고 싶은데... 가야금을 사야만 하는지 궁금해서 문의드립니다...!","Y","Y","N","Y","2019-12-21 04:00:19.0"
"285","2","34","펜드로잉","월","오전","사랑방","Q001","펜드로잉 2월부터 수강신청하고자 합니다","Y","Y","N","Y","2020-01-23 09:57:18.0"
"152","5","5","가야금","토","오전","안방","Q002","강의를 듣고 싶니다. 수업에 필요한 악기는 대여시 얼마인가요??","Y","Y","N","Y","2019-03-13 23:39:46.0"
"40","13","13","대금/소금/단소","화","야간","안방","Q002","대금 강좌를 수강하고 싶습니다. 강좌 신청은 언제 가능하며 언제 부터 수강 가능한지 문의 드립니다.","Y","Y","N","Y","2017-09-24 16:54:40.0"
"64","4","4","실용민화","목","야간","안방","Q001","강좌 신청합니다. 재료비는 어떻게 하는지 궁금합니다.","N","Y","N","N","2018-03-26 12:27:40.0"
"128","16","16","매듭공예","목","야간","사랑방","Q001","목요일 야간 매듭공예반 신청합니다.","Y","Y","Y","Y","2019-03-08 22:55:14.0"
"260","26","14","문인화","화","야간","안방","Q001","안녕하세요.  신청 전에 몇 가지 여쭈어봅니다.  2020년 1월부터 수강이 가능한지 여쭈어 보고 싶습니다. 그리고 3개월 과정이라고 하면 개개인이 시작하는 시점이 다 다를텐데 개별적으로 커리큘럼이 적용되나요? 마지막으로 준비 물품은 개인이 알아서 구입 후 수업에 참여하면 되나요?  위 내용 답변 부탁드리며 수강 신청은 어떻게 하면 되는지 안내해주시면 감사하겠습니다!  감사합니다.","Y","Y","N","Y","2019-12-14 22:53:48.0"
"279","30","43","가야금","화","야간","마을서재 사랑방","Q002","안녕하세요 :) 가야금 수업관련해서 문의드리고 싶어서 연락드립니다. 수업은 매달 새로 시작이 되는건지 아니면 정해진 달에 시작하게 되는건지 궁금합니다. 연락부탁드려요~ 감사합니다.","Y","Y","N","Y","2020-01-14 00:56:02.0"
"281","54","54","닥종이 인형","목","오전","안방","Q001","닥종이 인형 강좌에 수강신청 합니다 언제부터 수강할수 있는지요","Y","Y","N","Y","2020-01-17 15:10:19.0"
"176","5","5","가야금","토","오전","안방","Q002","안녕하세요 가야금 강좌에 관심이 있는데요! 준비물에 가야금이 적혀있던데 혹시 악기가 없는 수강생을 위해서 대여 서비스도 운영하고 있는지 궁금해 이렇게 문의글을 드리게 되었습니다! 답변 부탁드립니다 감사합니다:)","Y","Y","N","Y","2019-03-22 17:04:10.0"
"182","14","14","문인화","화","야간","안방","Q002","안녕하세요? 문인화 야간반 수강에 대해서 문의드립니다.   정확한 날짜 없이 3~5월 3개월 과정이라고만 안내되어 있네요.  이미 3월 말이라 지금 시작하면 2개월만 하는 건지요?  아니면 시작 날짜와 상관없이 개별적으로 3개월을 구성하여 하는 건지요?   6월 이후 다시 신청을 받는 건지요?","Y","Y","N","Y","2019-03-28 16:02:09.0"
"189","10","10","생활자수","화","야간","대청마루","Q002","강의가 진행 중인데 지금 신청가능한지 여쭙고싶습니다. 안된다면 언제부터 새로 시작되는 강의신청이 가능한지요. 신청날짜 방법 알려주시면 감사하겠습니다","Y","Y","N","Y","2019-04-18 14:08:08.0"
"303","34","25","한복인형퀼트","수","오전","별당","Q001","신청을 희망합니다. 근데 몇개월 과정인가요?","Y","Y","N","Y","2020-05-10 22:29:30.0"
"90","5","5","가야금","토","오전","안방","Q002","안녕하세요. 가야금에 관해 문의드립니다.  1:1 개인지도로 이루어진다고 적혀있는데 기초가 아닌 고급과정인것인가요? 가야금이 없는 사람은 대여해 주시는지 아니면 개별적으로 구매를 해서 들고다녀야 하는 것인지도 문의드립니다.","Y","Y","N","Y","2018-08-13 19:21:47.0"
"295","46","54","닥종이 인형","목","오전","안방","Q001","닥종이 인형","Y","Y","N","Y","2020-02-21 12:04:25.0"
"208","16","16","매듭공예","목","야간","사랑방","Q002","안녕하세요  강의 신청하면 이번주 목요일 부터 수강 가능한가요?  답변 부탁드립니다.  감사합니다.","Y","Y","N","Y","2019-07-08 15:17:29.0"
"217","14","14","문인화","화","오후","안방","Q001","가을학기 신청합니다.","Y","Y","N","Y","2019-08-15 02:56:06.0"
"229","56","4","실용민화","목","야간","안방","Q001","실용민화 수업 신청 합니다.","Y","Y","N","Y","2019-09-02 12:54:43.0"
"210","58","19","한국화","목","야간","대청마루","Q001","한국화 강좌 신청합니다.","Y","Y","Y","Y","2019-07-24 11:52:55.0"
"249","56","4","실용민화","목","야간","안방","Q002","수업시작은 언제나 가능 한가요?","Y","Y","N","Y","2019-10-30 12:51:18.0"
"264","59","7","서예","목","야간","별당","Q002","목요일 야간 서예교실내년 1월부터 배울 수 있나요.?동네서실에서 한 1년정도 전서체 정도만 배웠는데학업을 병행하다보니 가다 안하다가 지속이 되어 지금은 안다닌지 2년정도 되었습니다. 혼자 집에서 쓰려니 집중이 안되고 해서체 같은 실용적인 서체도 쓰고 싶은데 배운게 짧아서 어렵습니다. 그래서 방학기간과 학기중에도 6시 이전에 수업이 끝나서 시간이 되어 신청해보려 합니다. 1월부터 가능할까요.? 혹시 결재는 카드결제도 가능한가요.?","Y","Y","N","Y","2019-12-20 20:52:20.0"
"297","34","34","펜드로잉","화","야간","사랑방","Q001","안녕하세요 펜드로잉 화요일 저녁 강좌 신청하려합니다","Y","Y","N","Y","2020-03-03 12:07:32.0"
"177","16","16","매듭공예","목","야간","사랑방","Q001","전통문화강좌 매듭공예 신청합니다","Y","Y","N","Y","2019-03-22 17:55:12.0"
"184","23","23","캘리그라피","월","오후","안방","Q002","캘리그라피 월요일 수업 입문반 수강이 가능한지 문의드립니다.","Y","Y","N","Y","2019-03-31 11:48:03.0"
"232","27","34","펜드로잉","화","야간","사랑방","Q001","펜드로잉 배우고 싶은데 야간 수업이 가능합니다 수업시간에 30분쯤 늦어도 된다면요","Y","Y","N","Y","2019-09-15 12:09:15.0"
"234","24","8","규방공예","화","오후","별당","Q002","규방공예 초급을 신청하고 싶습니다.  화요일 오후반으로 신청이 가능한지요?","Y","Y","N","Y","2019-09-24 00:53:05.0"
"238","80","38","장구","토","오전","마을서재 사랑방","Q001","개인 장구를 가지고 있지는 않습니다만 신청이 가능하다면 배워보고 싶습니다.  종로구에 거주하고 있는 직장인으로 토요일 시간대 강좌가 조금 부지런을 떨어야 하겠지만 평소 배우고 싶었던 터라 신청드립니다.","Y","Y","N","Y","2019-09-29 13:13:03.0"
"241","25","25","한복인형퀼트","수","오후","별당","Q002","1.수강신청은 언제든 가능한가요? 2.단계별로 한달 과정인가요?","Y","Y","N","Y","2019-10-02 11:59:17.0"
"305","14","14","문인화","화","오후","대청마루","Q002","강의 문의드립니다. 5월 강의 시작 날짜와 6월 강의 시작 날짜  문의 드립니다.","Y","Y","N","Y","2020-05-17 08:14:57.0"
"205","8","8","규방공예","화","오후","대청마루","Q002","안녕하세요:) 규방공예 오후 수업 듣고 싶은데 등록할 수 있나요?","Y","Y","N","Y","2019-06-14 11:31:38.0"
"195","10","10","생활자수","화","야간","대청마루","Q001","생활자수 (화요일 야간) 수업  신청하고 싶습니다. 5월 수업이 시작했는데 중도 수강신청 가능한지요?","Y","Y","N","Y","2019-05-10 07:43:42.0"
"197","16","16","매듭공예","토","오전","대청마루","Q001","안녕하세요?  매듭공예 신청하려고 합니다.  신청가능하면 5월 11일(토)부터 참석하고 싶은데  가능한지 확인부탁드립니다.   또한 혹 3개월 수강이 아닌 2개월정도 수강하는 것도  가능한지요?    고맙습니다.","Y","Y","N","Y","2019-05-10 12:38:00.0"
"198","16","16","매듭공예","토","오전","대청마루","Q001","안녕하세요?  매듭공예 신청하려고 합니다.  신청가능하면 5월 11일(토)부터 참석하고 싶은데  가능한지 확인부탁드립니다.  고맙습니다.","Y","Y","N","Y","2019-05-10 12:41:24.0"
"199","8","8","규방공예","화","오전","대청마루","Q001","안녕하세요?  규방공예신청(초급)합니다.   수강은 언제부터 가능한지요?   고맙습니다.","Y","Y","N","Y","2019-05-10 12:48:17.0"
"201","16","16","매듭공예","목","야간","사랑방","Q002","안녕하세요  평소 한국전통문화등을 좋아 하여 매듭을 직접 배우고 싶어 연락 드립니다.   안내에 따른 3개월 초급을 먼저 하고 싶은데요 언제 부터 시작인지등 문의 드립니다.    감사합니다.","Y","Y","N","Y","2019-05-15 17:33:38.0"
"202","14","14","문인화","화","오후","안방","Q002","문인화 오후반 신청 합니다","Y","Y","N","Y","2019-06-07 22:59:37.0"
"225","4","4","실용민화","목","야간","안방","Q001","실용민화 목요일 야간수업 신청합니다~","Y","Y","N","Y","2019-08-20 21:18:01.0"
"192","5","5","가야금","토","오전","안방","Q001","처음입니다. 기초부터 배우고 싶습니다. 가야금이 없는데 대여가 가능할까요?","Y","Y","N","Y","2019-04-29 22:05:25.0"
"206","20","20","닥종이인형","목","오전","안방","Q001","닥종이인형을 배우고 싶습니.","Y","Y","N","Y","2019-06-17 22:58:32.0"
"207","7","7","서예","목","야간","별당","Q001","서예 (목)야간 수업 7월 신청하고 싶습니다.","Y","Y","N","Y","2019-06-26 13:53:56.0"
"251","33","51","꽃차","수","오전","대청마루","Q002","언제부터 신청/ 강의가 시작되는것인지  강의 회차마다 재료비가 추가가 되는것인지 궁금합니다. 대개 강의비+ 재료비가 추가가 되어 비싸지더라구요^^;  그리고 시험 일정이 있던데 그것도 있나요?","Y","Y","N","Y","2019-11-08 17:53:56.0"
"274","80","44","소리와 함께하는 장구","토","오전","마을서재 사랑방","Q002","안녕하세요?  소리와 함께하는 장구에 관심있어 문의드립니다.   배워 보고 싶은데  1. 장구 개인 구비해야 하나요? 2. 금주 1.11(토)부터 수강 가능하나요? 3. 수강비는 어떻게 되나요? 4. 개인 강습인지....그룹 강습인지요?    1회차에 몇 분 정도 같이 하나요? 5. 초등생도 같이 들을 수 있나요?   그럼 답변 좀 부탁드립니다. ^^","Y","Y","N","Y","2020-01-07 10:47:33.0"
"293","34","25","한복인형퀼트","수","오전","별당","Q001","한복인형컬트","Y","Y","N","Y","2020-02-12 20:30:05.0"
"311","17","8","규방공예","화","오전","사랑방","Q001","규방공예 화요일 오전반 신청합니다.","Y","Y","N","Y","2020-05-18 14:06:34.0"
"312","30","43","가야금","화","야간","마을서재 사랑방","Q002","문의사항 1. 초보도 신청 가능한가요? 2. 개인 가야금이 있어야 신청 가능한가요?","Y","Y","N","Y","2020-05-26 10:00:57.0"
"313","17","8","규방공예","화","오전","사랑방","Q002","안녕하세요? 6월에 수업신청 가능한지 궁금합니다.","Y","Y","N","Y","2020-05-26 19:51:58.0"
"252","27","34","펜드로잉","화","야간","사랑방","Q001","펜드로잉 수업에 참여하고 싶습니다. 11월 둘째주인데 참여가 가능한지요? 답변 기다리겠습니다.","Y","Y","N","Y","2019-11-10 21:02:08.0"
"257","48","48","캘리그라피","월","오전","안방","Q001","월요일 오전 캘리그라피 입문반 신청합니다.","Y","Y","N","Y","2019-12-12 18:17:31.0"
"261","56","47","실용민화","목","야간","안방","Q001","안녕하세요 실용민화 강좌 신청 및 문의 드립니다.   혹시 목요일 야간반과 금요일 오전반 호환이 가능 한가요? 다음주 목요일 야간반부터 시작 할 수 있을까요? 그림을 전혀 그려 보지 못했는데 가능할까요? 첫 강의시 필요한 준비해가야 할 물건이 있나요?","Y","Y","N","Y","2019-12-17 16:59:59.0"
"262","7","7","서예","목","야간","별당","Q002","목요일 야간 서예교실 내년 1월부터 배울 수 있나요.? 동네서실에서 한 1년정도 전서체 정도만 배웠는데 학업을 병행하다보니 가다 안하다가 지속이 되어 지금은 안다닌지 2년정도 되었습니다. 혼자 집에서 쓰려니 집중이 안되고 해서체 같은 실용적인 서체도 쓰고 싶은데 배운게 짧아서 어렵습니다. 그래서 방학기간과 학기중에도 6시 이전에 수업이 끝나서 시간이 되어 신청해보려 합니다. 1월부터 가능할까요.? 혹시 결재는 카드결제도 가능한가요.?","Y","Y","N","Y","2019-12-20 03:44:52.0"
"270","1","48","캘리그라피","월","오전","안방","Q001","안녕하세요? ^^  오는 1월 2020년에도 캘리 그파피 클라스 개강 하시는지요? 주로 무슨 재료로 수업을 받게 되는지요? 또 수업시간은 9:30부터 이고.. 월요일 오전만 시간을 중심으로 수업을 받는지요?  감사합니다.","Y","Y","N","Y","2019-12-31 13:32:31.0"
"188","20","20","닥종이인형","목","오전","안방","Q002","안녕하세요 평소 닥종이 인형에 관심이 많아서 문의드립니다. 처음 배우는데 가능한지요? 그리고 언제부터 신청 가능한가요? 감사합니다","Y","Y","N","Y","2019-04-09 10:58:08.0"
"213","8","8","규방공예","화","오후","별당","Q001","규방공예  화요일 오후반 신청합니다.","Y","Y","N","Y","2019-07-29 11:40:09.0"
"231","26","14","문인화","화","야간","안방","Q001","안녕하세요.  화요일 야간반을 신청하고 싶습니다. 경험 없는 완전 초보입니다.  감사합니다.","Y","Y","N","Y","2019-09-11 09:03:44.0"
"235","7","34","펜드로잉","월","오후","사랑방","Q001","펜드로잉 오후반 신청합니다.","Y","Y","N","Y","2019-09-27 01:36:22.0"
"236","4","4","실용민화","금","오전","안방","Q001","실용민화 금요일 오전","Y","Y","N","Y","2019-09-27 13:37:06.0"
"237","37","37","전통니트","목","야간","대청마루","Q001","10월부터 신청 가능한지요? 비용(재료비 등) 알려주시면 좋겠습니다.","Y","Y","N","Y","2019-09-28 19:01:31.0"
"239","6","23","캘리그라피","월","오후","안방","Q001","캘리그라피 강좌 수강신청합니다.","Y","Y","N","Y","2019-10-01 01:57:18.0"
"250","34","34","펜드로잉","월","오전","사랑방","Q001","펜드로잉 월요일","Y","Y","N","Y","2019-10-31 10:57:48.0"
"256","48","48","캘리그라피","월","오전","안방","Q001","켈리그라피 월요일 오전강좌신청합니다.","Y","Y","N","Y","2019-12-12 18:16:14.0"
"263","43","43","가야금","화","야간","마을서재 사랑방","Q001","가야금 강좌를 듣고싶어서 문의드립니다. 상시모집인가요? 준비해야되는 것들이 있을까요?","Y","Y","N","Y","2019-12-20 13:37:42.0"
"267","1","48","캘리그라피","월","오전","안방","Q001","캘리그라피수업 신청하려고함","Y","Y","N","Y","2019-12-23 14:40:47.0"
"286","28","53","꽃차","화","야간","대청마루","Q001","꽃차 만들기","Y","Y","N","Y","2020-01-28 01:05:20.0"
"290","21","8","규방공예","화","오후","안방","Q001","안녕하세요 전통문화 - 규방공예 강좌 희망하여 수강 문의드립니다.  감사합니다.","Y","Y","N","Y","2020-01-28 20:23:43.0"
"296","61","47","실용민화","금","오전","안방","Q001","실용민화","Y","Y","N","Y","2020-02-21 12:05:58.0"
"298","30","43","가야금","화","야간","마을서재 사랑방","Q002","예전부터 가야금 강좌 듣고 싶어서 지켜보고 있었는데  이젠 주말 강의가 없나보네요 ㅠㅠㅠㅠ  다시 주말 가야금 강좌 생길 가능성은 없는 건가요?","Y","Y","N","Y","2020-04-12 02:37:33.0"
"299","1","48","캘리그라피","월","오전","안방","Q001","안녕하세요~저는 한국에서 살고 있는 외국인입니다. 캘리그라피를 워낙 좋아해서 한번 배우고 싶은데 혹시 외국인도 강의 들을 수 있는지 여쭤보고 싶습니다. 또 가능하면 언제 시작할 수 있는지도 알려주셨으면 감사합니다!","Y","Y","N","Y","2020-04-25 18:49:09.0"
"173","5","5","가야금","토","오전","안방","Q001","신청합니다","Y","Y","N","Y","2019-03-22 10:17:53.0"
"186","15","15","칠보공예","수","오후","대청마루","Q001","칠보공예 강좌를 들어보고 싶은데 언제부터 가능한가요?","Y","Y","N","Y","2019-03-31 19:02:33.0"
"190","24","24","가죽공예","토","오전","별당","Q002","안녕하세요.  신청하면 3개월동안 하는건가요? 처음 준비물은 어떤걸 준비해야하나요?","Y","Y","Y","Y","2019-04-26 21:38:57.0"
"196","16","16","매듭공예","토","오전","대청마루","Q001","안녕하세요?  매듭공예 신청하려고 합니다.  신청가능하면 5월 11일(토)부터 참석하고 싶은데  가능한지 확인부탁드립니다.  고맙습니다.","Y","Y","N","Y","2019-05-10 12:37:01.0"
"211","59","7","서예","목","야간","별당","Q001","서예강좌 신청합니다.","Y","Y","N","Y","2019-07-24 11:53:58.0"
"212","26","14","문인화","화","야간","안방","Q001","문인화 신청합니다.","Y","Y","N","Y","2019-07-24 12:13:01.0"
"214","16","16","매듭공예","목","야간","사랑방","Q001","매듭강좌 듣고싶습니다!","Y","Y","N","Y","2019-08-07 00:14:58.0"
"215","5","5","가야금","토","오전","안방","Q001","가야금수강듣고싶은데요","Y","Y","N","Y","2019-08-07 14:18:25.0"
"220","59","7","서예","목","야간","별당","Q001","북촌 한옥 서예 수업(목요일 저녁반) 신청하고자 합니다. 회신 부탁드립니다.  감사합니다.","Y","Y","N","Y","2019-08-16 10:10:48.0"
"233","35","40","꽃차","수","오전","마을서재 사랑방","Q001","꽃차 10월 강좌 신청합니다","Y","Y","N","Y","2019-09-20 10:09:59.0"
"273","30","43","가야금","화","야간","마을서재 사랑방","Q002","가야금 강좌는 초보도 신청 가능한가요?  가능하다면 수시로 신청하는 건지 아니면 정해진 기간이 있는지 궁금합니다.","Y","Y","N","Y","2020-01-07 10:19:26.0"
"278","2","34","펜드로잉","월","오전","사랑방","Q001","개강일과 수강기간이 궁금합니다. 저는 20일부터 수강희망합니다.","Y","Y","N","Y","2020-01-13 00:56:15.0"
"292","46","54","닥종이 인형","목","오전","안방","Q001","닭종이공예","Y","Y","N","Y","2020-02-12 20:27:09.0"
"300","61","47","실용민화","금","오전","안방","Q002","금요일 오전 수업에 신청가능한가요? 가능하다면 언제부터 할 수 있나요?","Y","Y","N","Y","2020-05-03 09:09:29.0"
"307","8","8","규방공예","화","오전","사랑방","Q002","안녕하세요  규방공예 강좌 문의 드립니다 5월 수강가능힌 강의 시작 날짜와 강의 시간 문의드립니다.","Y","Y","N","Y","2020-05-17 08:31:07.0"
"200","10","10","생활자수","화","야간","대청마루","Q001","안녕하세요? 생활자수 신청합니다.   강의 참석은 언제부터 가능한지 확인부탁드려요.  고맙습니다.","Y","Y","N","Y","2019-05-10 12:51:44.0"
"203","10","10","생활자수","화","야간","대청마루","Q001","북촌문화센터 자수 수업이 궁금합니다. 신청가능하면 신청하고 싶습니다.  혹 전화연락이 안될시는 문자남겨주시면 감사드리겠습니다~","Y","Y","N","Y","2019-06-10 16:50:45.0"
"222","4","4","실용민화","목","야간","안방","Q001","강좌 수강 희망합니다  신청 방법이 어떻게 되나요?","Y","Y","N","Y","2019-08-18 01:03:53.0"
"243","7","7","서예","목","야간","별당","Q002","목/야간 서예강좌에 관심이 있습니다. 월5만원으로 되어있는데 결제하는 시기가 지정되어있는지 아니면 신청하는 시점을 기준으로 산정이 되는지 궁금합니다. 준비물 비용은 별도라고 되어있는데 사전구비된 물품을 구매하는 성격인지 아니면 별도로 구매를 해와야하는건지 궁금합니다.","Y","Y","N","Y","2019-10-09 23:13:30.0"
"244","34","34","펜드로잉","월","오전","사랑방","Q001","드로잉은 재밌어요.","Y","N","N","Y","2019-10-10 21:30:15.0"
"306","53","53","꽃차","화","야간","대청마루","Q002","안녕하세요 꽃차 강의 문의 드립니다 5월 강의 시작 날짜와  6월 강의 시작  및 등록 가능한 날짜 문의 드립니다","Y","Y","N","Y","2020-05-17 08:17:43.0"
"308","8","8","규방공예","화","오전","사랑방","Q002","안녕하세요  규방공예 강좌 문의 드립니다 5월 수강가능힌 강의 시작 날짜와 강의 시간 문의드립니다.","Y","Y","N","Y","2020-05-17 10:38:09.0"
"309","23","14","문인화","화","오후","대청마루","Q001","문인화 화요일 오후반 신청합니다.","Y","Y","N","Y","2020-05-18 12:03:36.0"
"35","13","13","대금/소금/단소","화","야간","안방","Q001","대금강좌 신청합니다.","N","Y","N","N","2017-08-24 14:22:58.0"
"34","16","16","매듭","목","야간","별당","Q001","목요일 야간 매듭신청합니다. 9월부터 참여 가능한지요?  저 포함 한 명 더 신청가능한지요?","N","Y","N","N","2017-08-24 13:35:17.0"
"49","5","5","가야금","토","오전","안방","Q002","가야금 강좌를 수강하고자 합니다.  매월 첫주 시작인지요?","Y","Y","N","Y","2017-12-11 14:41:51.0"
"51","5","5","가야금","토","오전","안방","Q002","가야금 악기가 없어도 수업이 가능한가요? 대여를 한다면 가격은 얼마나 되나요? 한번도 가야금을 연주한적이 없어도 시작할 수 있을까요?","Y","Y","N","Y","2018-01-21 17:03:54.0"
"55","8","8","규방공예(조각보)","화","오전","대청마루","Q001","3월부터 규방공예-조각보 강좌를 수강하고 싶습니다. 화요일 오전으로 가능할까요? 경험은 전혀 없습니다.","N","Y","N","N","2018-02-22 14:42:11.0"
"68","16","16","매듭","토","오전","대청마루","Q002","저희 아이가 매듭공예를 많이 배우고 싶어하는데 아이도 할 수 있는지 궁금합니다. 초등학교 4학년생입니다.","Y","Y","N","Y","2018-04-24 23:51:10.0"
"71","22","22","풀짚","목","야간","사랑방","Q001","안녕하세요! 관련 공예를 해본 적은 없지만 배우고 싶어서  목요일 야간 강좌를 신청하게 되었습니다.  연락부탁드립니다. 감사합니다~!","N","Y","N","N","2018-05-11 10:34:31.0"
"74","14","14","문인화","화","야간","별당","Q001","6~8월 목요일 야간 한국화 강좌 신청합니다","Y","Y","N","N","2018-05-30 16:28:37.0"
"76","8","8","규방공예(조각보)","화","오후","대청마루","Q002","7월부터 수강하려고 합니다. 수강과정이 3개월인데 7월 개강반이 있는지 궁금합니다. 현재 해외에 있어 불통이니 메일로 연락주세요!  bacnarias@naver.com","Y","Y","N","Y","2018-06-15 06:55:43.0"
"84","13","13","대금/소금/단소","월","오후","안방","Q002","안녕하세요.  전통문화강좌/대금 관련하여 문의드립니다.  기존에 대금을 조금 불다가 이번에 북촌에서 배워보고 싶은데  신청은 매 학기가 시작하는 시점에 가능한거가요? 그렇다면 9월부터 배울수있는건가요?  그리고 3개월과정이라고 명시가 되있는데 계속적으로 배우는 것은 어려운것인지요.   월요일 및 화요일 오후에 레슨을 받고 싶은데 현재 몇명정도 수강하고 있는지도 궁금합니다.  답변부탁드리겠습니다.","Y","Y","N","Y","2018-08-07 04:15:05.0"
"88","4","4","실용민화","목","야간","안방","Q001","목요일 19시 수업 신청 가능한지요","N","Y","N","N","2018-08-08 09:53:28.0"
"99","25","25","한복인형퀼트","수","오후","사랑방","Q002","강좌는 11월부터 시작하나요?","Y","Y","N","Y","2018-10-03 11:53:27.0"
"224","58","19","한국화","목","야간","대청마루","Q001","배우고싶습니다","Y","Y","N","Y","2019-08-20 10:30:27.0"
"230","16","14","문인화","화","오전","안방","Q001","문인화  화욜 오전수업 신청합니다","Y","Y","N","Y","2019-09-04 21:57:01.0"
"102","4","4","실용민화","금","오전","안방","Q002","안녕하세요:) 수강신청을 하고 싶은데 혹시 접수기간이 따로 있는지 재료비는 별도라 써져있는데 대략 얼마정도 되는지 알고싶어 문의드립니다. 감사합니다.","Y","Y","N","Y","2018-10-07 15:59:03.0"
"104","8","8","규방공예","화","오후","대청마루","Q001","규방공예 오후 수업에 참여하고싶습니다","Y","Y","N","Y","2018-10-19 13:44:24.0"
"108","4","4","실용민화","목","야간","안방","Q001","민화 수강신청합니다.","Y","Y","N","Y","2018-11-11 06:25:52.0"
"63","20","20","닥종이인형","목","오전","안방","Q001","안녕하세요~ 현재 수강가능한지요?","N","Y","N","N","2018-03-19 10:06:41.0"
"272","19","8","규방공예","화","오전","별당","Q001","안녕하세요...  내년 1월에도 수업을 시작 하시는지요? 저는 기초부터 시작해야 하는 초보입니다.  내년도 클래스 스케즐및 시간을 알고 싶습니다.  감사합니다.  백수연 올림","Y","Y","N","Y","2019-12-31 14:12:37.0"
"284","56","47","실용민화","목","야간","안방","Q001","문의에 답이 없어 신청 먼저 합니다.","Y","Y","N","Y","2020-01-21 18:24:08.0"
"245","41","41","가야금(12현)","화","야간","마을서재 사랑방","Q001","가야금 야간반 신청하고 싶습니다.  12현 가야금 1년간 드문드문 배웠었는데요 (일주일 혹은 이주일에 한 번씩 밖에 수업을 못했어요ㅠㅠ)  직장인이라 오후 18시 30분 이후로만 수업이 가능한데 강좌 신청해도 될까요?","Y","Y","N","Y","2019-10-11 10:51:34.0"
"247","8","8","규방공예","화","오후","별당","Q002","규방공예 오후타임 신청 가능한가요?？？  한달에 수강료 5만 재료비 8만 이외에 더 들어가는？？ 게 있을까요?？？","Y","Y","N","Y","2019-10-19 10:32:39.0"
"248","56","4","실용민화","목","야간","안방","Q001","실용민화 신청합니다.","Y","Y","N","Y","2019-10-25 01:07:15.0"
"259","27","34","펜드로잉","화","야간","사랑방","Q001","펜드로잉 강좌 신청합니다.","Y","Y","N","Y","2019-12-13 17:20:56.0"
"266","1","48","캘리그라피","월","오전","안방","Q001","안녕하세요. 캘리그라피 강좌 신청을 하고 싶어서 연락드려요. 가능하면 1월부터 수강하고 싶고 전에 2달 정도 다른 곳에서 배운 경험이 있어요. 수강하려면 어떻게 해야 되는지 알려 주세요. 잘 부탁드려요.","Y","Y","N","Y","2019-12-23 12:47:08.0"
"275","61","47","실용민화","금","오전","안방","Q001","첫 강의 때 준비물이 필요한지요? 모든 재료를 한번에 다 구매해야 되나요?","Y","Y","N","Y","2020-01-08 04:44:15.0"
"280","25","25","한복인형퀼트","수","오전","별당","Q001","친정어머니께서 조각보를 이용하여 이것저것 만드시는 것을 너무 좋아하셔서 신청합니다. 꼭 수강하셨으면 좋겠습니다. ^^","Y","Y","N","Y","2020-01-15 21:58:54.0"
"287","33","53","꽃차","수","오전","대청마루","Q001","꽃차","Y","Y","N","Y","2020-01-28 01:07:57.0"
"288","40","52","목조각","수","오후","마을서재 사랑방","Q001","목조각","Y","Y","N","Y","2020-01-28 01:15:22.0"
"289","56","47","실용민화","목","야간","안방","Q002","안녕하세요. 실용민화 강좌를 보고 연락드리는데 강좌 시작 일정과 총 몇회로 이루어져 있는지 알 수 있을까 하여 문의드립니다.","Y","Y","N","Y","2020-01-28 17:51:52.0"
"294","59","7","서예","목","야간","별당","Q001","안녕하세요~  저는 한국에서 살고 있는 외국인입니다. 서예를 워낙 좋아해서 한번 배우고 싶은데 혹시 외국인도 강의 들을 수 있는지 여쭤보고 싶습니다..  감사합니다!","Y","Y","Y","Y","2020-02-13 11:47:30.0"
"3","21","21","전통섬유그림","화","야간","대청마루","Q001","그림을 그린적이 없는데 괜찮을까요?","Y","Y","N","N","2017-03-21 14:44:19.0"
"11","8","8","규방공예(조각보)","화","오전","대청마루","Q002","강좌가 어떻게 이루어지는지 한달단위? 3개월단위? 인지 궁금하구요 지금 만약 신청하면 수강이 가능한지 또한 궁금해요~!","Y","Y","N","Y","2017-04-28 17:57:14.0"
"12","11","11","전통주빚기(기초)","금","오전","대청마루","Q001","전통주빚기 금욜오전수업신청합니다 재료비는 얼마쯤되나요 시작일자도 안내가 안되어있네요","N","Y","N","N","2017-05-19 13:39:47.0"
"24","20","20","닥종이인형","목","오전","안방","Q001","닥종이 인형강좌 수강신청합니다!","N","Y","N","N","2017-08-07 13:10:07.0"
"29","16","16","매듭","토","오전","대청마루","Q001","매듭강의 신청","N","Y","N","N","2017-08-22 15:25:33.0"
"31","4","4","실용민화","금","오전","안방","Q001","실용민화배우고싶습니다. 언제부터 시작가능할까요? ^^","N","Y","N","N","2017-08-23 15:34:26.0"
"80","16","16","매듭","토","오전","대청마루","Q001","TEST","N","N","N","N","2018-07-03 15:54:42.0"
"107","10","10","생활자수","화","야간","대청마루","Q001","생활자수 강좌 수강을 원합니다.","Y","Y","N","Y","2018-11-02 21:35:04.0"
"113","15","15","칠보공예","수","오전","대청마루","Q001","초보자","Y","Y","N","Y","2018-12-09 20:48:14.0"
"181","22","22","풀짚공예","수","오전","사랑방","Q001","풀짚공예 신청합니다.","Y","Y","N","Y","2019-03-25 11:55:01.0"
"253","2","34","펜드로잉","월","오전","사랑방","Q001","1234555","N","N","N","N","2019-11-11 11:27:46.0"
"271","7","7","서예","목","야간","별당","Q001","안녕하세요 동네 주민이라 매번 구경만하다 새해 맞아  서예 수업 신청합니다!   1월 첫째주부터 수업 시작하는건가요?? 첫날 준비물은 어떤걸 가져가면 될까요","Y","Y","N","Y","2019-12-31 13:58:57.0"
"277","28","53","꽃차","화","야간","대청마루","Q001","꽃차 만들기 신청합니다.","Y","Y","N","Y","2020-01-10 10:36:39.0"
"4","4","4","실용민화","월","오전","안방","Q002","1. 수강신청 기간은 따로 있나요? (4월부터 수강하고 싶습니다.) 2. 수강기간 및 커리큘럼은 어떻게 되나요? (초보)","Y","Y","N","Y","2017-03-25 10:37:30.0"
"118","14","14","문인화","화","야간","안방","Q001","문인화 화요일 야간","Y","Y","N","Y","2019-02-09 17:24:38.0"
"191","5","5","가야금","토","오전","안방","Q001","처음입니다. 기초부터 배우고 싶습니다.","Y","Y","N","Y","2019-04-29 22:02:26.0"
"194","24","24","가죽공예","토","오전","별당","Q001","가죽공예 신청하고 싶습니다","Y","Y","N","Y","2019-05-01 07:59:50.0"