"서비스구분","서비스ID","대분류명","소분류명","서비스상태","서비스명","결제방법","장소명","서비스대상","바로가기URL","장소X좌표","장소Y좌표","서비스개시시작일시","서비스개시종료일시","접수시작일시","접수종료일시","지역명"
"자체","S191227171118881360","문화행사","전시/관람","예약일시중지","2020년 공평도시유적전시관 전시 해설 운영","무료","공평도시유적전시관","제한없음(유아 및 노인 등 노약자 동반시 보호자 필수 참석)","http://yeyak.seoul.go.kr/reservation/view.web?rsvsvcid=S191227171118881360","37.57149756466348","126.98365878856444","2020-01-02 00:00:00.0","2020-12-31 00:00:00.0","2019-12-28 10:00:00.0","2020-12-30 23:59:00.0","종로구"
"자체","S200504183342969454","문화행사","전시/관람","예약일시중지","백인제가옥 사전예약관람","무료","서울역사박물관>백인제가옥","제한없음","http://yeyak.seoul.go.kr/reservation/view.web?rsvsvcid=S200504183342969454","37.580446301109994","126.98409156389061","2020-05-04 00:00:00.0","2020-06-30 00:00:00.0","2020-05-04 19:00:00.0","2020-06-30 23:00:00.0","종로구"
"자체","S200520180436087882","문화행사","전시/관람","예약일시중지","공평도시유적전시관 사전예약관람","무료","공평도시유적전시관","제한없음","http://yeyak.seoul.go.kr/reservation/view.web?rsvsvcid=S200520180436087882","37.57149756466348","126.98365878856444","2020-05-21 00:00:00.0","2020-06-30 00:00:00.0","2020-05-21 19:00:00.0","2020-06-29 23:00:00.0","종로구"