"키","명칭","행정 시","행정 구","행정 동","대표전화","홈페이지주소","팩스","이메일"
"BE_IW06-0040","SETEC(Seoul Trade Exhibition & Convention)","","","","02-2222-3811","setec.or.kr","02-2222-3820","song5090@sba.seoul.kr"
"BE_IW06-0041","COEX(Convention & Exhibition)","Seoul","Gangnam-gu","Samseong1-dong","02-6000-1125","www.coex.co.kr","02-6000-1303","sales@coex.co.kr"
"BE_IW06-0042","Hotel Riviera Seoul","Seoul","Gangnam-gu","Cheongdam-dong","02-541-3111","www.riviera.co.kr","02-546-6111","banquet@hotelriviera.co.kr"
"BE_IW06-0043","JW Marriott Dongdaemun Square Seoul","","","","02-2276-3000","www.jwmarriottddm.com","02-2276-3001","Yvette.lee@marriott.com"
"BE_IW06-0044","JW Marriott Hotel Seoul","Seoul","Seocho-gu","Banpo4-dong","02-6282-6262","www.marriott.com/seljw","02-6282-6263","julie.park@marriott.com"
"BE_IW06-0045","Stanford Hotel Seoul","","","","02-6016-0001","www.stanfordseoul.com","02-6016-0012","edward.kim@stanfordseoul.com"
"BE_IW06-0046","The_K Hotel Seoul","Seoul","Seocho-gu","Yangjae2-dong","02-571-8100","www.thek-hotel.co.kr","02-571-7055","tony-65@hanmail.net"
"BE_IW06-0047","Grand Ambassadors Seoul","","","","02-2275-1101","www.ambatel.com","02-2272-0773","ambmice2@ambatel.com"
"BE_IW06-0048","Grand InterContinental Seoul Parnas","","","","02-555-5656","www.ihg.com/intercontinental/hotels/kr/ko/reservation","02-559-7990","Eunice.choi@ihg.com"
"BE_IW06-0049","Grand Hyatt Seoul","","","","02-797-1234","seoul.grand.hyatt.com","02-798-6953","Euna.lim@hyatt.com"
"BE_IW06-0050","Grand Hilton Seoul","","","","02-3216-5656","www.grandhiltonseoul.com","02-3216-7799","hyunbin.lim@hilton.com"
"BE_IW06-0051","Novotel Ambassadors Gangnam","Seoul","Gangnam-gu","Yeoksam1-dong","02-567-1101","ambatel.com/gangnam","02-564-4573","nagsales1@ambatel.com"
"BE_IW06-0052","Novotel Ambassadors Doksan","","","","02-838-1101","ambatel.com/doksan","02-3282-6161","nadsmse2@ambatel.com"
"BE_IW06-0053","Ramada Seoul Hotel","Seoul","Gangnam-gu","Samseong2-dong","02-6202-2000","www.ramadaseoul.co.kr","02-6202-2001","jychang@ramadaseoul.co.kr"
"BE_IW06-0054","Lotte Hotel Seoul","Seoul","Jung-gu","Sogong-dong","02-771-1000","www.lottehotel.com","02-417-3655","02mo4@hotellotte.co.kr"
"BE_IW06-0055","Lotte Hotel World","Seoul","Songpa-gu","Jamsil3-dong","02-419-7000","www.hotellotte.co.kr","02-417-3655","swkim@hotellotte.co.kr"
"BE_IW06-0056","Renaissance Seoul Hotel","Seoul","Gangnam-gu","Yeoksam1-dong","02-555-0501","www.marriott.com/selrn","02-553-8118","paul.shin@renaissancehotels.com"
"BE_IW06-0057","Ritz-Carlton Hotel","Seoul","Gangnam-gu","Yeoksam1-dong","02-3451-8000","ritzcarltonseoul.com","02-3451-8280","Brandon.seo@ritzcarton.com"
"BE_IW06-0058","Mayfield Hotel","","","","02-2660-9000","mayfield.co.kr","02-2660-9001","yjkim696@mayfield.co.kr"
"BE_IW06-0059","Millennium Seoul Hilton","","","","02-753-7788","hilton.co.kr","02-754-2510","Deepak.Subbaiah@hilton.com"
"BE_IW06-0060","Best Western Premier Hotel Kukdo","Seoul","Jung-gu","Euljiro-dong","02-6466-1234","hotelkukdo.com","02-6466-1032","yiilbum@hanmail.net"
"BE_IW06-0061","Best Western Premier Gangnam Hotel","Seoul","Gangnam-gu","Nonhyeon1-dong","02-6474-2000","bestwesterngangnam.com","02-6474-2002","mkt@bestwesterngangnam.com"
"BE_IW06-0062","Best Western Premier Seoul Garden","Seoul","Mapo-gu","Dohwa-dong","02-717-9441","seoulgarden.co.kr","02-715-9441","yhjeong@seoulgarden.co.kr"
"BE_IW06-0063","Banyantree club & Spa Seoul","","","","02-2250-8000","www.banyantree.com","02-2250-8009","Daeyong.Kwon@banyantree.com"
"BE_IW06-0064","Samjung Hotel","Seoul","Gangnam-gu","Yeoksam1-dong","02-557-1221","samjunghotel.co.kr","02-556-1126","wwwww@naver.com"
"BE_IW06-0065","Seoul Westin Chosun Hotel","Seoul","Jung-gu","Sogong-dong","02-771-0500","echosunhotel.com","02-753-6370","jmpark@chosunhotel.co.kr"
"BE_IW06-0066","Seoul Royal Hotel","Seoul","Jung-gu","Myeong-dong","02-756-1112","www.royal.co.kr","02-756-1119","Tws9891@royal.co.kr"
"BE_IW06-0067","Seoul Sejong Hotel","","","","02-3705-9115","https://www.sejong.co.kr","02-771-4179","cky301@naver.com"
"BE_IW06-0068","Seoul Olympic Parktel","Seoul","Songpa-gu","Oryun-dong","02-410-2114","parktel.co.kr","02-410-2101","osks@kspo.or.kr"
"BE_IW06-0069","Seoul Palace Hotel","Seoul","Seocho-gu","Banpo4-dong","02-532-5000","seoulpalace.co.kr","02-532-0399","jinsujeon@seoulpalace.co.kr"
"BE_IW06-0070","Sheraton Grande Walkerhill_W Seoul Walkerhill","","","","02-455-5000","sheratonwalkerhill.co.kr","02-452-6860","lukechung@sk.com"
"BE_IW06-0071","Sheraton Seoul D-CUBE CITY Hotel","","","","02-2211-2000","sheratonseouldcubecity.co.kr","02-2211-2150","nick.koo@sheraton.com"
"BE_IW06-0072","Shilla Hotel","Seoul","Jung-gu","Jangchung-dong","02-2230-3131","www.shilla.net","02-2230-5073","hajoon.jung@samsung.com"
"BE_IW06-0073","Ellui Hotel","Seoul","Gangnam-gu","Cheongdam-dong","02-514-3535","ellui.com","02-516-6145","sg5951@hanmail.net"
"BE_IW06-0074","Yeouido Lexington Hotel","Seoul","Yeongdeungpo-gu","Yeoui-dong","02-6670-7000","thelexington.co.kr","02-6670-7299","jsh78@leisurvice.com"
"BE_IW06-0075","Oakwood Premier COEX Center","Seoul","Gangnam-gu","Samseong1-dong","02-3466-7000","www.oakwoodpremier.co.kr","02-3466-7700","yklee@oakwoodpremier.co.kr"
"BE_IW06-0076","InterContinental Seoul COEX","","","","02-3452-2500","www.iccoex.com","02-3430-8000","eunice.choi@ihg.com"
"BE_IW06-0077","Imperial Palace Hotel","Seoul","Gangnam-gu","Nonhyeon2-dong","02-3440-8000","imperialpalace.co.kr","02-3440-8200","matthew.lee@iphotel.co.kr"
"BE_IW06-0078","PARK HYATT SEOUL","","","","02-2016-1234","parkhyattseoul.com","02-2016-1200","sofia.kim@hyatt.com"
"BE_IW06-0079","Plaza Hotel","Seoul","Jung-gu","Sogong-dong","02-771-2200","www.hoteltheplaza.com","02-755-8897","hyunyj@hanwha.co.kr"
"BE_IW06-0080","Hotel Furama","Seoul","Gangnam-gu","Cheongdam-dong","02-6006-9114","prima.co.kr","02-544-8523","drlim@prima.co.kr"
"BE_IW06-0081","Holiday Inn Seongbuk Hotel","Seoul","Seongbuk-gu","Jongam-dong","02-929-2000","holiday.co.kr","02-929-0204","hansunkim@holiday.co.kr"
"BE_IW06-0001","63 Convention Center","","","","02-789-5704","http://www.63convention.co.kr","02-789-5760","sharonbohay@hanwha.com"
"BE_IW06-0002","700 Yacht Club","Seoul","Mapo-gu","Sangam-dong","010-8192-9820","http://www.700yachtclub.com","02-789-5760","700yacht@yachtavenue.com"
"BE_IW06-0003","AW Convention Center","","","","02-396-2442-010-7258-8155","http://www.awconventioncenter.co.kr","02-396-3124","sulee8155@naver.com"
"BE_IW06-0004","KT&G Sangsang Madang","","","","02-330-6205","http://www.sangsangmadang.com","02-330-6220","hs.moon@ssmadang.co.kr"
"BE_IW06-0005","Gana Art Center","","","","02-3217-1093","http://www.ganaart.com","02-395-0331","jklee@ganaart.com"
"BE_IW06-0006","National Theater of Korea","","","","02-2280-4292","http://www.ntok.go.kr","02-2280-4007","foryou0705@korea.kr"
"BE_IW06-0007","National Museum of Korea","","","","02-2077-9000-02-2077-9227","http://museum.go.kr","02-2077-9937","kaounglee@korea.kr"
"BE_IW06-0008","Nine Tree Convention Center Gwanghwamun","","","","02-2158-9000","http://www.eninetree.com","02-2158-9009","Jh_kim1@parnas.co.kr"
"BE_IW06-0009","DDP(Dream Design Play)","","","","02-2153-0072","http://www.ddp.or.kr","02-2153-0070","mei@seouldesign.or.kr"
"BE_IW06-0010","Dugahun","Seoul","Jongno-gu","Samcheong-dong","02-3210-2100","http://www.dugahun.com","02-3210-2085","dugahun@dugahun.com"
"BE_IW06-0011","Raum","","","","02-6925-4740","http://www.theraum.co.kr","02-523-2619","alexiakim@theraum.co.kr"
"BE_IW06-0012","Lotteworld","","","","02-411-4922","http://www.lotteworld.com","02-411-4949","jssim@lotte.net"
"BE_IW06-0013","Luka511","","","","010-7322-0707","http://www.luka511.kr","","leeejisun@gmail.com"
"BE_IW06-0014","Maydining","","","","010-2002-2979","http://www.maydining.co.kr","02-956-5588","Shkssd2000@naver.com"
"BE_IW06-0015","Mayfield Bongraeheon","","","","02-2660-9020","http://www.mayfield.co.kr","02-2660-9192","bongraeheon@mayfield.co.kr"
"BE_IW06-0016","Mugyeone","","","","02-6203-1162","http://www.jfac.or.kr","02-6499-0371","simgoo@jfac.or.kr"
"BE_IW06-0017","Min's Club","","","","010-2478-5211","http://www.minsclub.co.kr","02-733-2967","ycshin9@winenara.com"
"BE_IW06-0018","Samwongarden","","","","02-6670-3642","http://www.samwongarden.com","02-543-2591","info@dinehill.co.kr"
"BE_IW06-0019","Seoul Marina Club & Yacht","","","","02-3780-8446","http://www.seoul-marina.com","02-780-4475","olivia.park@seoul-marina.com"
"BE_IW06-0020","Seoul Women's Plaza","","","","02-810-5113","http://www.seoulwomen.or.kr","02-810-5100","chris@seoulwomen.or.kr"
"BE_IW06-0021","Seoul Central Post Office","","","","02-6450-1520","http://www.koreapost.go.kr/se/100","02-6450-1529","kh4777@koreapost.go.kr"
"BE_IW06-0022","Floating Island","Seoul","Gangdong-gu","Cheonho2-dong","010-9241-7369","http://www.ficonvention.com","02-537-2499","ficonvention@gmail.com"
"BE_IW06-0023","Sejong Center for the Performing Arts_Samcheonggak","","","","02-740-3209","http://www.samcheonggak.or.kr","02-3676-3464","philothea21@sejongpac.or.kr"
"BE_IW06-0024","AX-KOREA","","","","02-457-5114","http://www.axhallkorea.com","02-453-9114","ukconl1026@gmail.com"
"BE_IW06-0025","Astor House","","","","02-450-6594","http://www.sheratonwalkerhill.co.kr/","02-450-4863","csm6450@sk.com"
"BE_IW06-0026","Welcome Guest House","","","","02-2230-5953","http://www.Shilla.net","02-2230-3721","linehurt.lee@samsung.com"
"BE_IW06-0027","Arts Center","","","","02-580-1305","http://www.sac.or.kr","02-580-1304","iris@sac.or.kr"
"BE_IW06-0028","ON River Station","Seoul","Gangnam-gu","Sinsa-dong","02-2299-5577","http://www.onriver.co.kr/","02-516-8789","onriveron@naver.com"
"BE_IW06-0029","Walking On The Cloud","","","","02-789-5904","http://www.63restaurant.co.kr","02-789-5760","ct31040@hanwha.com"
"BE_IW06-0030","yiod Artce","","","","02-741-2411","http://www.yido.kr","02-518-0756","yido@yido.kr"
"BE_IW06-0031","Ilmin Museum of Art","","","","02-2020-2050","http://www.ilmin.org","02-2020-2069","lku@ilmin.org"
"BE_IW06-0032","Jinjinbara","","","","02-3454-0633","http://www.jinjinbara.com","02-3454-0634","Jinjinbara.yjkim@gmail.com"
"BE_IW06-0033","Coex Aquarium","","","","02-6002-6200","http://www.coexaqua.com","02-6002-6262","llllssy@coexaqua.com"
"BE_IW06-0034","Top Claud","","","","02-2198-3300","http://www.topcloud.co.kr/","02-2198-3306","jkkim@kodoco.com"
"BE_IW06-0035","Dia Pradesh","Seoul","Seocho-gu","Jamwon-dong","02-3477-0033","http://www.fradia.co.kr","02-3477-9334","fradiamj@naver.com"
"BE_IW06-0036","South Korea Furniture Museum","","","","02-745-0181","http://www.kofum.com","02-745-0031","contact@kofum.com"
"BE_IW06-0037","Korea House","","","","02-2270-1123","http://www.koreahouse.or.kr","02-2264-0979","aljy00@chf.or.kr"
"BE_IW06-0038","HwaSooMok&The gatheringbar","","","","070-7760-5392","","02-797-1600","dangdang09@naver.com"
"BE_IW06-0039","aT Center","","","","02-6300-1114","atcenter.at.or.kr ","02-6300-1611","kimmiran3@at.or.kr"