"상세고유순번","관리번호","명칭","관련항목","연계자원","경도정보(127.XX)","위도정보(36.XXX)","이명칭","개요","시대분류","주제분류","지번주소","도로명주소","지역","제공기관","언어유형","제작일","유형","형식","전화번호","지정현황","휴무일","이용시간","이용요금","주차","장애인 편의시설","체험안내","안내서비스","예약"
"1","JGS_000001","덕수궁","","JGH_000370","126.97653","37.56502","경운궁 정릉동행궁 서궁","옛 명칭은 경운궁이었는데 1907년부터 덕수궁으로 불리게 되었습니다.  6만 1500㎡의 면적에 대한문 중화문 광명문과 중화전 준명당 석어당 석조전 함녕전 즉조당 등의 전각이 남아있습니다.","","","","서울특별시 중구 세종대로 99","서울특별시 중구 세종대로","서울시 중구청","KOR","2015-12-30","DATA","HTML","02-771-9951","사적 제124호","매주 월요일","매표 및 입장시간 09:00 ~ 20:00 퇴장시간 09:00 ~ 21:00","대인(만25세이상) 1000원단체 대인(10인이상) 800원","","휠체어대여","전통의상 입어보기 수문장 교대의식 체험","",""
"2","JGS_000002","덕수궁 중명전","","JGH_000350","126.97252","37.56659","","1901년에 지어진 중명전은 지금의 덕수궁인 경운궁에 포함된 건물로서 접견소 및 연회장 도서관으로 사용되었습니다. 1907년에 황태자 가례의 연회가 거행된 장소이며 을사늑약이 체결되었던 비운의 장소이기도 합니다. 일제강점기인 1915년부터 외국인에 임대되어 경성구락부로 이용되었습니다.","","","","서울특별시 중구 정동길 41-11","서울특별시 중구 정동길","서울시 중구청","KOR","2015-12-30","DATA","HTML","","","","","","","","","",""
"3","JGS_000003","환구단(원구단)","","JGH_000335","126.97969","37.56506","","환구단은 황제가 하늘에 제사를 올리는 제단을 말합니다. 이곳은 조선을 이은 대한제국의 고종황제가 하늘에 제를 올린 곳입니다. 1897년 완공된 환구단은 당시 황실 최고의 도편수였던 심의석이 설계했습니다.","","","","서울특별시 중구 소공로 106","서울특별시 중구 소공로","서울시 중구청","KOR","2015-12-30","DATA","HTML","","","","","","","","","",""
"4","JGS_000004","구 러시아공사관","","JGH_000355","126.97146","37.56825","","1890년(고종 27)에 러시아인 사바틴(A.I.Sabatin)이 설계한 르네상스 양식의 건물입니다. 본관은 6?25전쟁 때 파괴되었고 현재는 3층 규모의 탑만이 남았습니다. 고종이 일본의 무력 압박을 피한 아관파천의 현장으로 유명합니다.","","","","서울특별시 중구 정동길 21-18 정동공원","서울특별시 중구 정동길","서울시 중구청","KOR","2015-12-30","DATA","HTML","","","","","","","","","",""
"5","JGS_000005","정동제일교회","","JGH_000367","126.97236","37.56542","","정동제일교회는 1895년(고종 32) 착공하여 1897년(광무 1) 10월에 준공된 개신교 교회 예배당입니다.","","","","서울특별시 중구 정동길 46 정동교회","서울특별시 중구 정동길","서울시 중구청","KOR","2015-12-30","DATA","HTML","","","","","","주차가능","","","",""
"6","JGS_000006","구 배재학당 동관(배재학당 역사박물관)","","JGH_000368","126.97262","37.56378","","이 건물은 1916년 준공하여 배재중?고등학교가 1984년 강동구로 이전하기 전까지 교사로 사용한 곳입니다. 배재학당은 선교사 아펜젤러(Henry Gerhard Appenzeller)가 1885년 8월에 세운 학교로 처음에는 주변의 민가를 사들여 교사(校舍)로 사용했습니다.","","","","서울특별시 중구 서소문로 11길 19","서울특별시 중구 서소문로","서울시 중구청","KOR","2015-12-30","DATA","HTML","","서울특별시 기념물 제16호","매주 월요일 공휴일","매일 10:00 ~ 17:00","무료","","","","",""
"7","JGS_000007","서울시립미술관","","JGH_000313","126.97377","37.56402","","이곳은 육영공원과 독일공사관 경성재판소가 있던 자리입니다. 광복 후에는 대한민국의 대법원 건물이 되었으며 2002년에 서울시립미술관으로 개관하였습니다.","","","","서울특별시 중구 덕수궁길 61","서울특별시 중구 덕수궁길","서울시 중구청","KOR","2015-12-30","DATA","HTML","02-2124-8800","등록문화재 제237호","매주 월요일 1월 1일","","","주차가능","","","",""
"8","JGS_000008","경운궁 양이재","","JGH_000361","126.97544","37.56694","","대화재로 불탔던 경운궁(덕수궁)을 다시 지을 때 같이 지은 건물로 1905년에 완공되었습니다. 대한제국 황족과 귀족들의 근대식 교육을 담당했던 곳이었으며 현재는 대한성공회 주교 집무실로 사용되고 있습니다.","","","","서울특별시 중구  세종대로21길 15","서울특별시 중구  세종대로","서울시 중구청","KOR","2015-12-30","DATA","HTML","","등록문화재 제267호","","","","","","","",""
"9","JGS_000009","구 신아일보사 별관","","JGH_000354","126.97217","37.56619","","1930년대 지하 1층 지상 2층으로 건축된 철근콘크리트 건물로 미국기업인 싱어미싱회사 한국지부로 사용되다가 1963년 신아일보가 매입하여 1975년 3 4층을 증축하여 별관으로 사용합니다. 신아일보는 1980년 신군부의 언론통폐합으로 경향신문에 흡수?통합되었습니다.","","","","서울특별시 중구 정동길 33","서울특별시 중구 정동길","서울시 중구청","KOR","2015-12-30","DATA","HTML","","등록문화재 제402호","","","","","","","",""
"10","JGS_000010","구세군중앙회관","","JGH_000352","126.9736","37.56761","","구세군중앙회관은 구세군의 사관 양성과 선교활동 사회사업의 근거지로 사용하기 위해 1928년에 준공되었습니다.","","","","서울특별시 중구 덕수궁길 130","서울특별시 중구 덕수궁길","서울시 중구청","KOR","2015-12-30","DATA","HTML","02-720-9494","서울특별시 기념물 제20호","","","","","","","",""
"11","JGS_000011","대한성공회 서울주교좌성당","","JGH_000360","126.97605","37.56711","대한성공회 서울성당","대한성공회의 서울교구 주교좌성당은 1922년 9월에 공사가 시작되어 1926년 5월에 1차 공사를 끝냈고 1994년에 2차 공사를 시작하여 1996년에 완공되었습니다.","","","","서울특별시 중구 세종대로21길 15","서울특별시 중구 세종대로","서울시 중구청","KOR","2015-12-30","DATA","HTML","02-730-6611","서울특별시 유형문화재 제35호","매주 일요일","","","","","","",""
"12","JGS_000012","이화여고 심슨기념관","","JGH_000364","126.97133","37.56615","","이 건물은 1915년 완공된 이화학당의 교사(校舍)입니다. 건축비용은 미국 컬럼비아 리버지회(Columbia River Brach)의 홀부룩(Miss Holbrook)이 희사한 기금으로 충당하였는데 그 당시 세상을 떠난 그녀의 동생 사라 심슨(Sarah J. Simpson)을 기리는 뜻에서 '심슨홀(Simpson Memorial Hall)'로 명명하였습니다.","","","","서울특별시 중구 정동길 26","서울특별시 중구 정동길","서울시 중구청","KOR","2015-12-30","DATA","HTML","","등록문화재 제3호","","","","","","","",""
"13","JGS_000013","이화여고 100주년기념관","","JGH_000365","126.97063","37.5662","","이곳은 1890년대 각국 공사관 및 선교사 조선 개화파 등이 자주 찾던 손탁호텔이 있던 자리입니다. 1975년 이화여고 프라이홀(Frey Hall)이 화재로 철거된 후 이화여고 100주년기념관이 개관하였습니다.","","","","서울특별시 중구 정동길 26","서울특별시 중구 정동길","서울시 중구청","KOR","2015-12-30","DATA","HTML","02-777-4258","","","","","","","","",""
"14","JGS_000014","구 국회의사당(서울특별시의회 청사)","","JGH_000177","126.9766","37.56747","","이곳은 1933년부터 1935년에 걸쳐 경성부청(현 서울시청) 서쪽 건너편에 경성부민(서울시민)을 위해 세운 다목적 건물입니다. 건립 당시에는 경성의 시민회관 역할을 했으며 광복 후에는 미군들의 사교장 국립극장 국회의사당 세종문화회관 별관을 거쳐 현재는 서울특별시의회가 자리 잡고 있습니다.","","","","서울특별시 중구 세종대로 125","서울특별시 중구 세종대로","서울시 중구청","KOR","2015-12-30","DATA","HTML","","등록문화재  제11호","","","","","","","",""
"15","JGS_000015","이영훈추모비","","JGH_001146","126.97337","37.56532","","이영훈은 1960년 3월 6일에 태어나 2008년 2월 14일에 작고한 대중가요 작곡가입니다.","","","","서울특별시 중구 정동 7번지 덕수궁돌담길 내","서울특별시 중구 정동","서울시 중구청","KOR","2015-12-30","DATA","HTML","","","","","","","","","",""
"16","JGS_000016","구 서울특별시 청사(서울도서관)","","JGH_000174","126.97781","37.5662","","구 서울특별시 청사는 1926년 경성부의 청사로 지어진 르네상스 양식의 건물입니다. 현재는 서울도서관으로 운영되고 있습니다.","","","","서울특별시 중구 세종대로 110","서울특별시 중구 세종대로","서울시 중구청","KOR","2015-12-30","DATA","HTML","02-120","등록문화재 제52호","","평일 09:00 ~ 21:00","","주차가능","","","",""
"17","JGS_000017","구 미국문화원(그레뱅 뮤지엄)","","JGH_000154","126.98036","37.56624","","이 건물은 일제강점기인 1938년에 완공된 일본기업 미쓰이 물산의 경성지점이었습니다. 광복 후 미국대사관과 미국문화원으로 사용되었고 이후 서울시청 을지로별관으로 사용되었습니다. 2015년에는 유명인물을 밀랍인형으로 전시하는 그레뱅 뮤지엄으로 개관합니다.","","","","서울특별시 중구 을지로 23","서울특별시 중구 을지로","서울시 중구청","KOR","2015-12-30","DATA","HTML","","등록문화재 제238호","","","","","","","",""
"18","JGS_000018","정동극장","","JGH_001121","126.97285","37.56596","미소 전용관","한국에서 최초로 만들어진 근대식 극장 원각사를 복원한다는 의의로 1995년에 건립하였습니다. 개관이래 현재까지 수준 높은 공연?예술을 기획 개발해 선보이고 시민들을 위한 프로그램을 보급하고 있는 복합 공연장입니다.","","","","서울특별시 중구 정동길 43","서울특별시 중구 정동길","서울시 중구청","KOR","2015-12-30","DATA","HTML","02-751-1500","","","","","","","장구체험","",""
"20","JGS_000020","덕수궁 미술관","","JGH_000379","126.97369","37.56589","이왕가미술관 이왕직미술관","일제강점기인 1938년에 미술관 용도로 건립한 석조전 서관입니다. 1998년에 국립현대미술관 분관으로 재개관하여 조선 고미술품 근대 미술 현대 미술 외국 거장 화가의 작품을 전시해왔습니다.","","","","서울특별시 중구 세종대로 99 덕수궁","서울특별시 중구 세종대로","서울시 중구청","KOR","2015-12-30","DATA","HTML","02-2022-0600","사적 제124호","매주 월요일 1월 1일","","","","","","",""
"21","JGS_000021","정동전망대","","JGH_001122","126.9756","37.56433","","서울시청 서소문청사 1동 13층에 있는 전망대입니다. 이곳 전망대에서 바라보면 덕수궁 전체와 시청 및 시청 광장 일대 정동영역을 한눈에 볼 수 있습니다.","","","","서울특별시 중구 덕수궁길 15","서울특별시 중구 덕수궁길","서울시 중구청","KOR","2015-12-30","DATA","HTML","","","","","","","","","",""
"22","JGS_000022","숭례문","","JGH_000300","126.97531","37.55998","","이 건물은 조선시대 수도인 한양을 둘러싸고 있던 도성의 정문으로 원래 이름은 숭례문입니다. 남쪽에 있다고 해서 남대문이라고도 불렸습니다. 숭례문은 삼남지방(경상?전라?충청)과 연결된 한강과 가까워 상업이 발달하는 조선 후기에는 숭례문 안팎으로 시장이 발달했습니다.","","","","서울특별시 중구 세종대로 40","서울특별시 중구 세종대로","서울시 중구청","KOR","2015-12-30","DATA","HTML","042-481-4650","국보 제1호","매주 월요일","","","","","","",""
"23","JGS_000023","경희궁 숭정전(정각원)","","JGH_000024","127.00115","37.55743","","숭정전은 1617년(광해군 9)과 1620년(광해군 12) 사이 경희궁을 지을 때 세운 것으로 경희궁의 정전입니다.","","","","서울특별시 중구 필동로1길 30","서울특별시 중구 필동로","서울시 중구청","KOR","2015-12-30","DATA","HTML","02-724-0274~6","서울유형문화재 제20호","매주 월요일 1월 1일","09:00 ~ 18:00","무료","","","","",""
"24","JGS_000024","남산 봉수대","","JGH_000021","126.98747","37.55201","","조선시대 전국 각지의 봉수를 매일 받아 병조에 보고하는 중앙봉수소입니다. 밤에는 횃불 낮에는 연기를 피워 신호를 하였습니다.","","","","서울특별시 중구 예장동 8-1","서울특별시 중구 예장동","서울시 중구청","KOR","2015-12-30","DATA","HTML","","","","","","","","","",""
"25","JGS_000025","남산골 한옥마을","","JGH_000010","126.99447","37.55931","","1998년 조성된 남산골 한옥마을은 남산 북측 옛 수도방위사령부 부지 총 7만 9934m²(2만 4180평)에 한옥 5동 전통공예관 천우각 전통정원 서울남산국악당 서울천년 타임캡슐광장으로 구성되어 시민과 관광객을 맞이하고 있습니다. 번화한 도심 한가운데에서 한국 전통문화를 소재로 한 다양한 체험거리를 만나볼 수 있으며 남산 자락을 따라 전통조경 양식으로 조성된 계곡과 정자 각종 화초가 만들어내는 아름다운 풍경을 만날 수 있습니다. 전통정원 가장 높은 곳에는 서울정도 600년을 기념하고 400년 후 서울정도 1000년을 기대하며 1994년 당대의 기억을 매설한 서울천년 타입캡슐광장이 조성되어 있습니다.","","","","서울특별시 중구 퇴계로34길 28","서울특별시 중구 퇴계로","서울시 중구청","KOR","2015-12-30","DATA","HTML","02-2261-0511","","매주 화요일","","무료","","","한풍문화마실 사진촬영서비스 짚공예 시연 전통문화 유산해설","",""
"26","JGS_000026","서울천년 타임캡슐광장","","JGH_000430","126.9938","37.55737","","서울천년 타임캡슐광장은 1394(태조 3)년 조선 건국 때 지금의 서울을 수도로 정한 이후 600년이 지난 것을 기념하여 1994년 11월 29일 서울의 모습을 대표할 수 있는 문물 600점을 타임캡슐에 담아 보관한 곳입니다.","","","","서울특별시 중구 퇴계로34길 28 남산한옥마을","서울특별시 중구 퇴계로","서울시 중구청","KOR","2015-12-30","DATA","HTML","02-2264-4412","","","","","","","","",""
"27","JGS_000027","서울남산국악당","","JGH_000008","126.99352","37.5585","","서울남산국악당은 남산골 한옥마을과 잘 어울리는 한옥으로 지어졌고 지하 1층에는 다양한 장르의 공연이 가능한 돌출형 무대와 300석 규모의 공연장이 있습니다. 이곳은 건물이 아름다워 서울시민이 자주 찾는 나들이 장소이자 외국 관광객들이 많이 들르는 관광명소입니다.","","","","서울특별시 중구 퇴계로34길 28","서울특별시 중구 퇴계로","서울시 중구청","KOR","2015-12-30","DATA","HTML","02-2261-0512","","","","","","","","",""
"28","JGS_000028","안중근의사기념관","","JGH_000012","126.9805","37.55384","","안중근의사기념관은 박정희 대통령의 지시로 1970년 국민성금을 모아 일제강점기 조선신궁이 있던 자리에 개관하였습니다. 안중근 의사는 통감부 초대 통감인 이토 히로부미를 사살한 독립운동가입니다.","","","","서울특별시 중구 소월로91","서울특별시 중구 소월로","서울시 중구청","KOR","2015-12-30","DATA","HTML","02-3789-1016 1026","","매주 월요일 1월 1일 설날 추석","","무료","","","","",""
"29","JGS_000029","백범광장","","JGH_000445","126.97923","37.55486","","남산야외음악당광장에 1968년 8월 백범광장이 조성되었습니다. 백범광장은 대한민국 임시정부 주석을 지낸 백범(白凡) 김구(金九 1876~1949) 선생을 기리기 위해 조성된 공원입니다.","","","","서울특별시 중구 회현동1가 100-115","서울특별시 중구 회현동","서울시 중구청","KOR","2015-12-30","DATA","HTML","","","","","","","","","",""
"30","JGS_000030","석호정","","JGH_000013","126.99995","37.5544","","석호정(石虎亭)은 조선 후기에 지어진 오랜 역사를 지닌 활터입니다. 국궁을 하던 곳이지만 세계를 제패한 한국 양궁의 발상지이기도 합니다.","","","","서울특별시 중구 장충동2가 14-21","서울특별시 중구 장충동","서울시 중구청","KOR","2015-12-30","DATA","HTML","02-2266-0665","","","","","","","","",""
"31","JGS_000031","남산 케이블카","","JGH_000771","126.98727","37.55235","","남산 케이블카는 국내 최초의 케이블카입니다. 남산 케이블카를 이용하면 명동 인근의 승강장에서 남산 정상의 N서울타워로 오를 수 있습니다. 케이블카에 타면 남산의 경치와 인접한 명동과 을지로 충무로 일대를 볼 수 있습니다.","","","","서울특별시 중구 소파로 83","서울특별시 중구 소파로","서울시 중구청","KOR","2015-12-30","DATA","HTML","02-753-2403","","","","","주차가능","","","",""
"32","JGS_000032","N서울타워","","JGH_000525","126.98822","37.55116","","N서울타워는 1975년 완공된 한국 최초 타워형태의 관광명소입니다. 해발 243m인 남산의 높이와 타워 높이 236.7m를 합하면 실제 높이가 480m에 달하는 높은 타워입니다. N서울타워에는 서울을 한눈에 볼 수 있는 전망대가 있고 영원한 사랑을 약속하는 자물쇠 테라스와 회전전망레스토랑이 있습니다.","","","","서울특별시 용산구 남산공원길 105","서울특별시 용산구 남산공원길","서울시 중구청","KOR","2015-12-30","DATA","HTML","02-3455-9277","","","","","","","","",""
"33","JGS_000033","서울애니메이션 센터(통감부 터)","","JGH_000624","126.98791","37.55825","","서울애니메이션센터는 1999년에 국내 만화와 애니메이션 산업의 지원?육성을 위하여 설립 되었습니다.","","","","서울특별시 중구 소파로 126","서울특별시 중구 소파로","서울시 중구청","KOR","2015-12-30","DATA","HTML","02-3455-8341","","매주 월요일 공휴일","매주 화요일 ~ 일요일 10:00 ~ 18:00","","주차가능","","","",""
"34","JGS_000034","재미랑(만화박물관)","","JGH_001148","126.98627","37.55827","","2013년 12월에 문을 연 만화 문화 공간으로 지하 1층과 지상 4층의 건물입니다.  만화와 관련된 기획?전시가 열리며 누구나 부담 없이 만화를 즐길 수 있습니다.","","","","서울특별시 중구 퇴계로 20길 42","서울특별시 중구 퇴계로","서울시 중구청","KOR","2015-12-30","DATA","HTML","02-779-6107","","","","","","","","",""
"35","JGS_000035","남대문시장","","JGH_000727","126.97766","37.55917","","남대문시장은 주변 상가까지 포함해 58개 동 1만여 점포를 갖추고 600여 년의 전통을 가진 한국의 대표적인 시장입니다.","","","","서울특별시 중구 남대문시장4길 21","서울특별시 중구 남대문시장","서울시 중구청","KOR","2015-12-30","DATA","HTML","02-753-2805","","매주 일요일","","","","","","",""
"36","JGS_000036","장충단비","","JGH_000060","127.00481","37.55834","","을미사변 때 순국한 대신과 장병들을 위해 1900년(광무 4)에 설치했던 제단이 있던 곳으로 그 다음 해에는 임오군란?갑신정변 때 목숨을 잃은 충신들도 같이 모셨습니다.","","","","서울특별시 중구 동호로 257-10","서울특별시 중구 동호로","서울시 중구청","KOR","2015-12-30","DATA","HTML","","","","","","","","","",""
"37","JGS_000037","수표교","","JGH_001145","127.00499","37.55809","","세종 2년인 1420년에 만들어진 다리로서 수표교는 수위를 측정하여 홍수를 대비하는 기능을 가진 중요한 다리였습니다.","","","","서울특별시 중구 장충동 2가 197-1 산4-50 산6-5","서울특별시 중구 장충동","서울시 중구청","KOR","2015-12-30","DATA","HTML","","서울유형문화재 제18호","","","","","","","",""
"38","JGS_000038","한국유림독립운동파리장서비","","JGH_000747","127.00377","37.55764","","한국유림독립운동파리장서비는 1919년 프랑스 파리에서 열린 세계평화회의에 유림 대표자 137인이 조선의 독립을 청원하는 편지를 보낸 것을 기념하기 위해 한국유림독립운동파리장서협회에서 1973년 세운 것입니다.","","","","서울특별시 중구 동호로 257-10(장충동2가 197)","서울특별시 중구 동호로","서울시 중구청","KOR","2015-12-30","DATA","HTML","","","","","","","","","",""
"39","JGS_000039","이준열사 동상","","JGH_000750","127.003579","37.557085","","이준열사는 고종의 특사로 1907년 네덜란드 헤이그에서 개최되는 만국평화회의에 참석하려 하였으나 일본과 영국의 방해 열강의 무시로 참석하지 못해 헤이그에서 병을 얻어 순국했습니다. 이 동상은 1964년 사단법인 일성회(一醒會)가 순국열사 이준의 숭고한 애국충절을 기리기 위해 장충단공원 안에 건립한 동상입니다.","","","","서울특별시 중구 동호로 257-10(장충동2가 197)","서울특별시 중구 동호로","서울시 중구청","KOR","2015-12-30","DATA","HTML","","","","","","","","","",""
"40","JGS_000040","유관순열사 동상","","JGH_000757","127.00327","37.55501","","유관순열사는 일제강점기에 벌어진 3?1운동에 17세의 어린 나이로 참여한 독립운동가입니다. 유관순열사동상은 애국선열조상건립위원회(서울신문사)의 주관으로 1970년 태평로(남대문 뒤쪽)에 건립되었다가 1971년에 이전하여 현재 장충동 남산공원 장충자락에 위치합니다.","","","","서울특별시 중구 장충단로 101 남산공원 내","서울특별시 중구 장충단로","서울시 중구청","KOR","2015-12-30","DATA","HTML","","","","","","","","","",""
"41","JGS_000041","3?1독립운동기념탑","","JGH_000755","127.00164","37.55284","","남산공원 안에 있는 3?1독립운동기념탑은 1919년 3월 1일에 일제의 지배에 저항해 한민족의 독립을 선언하고 비폭력만세운동을 벌인 것을 기념해 1999년 3월 1일 만세운동 80주년을 맞아 3?1독립운동기념탑건립위원회에 의해 건립되었습니다.","","","","서울특별시 중구 장충동 2가 산14-81","서울특별시 중구 장충동","서울시 중구청","KOR","2015-12-30","DATA","HTML","","","","","","","","","",""
"42","JGS_000042","국립극장","","JGH_000045","126.9998","37.55254","","민족 무대예술의 발전을 도모하기 위해 1950년 아시아에서 최초로 설립한 국립극장입니다.  현재의 국립극장 건물은 1973년에 준공됐으며 국립무용단 국립창극단 국립국악관현악단 등의 3개 단체가 소속되어 있습니다.","","","","서울특별시 중구 장충단로 59","서울특별시 중구 장충단로","서울시 중구청","KOR","2015-12-30","DATA","HTML","02-2280-4114","","","","","주차가능","장애인 단체관람 가능 안내 점자 책자 구비","","","인터넷 모바일 전화 방문예메 가능"
"43","JGS_000043","외솔 최현배선생 기념비","","JGH_000756","127.00312","37.55611","","외솔 최현배 선생(1894~1970)은 국어문법 체계를 확립하는 등 우리말과 글의 연구에 평생 동안 힘을 쏟은 국어학자이며 국어운동가 교육자입니다.","","","","서울특별시 중구 장충동 2가 산7-24","서울특별시 중구 장충동","서울시 중구청","KOR","2015-12-30","DATA","HTML","","","","","","","","","",""
"44","JGS_000044","김용환 동상","","JGH_000751","127.0001","37.55139","","김용환은 반공대열의 선두에서 동포의 단결과 민단의 육성을 위해 노력한 인물로 생전 그의 공로를 기리기 위해 1970년 국립극장 입구에 동상을 설립하였습니다.","","","","서울특별시 중구 장충단로 59 국립국장 입구","서울특별시 중구 장충단로","서울시 중구청","KOR","2015-12-30","DATA","HTML","","","","","","","","","",""
"45","JGS_000045","자유센터","","JGH_000040","127.00252","37.55159","한국자유총연맹","건축가 김수근이 설계한 자유센터는 1964년 준공되어 반공교육 등의 목적으로 쓰였습니다. 또한 우리나라에서 처음 콘크리트 노출 공법으로 지어진 건물로 유명합니다.","","","","서울특별시 중구 장충단로 72","서울특별시 중구 장충단로","서울시 중구청","KOR","2015-12-30","DATA","HTML","","","","","","주차가능","","","",""
"46","JGS_000046","광희문","","JGH_000101","127.00999","37.56435","","국가지정문화재 사적 제10호인 광희문은 서울을 둘러싼 한양도성의 사소문 중에 동남방향에 있는 성문입니다. 한양도성이 지어진 1396년에 같이 완공되었으며 수구문(水口門) 혹은 시구문(屍口門)이라고 불렸습니다.","","","","서울특별시 중구 광희동2가 105","서울특별시 중구 광희동","서울시 중구청","KOR","2015-12-30","DATA","HTML","","","","","","","","","",""
"47","JGS_000047","명동성당","","JGH_000131","126.98735","37.56317","","명동성당은 한국 천주교회의 발상지인 명동에 있는 천주교 서울대교구주교좌 성당으로 한국천주교회의 상징적인 건물입니다. 프랑스인 코스트(Eugene Joan George Coste) 신부가 설계하고 1898년에 완공됐으며 1000여 명에 가까운 신도들의 자원봉사로 지어졌습니다.","","","","서울특별시 중구 명동길 74","서울특별시 중구 명동길","서울시 중구청","KOR","2015-12-30","DATA","HTML","02-774-1784","","","","","","","","",""
"48","JGS_000048","이회영 흉상","","JGH_001123","126.98598","37.56459","","1867년 서울 중구 저동에서 명문가의 자손으로 태어난 이회영은 활발한 독립운동 활동을 펼치다 1932년 순국했고 정부에서는 1962년 건국훈장 독립장을 추서했습니다.","","","","서울특별시 중구 명동길 73 YWCA회관 앞","서울특별시 중구 명동길","서울시 중구청","KOR","2015-12-30","DATA","HTML","","","","","","","","","",""
"49","JGS_000049","한국은행 본관(화폐박물관)","","JGH_000288","126.98056","37.56205","","1912년에 준공된 구 한국은행 본관은 르네상스 형식의 지하 1층 지상 2층 건물로서 중앙은행의 업무를 하다가 2001년부터 한국은행 화폐박물관으로 개관하였습니다.","","","","서울특별시 중구 남대문로 39","서울특별시 중구 남대문로","서울시 중구청","KOR","2015-12-30","DATA","HTML","02-759-4881","사적 제280호","매주 월요일 설연휴 및 추석연휴 12월 29일~다음해 1월 2일","화요일~일요일 10:00 ~ 17:00","무료","","장애인 화장실 구비 장애인용 엘리베이터 구비","","다국어 음성안내기 구비",""
"50","JGS_000050","신세계백화점 본관(구 미쓰코시백화점)","","JGH_000274","126.98113","37.5609","","1930년에 미쓰코시 경성지점으로 지어진 르네상스식 건물입니다. 일제강점기 이후 동화백화점이 되었다가 6?25전쟁 때는 미군의 PX로 사용되었으며 1963년부터 신세계백화점으로 개장하였습니다.","","","","서울특별시 중구 소공로 63","서울특별시 중구 소공로","서울시 중구청","KOR","2015-12-30","DATA","HTML","1588-1234","","","","","주차가능","","","",""
"51","JGS_000051","구 제일은행 본점","","JGH_000275","126.98041","37.56098","","구 제일은행 본점의 전신은 조선저축은행입니다. 한국 최초로 현상공모를 통해 건물 설계안을 채택하였으며 1935년에 준공되었습니다.","","","","서울특별시 중구 남대문로 42","서울특별시 중구 남대문로","서울시 중구청","KOR","2015-12-30","DATA","HTML","","서울특별시 유형문화재 제71호","","","","","","","",""
"52","JGS_000052","중앙우체국(우표박물관)","","JGH_000556","126.98216","37.56175","","‘인천우편국 경성출장소(仁川郵便局 京城出張所)’라는 이름으로 시작되었다가 1901년 3월에 ‘경성우편국’으로 개칭하였습니다. 1898년 10월에 신축한 건물을 사용하다가 그 이후 1915년에 이 건물의 앞쪽에 다시 3층 높이의 신청사를 건립하였는데 이것이 지금의 서울중앙우체국 자리에 해당합니다. 현재는 2007년 세워진 포스트타워가 자리하고 있습니다.","","","","서울특별시 중구 소공로70","서울특별시 중구 소공로","서울시 중구청","KOR","2015-12-30","DATA","HTML","","","","","","","","","",""
"53","JGS_000053","샬트르성바오로수녀회박물관","","","126.98802","37.56234","","샬트르성바오로수녀회 박물관은 1888년 프랑스 샬트르성바오로수녀회에서 한국으로 파견한 수녀 4명으로부터 시작한 수도회의 역사를 수집?연구?보존?전시하기 위해 설립된 종교전문 박물관입니다.","","","","서울특별시 중구 명동길 74-2","서울특별시 중구 명동길","서울시 중구청","KOR","2015-12-30","DATA","HTML","","","","","","","","","",""
"54","JGS_000054","지구촌민속교육박물관(서울시교육연구정보원)","","JGH_000611","126.98116","37.55448","","2006년 2월 16일에 개관한 지구촌민속교육박물관은 세계 민속에 관련한 자료와 유물이 전시되어 있는 박물관입니다.","","","","서울특별시 중구 소파로 46 서울특별시교육연구정보원","서울특별시 중구 소파로","서울시 중구청","KOR","2015-12-30","DATA","HTML","","","매주 월요일 명절","10:00 ~ 17:00","무료","","","","",""
"55","JGS_000055","명동예술극장","","JGH_000127","126.98421","37.56403","","1936년에 건립된 극장 명치좌는 광복 후 국제극장 시공관 국립극장 등으로 변화를 겪었고 한 때 철거의 위기도 있었지만 2009년에 명동예술극장으로 재개관하였습니다.","","","","서울특별시 중구 명동길 35","서울특별시 중구 명동길","서울시 중구청","KOR","2015-12-30","DATA","HTML","1644-2003","","","","","","","","","온라인 전화 예매 현장구매 가능"
"56","JGS_000056","명동난타전용관","","JGH_000669","126.98378","37.56339","","난타는 1997년 10월 초연 이후 국내 최다 관객을 동원한 한국 최초의 비언어극입니다.  명동 난타전용관은 2009년 10월에 개관하여 난타만 상설 공연하는 공연장입니다.","","","","서울특별시 중구 명동길 26 유네스코회관 3층","서울특별시 중구 명동길","서울시 중구청","KOR","2015-12-30","DATA","HTML","02-739-8288","","","월~금 일 및 공휴일 17:00 20:00 토 14:00 17:00 20:00","","","","","",""
"57","JGS_000057","유네스코회관(유네스코 길)","","JGH_000141","126.98378","37.56339","","유네스코회관은 1967년에 준공된 건물로 세워질 당시 우리나라 최초의 13층 건물이었으며 최첨단 설비로 지어져 명동의 랜드마크 역할을 했습니다.","","","","서울특별시 중구 명동길 26","서울특별시 중구 명동길","서울시 중구청","KOR","2015-12-30","DATA","HTML","","","","","","","","","",""
"58","JGS_000058","회현동 은행나무","","JGH_000097","126.9813","37.55936","","회현동 은행나무는 500여 년 된 서울시 보호수입니다. 오래된 만큼 다양한 일화를 가지고 있습니다. 그 중에서도 정광필의 후손 12명이 정승이 된 이야기가 가장 유명합니다.","","","","서울특별시 중구 회현동1가 14-3","서울특별시 중구 회현동","서울시 중구청","KOR","2015-12-30","DATA","HTML","","","","","","","","","",""
"59","JGS_000059","남산팔각정(국사당 터)","","JGH_000526","126.98763","37.55164","","국사당은 조선 초부터 조선말까지 목멱대왕이라 불리는 산신을 모시고 국가의 무사태평을 기원하던 사당입니다. 목멱신사라고 불린 사당은 일제강점기인 1925년 일본 사람들이 남산에 조선신궁을 세우면서 강제로 이전시켰습니다.","","","","서울특별시 중구 예장동 8-1","서울특별시 중구 예장동","서울시 중구청","KOR","2015-12-30","DATA","HTML","","","","","","","","","",""
"60","JGS_000060","유성룡 집터","","JGH_000462","126.9971","37.56181","","이곳은 서애 유성룡이 어린 시절 살았던 집터입니다. 서애 유성룡은 일찍이 관리로 등용되었고 임진왜란 당시에는 호서 호남 영남을 관장하는 삼도 도체찰사를 맡아 전시의 군사 업무를 관장했습니다.","","","","서울특별시 중구 퇴계로 228","서울특별시 중구 퇴계로","서울시 중구청","KOR","2015-12-30","DATA","HTML","","","","","","","","","",""
"61","JGS_000061","대한적십자사 본사","","JGH_000036","126.98814","37.56005","","1905년에 설립된 대한적십자사는 1909년에 일본적십자사에 합병돼 일본적십자사 한국본부가 되었습니다. 그러나 광복 후 1949년에 대한적십자사로 재조직되어 현재까지 구호 사회봉사 병원 혈액 등 다양한 분야에서 활발한 활동을 펼치고 있습니다.","","","","서울특별시 중구 소파로 145","서울특별시 중구 소파로","서울시 중구청","KOR","2015-12-30","DATA","HTML","02-3705-3705","","","","","","","","",""
"62","JGS_000062","와룡묘","","JGH_000018","126.98663","37.55481","","와룡묘는 제갈량을 모시는 사당입니다. 건립 시기는 불확실하며 1924년 화재로 소실됐다가 1934년에 재건됐고 1976년에 현재의 모습으로 보수했습니다.","","","","서울특별시 중구 남산공원길 125-72(예장동 산5-6)","서울특별시 중구 남산공원길","서울시 중구청","KOR","2015-12-30","DATA","HTML","","서울특별시 민속자료 제5호","","","","","","","",""
"63","JGS_000063","정동 회화나무","","JGH_000381","126.97063","37.56679","","서울특별시 중구 정동의 캐나다대사관 앞에 있으며 높이 17m 둘레는 5.16m입니다.  현재 나이가 500년이 넘고 1976년에 서울시 보호수로 지정되었습니다.","","","","서울특별시 중구 정동길 21","서울특별시 중구 정동길","서울시 중구청","KOR","2015-12-30","DATA","HTML","","","","","","","","","",""
"64","JGS_000064","롯데백화점 스타에비뉴(스타의 거리)","","JGH_000820","126.98148","37.5647","","롯데백화점 본점 입구에 위치한 스타에비뉴(스타의 거리)에서는 한류스타를 담은 사진 미디어 그리고 한류스타의 손을 핸드프린팅한 동판 한류스타의 애장품 인터렉티브 시스템을 이용한 한류스타 콘텐츠를 만날 수 있습니다.","","","","서울특별시 중구 남대문로 81","서울특별시 중구 남대문로","서울시 중구청","KOR","2015-12-30","DATA","HTML","","","","","","주차가능","","","",""
"65","JGS_000065","한국금융사박물관","","JGH_000643","126.97635","37.56856","","한국금융사박물관은 현재 신한은행으로 합병된 조흥은행이 1997년에 한국 금융 역사의 전반적인 이해를 돕기 위한 목적으로 세운 국내 최초 금융사 전문 박물관입니다.","","","","서울특별시 중구 세종대로 135-5","서울특별시 중구 세종대로","서울시 중구청","KOR","2015-12-30","DATA","HTML","02-738-6806","","매주 일요일 공휴일 근로자의 날","10:00 ~ 18:00","무료","","","","","단체관람예약 가능"
"66","JGS_000066","덕수궁 돌담길","","JGH_000833","126.97527","37.56486","","덕수궁 돌담길은 덕수궁 대한문 좌측 돌담길을 끼고 난 길에서 시작하여 덕수궁과 미국대사관저 사이 골목길로 이어져 새문안로2길까지의 길을 말합니다. 르네상스식 근대 건축물과 데이트하기 좋은 공간이 많아 예전부터 연인들에게 인기가 많은 장소였습니다.","","","","서울특별시 중구 세종대로 99 일대","서울특별시 중구 세종대로","서울시 중구청","KOR","2015-12-30","DATA","HTML","","","","","","","","","",""
"67","JGS_000067","미국대사관저","","JGH_000349","126.97294","37.56703","","이 건물은 1883년부터 1905년까지 미국공사관으로 사용되었습니다.  1883년에 지어진 후 4차례 증축을 거쳐 현재와 같은 모습이 되었습니다.","","","","서울특별시 중구 덕수궁길 83","서울특별시 중구 덕수궁길","서울시 중구청","KOR","2015-12-30","DATA","HTML","","","","","","","","","",""
"68","JGS_000068","서울 남대문로 한국전력공사 사옥","","JGH_000120","126.98301","37.56528","","1928년에 경성전기주식회사의 사옥으로 완공된 지하 1층 지상 5층 규모의 건물로 국내 최초 내화?내진 설계를 적용하였습니다. 광복 후 2개 층을 증축하였고 현재는 한국전력공사 서울본부가 자리하고 있습니다. 근대건축사적인 가치를 지니고 있어 등록문화재 제1호로 지정되었습니다.","","","","서울특별시 중구 남대문로 92","서울특별시 중구 남대문로","서울시 중구청","KOR","2015-12-30","DATA","HTML","","등록문화재 제1호","","","","","","","",""
"69","JGS_000069","거꾸로 세운 동상","","JGH_001149","126.9904","37.55888","","2015년 8월 22일에 옛 통감관저 터에 거꾸로 세운 동상이라고 이름 붙인 표석을 설치했습니다. 이 표석은 을사늑약 체결에 앞장섰던 하야시 곤스케 동상의 돌 조각 3점을 이용해 제작됐습니다.","","","","서울특별시 중구 퇴계로 26가길 6","서울특별시 중구 퇴계로","서울시 중구청","KOR","2015-12-30","DATA","HTML","","","","","","","","","",""
"70","JGS_000070","문학의 집","","JGH_000622","126.98933","37.55835","","1975년부터 1990년까지 국가안전기획부장 공관으로 사용되었습니다. 2001년 문학의 집으로 새롭게 문을 열어 매년 수요 문학특강 음악이 있는 문학마당 시 낭송회 등을 개최하고 있습니다.","","","","서울특별시 중구 퇴계로26길 65","서울특별시 중구 퇴계로","서울시 중구청","KOR","2015-12-30","DATA","HTML","","","","","","주차가능","","","",""
"71","JGS_000071","서울의 중심점","","JGH_001150","126.98874","37.55184","","서울의 중심점은 남산 정상에 있으며 경도 126˚59´30˝ 위도 37˚33´6˝입니다. 2010년 이곳에 서울의 중심점을 상징하는 조형물을 설치했습니다.","","","","서울특별시 중구 남산공원길 125-54","서울특별시 중구 남산공원길","서울시 중구청","KOR","2015-12-30","DATA","HTML","","","","","","","","","",""
"72","JGS_000072","광희동 중앙아시아거리","","JGH_000485","127.00564","37.56549","","광희동 중앙아시아거리는 1990년대 초 한국?러시아의 수교 이후 러시아와 중앙아시아에서 온 사람들이 광희동에 모여들면서 형성되기 시작했습니다.","","","","서울특별시 중구 광희동 1가 120 일대","서울특별시 중구 광희동","서울시 중구청","KOR","2015-12-30","DATA","HTML","","","","","","","","","",""
"73","JGS_000073","동대문 패션타운","","","127.00864","37.56866","","동대문패션타운은 종로5가 광장시장에서 청계8가 신설 종합시장까지 약 2㎞의 청계천로 좌우와 인접 골목 그리고 흥인문로의 좌우 일대에 분포된 시장들을 총칭해 이르는 말입니다.","","","","서울특별시 중구 장충단로 275 일대","서울특별시 중구 장충단로","서울시 중구청","KOR","2015-12-30","DATA","HTML","","","","","","","","","",""
"74","JGS_000074","동대문디자인플라자","","JGH_000240","127.0095","37.56672","","옛 동대문 운동장 자리에 지어진 동대문디자인플라자는 2009년 4월에 착공해 2014년 3월에 개관한 복합 문화공간입니다.","","","","서울특별시 중구 을지로 281","서울특별시 중구 을지로","서울시 중구청","KOR","2015-12-30","DATA","HTML","02-2153-0000","","","","","주차가능","","","",""
"75","JGS_000075","이간수문","","JGH_000242","127.01084","37.56796","","한양도성 동대문 아래에 위치하였던 오간수문 바로 남쪽에 있던 수문입니다. 남산에서 흘러내린 물길은 이간수문을 통해 도성 밖 청계천 본류와 합류했습니다. 2개의 홍예문으로 만들어져서 이간수문이라고 불렸습니다.","","","","서울특별시 중구 을지로 281","서울특별시 중구 을지로","서울시 중구청","KOR","2015-12-30","DATA","HTML","","","","","","","","","",""
"76","JGS_000076","동대문운동장기념관","","JGH_000636","127.01123","37.56766","","이 기념관은 일제강점기인 1925년 5월 24일 준공되어 2007년 12월 철거된 동대문운동장에서 열린 경기 및 집회 관련 기록물과 동대문운동장 내부 시설 등을 보관?전시한 곳입니다.","","","","서울특별시 중구 을지로 281(신당동 853)","서울특별시 중구 을지로","서울시 중구청","KOR","2015-12-30","DATA","HTML","","","","","","","","","",""
"77","JGS_000077","동대문역사문화공원(하도감 터)","","JGH_000480","127.01131","37.56727","","서울특별시 중구에 있는 역사문화 테마공원입니다. 옛 동대문운동장 자리에 조성된 동대문디자인플라자의 일부로 건축 당시에 발견된 유물 유구들을 전시?관람토록 해놓았습니다. 또한 동대문 운동장에서 과거 치렀던 경기들도 살펴볼 수 있습니다.","","","","서울특별시 중구 을지로 281(을지로7가 2-1)","서울특별시 중구 을지로","서울시 중구청","KOR","2015-12-30","DATA","HTML","02-2153-0408~9","","","","","","","","",""
"78","JGS_000078","신당동 떡볶이골목","","JGH_000109","127.01503","37.56287","","신당동 떡볶이골목은 1950년대부터 시작되었습니다. 고추장과 춘장이 섞인 매콤하면서 짭짤하고 달달한 맛이 중독성을 가지고 있습니다. 외국인이 찾는 관광 명소입니다.","","","","서울특별시 중구 퇴계로 76길 50 일대","서울특별시 중구 퇴계로","서울시 중구청","KOR","2015-12-30","DATA","HTML","","","","","","","","","",""
"79","JGS_000079","구 서산부인과","","JGH_000239","127.01035","37.56481","","건축가 김중업이 설계했고 1965년에 완공된 건물로 30여 년 동안 산부인과 병원으로 쓰이다 현재는 일반 사무실 등으로 사용되고 있습니다. 노출콘크리트와 부드러운 곡선의 이미지가 특징인 건물입니다.","","","","서울특별시 중구 퇴계로 349","서울특별시 중구 퇴계로","서울시 중구청","KOR","2015-12-30","DATA","HTML","","","","","","","","","",""
"80","JGS_000080","안중근 의사상","","JGH_000739","126.98039","37.55347","","중국 흑룡강성 하얼빈역에서 조선 초대 통감부를 지냈던 이토 히로부미를 저격?사살한 대한의병 참모중장인 안중근 의사의 업적을 기념하기 위해 만든 동상입니다. 처음에는 숭의여고 안에 세워졌으나 1967년 조선신궁 터였던 남산공원 관리사무소 앞으로 옮긴 후 새 동상으로 다시 세웠습니다. 2010년 동상의 균열을 막기 위해 금빛으로 칠하였습니다.","","","","서울특별시 중구 소월로 91 남산공원 내","서울특별시 중구 소월로","서울시 중구청","KOR","2015-12-30","DATA","HTML","","","","","","","","","",""
"81","JGS_000081","성재이시영선생동상","","JGH_000745","126.97925","37.55541","","명문가의 후손으로 상당한 권세를 누렸으나 이를 모두 버리고 6형제와 함께 독립운동에 나서 임시정부를 처음부터 끝까지 지켰습니다. 광복 후 초대 부통령에 선출됩니다. 이 동상은 독립운동가이자 교육자이자 정치가인 이시영(李始榮)선생의 항일구국운동과 광복 이후 민주국가를 위해 헌신한 애국정신을 기리기 위해 1986년 4월 17일 백범광장에 건립하였습니다.","","","","서울특별시 중구 회현동 1가 100-115","서울특별시 중구 회현동","서울시 중구청","KOR","2015-12-30","DATA","HTML","","","","","","","","","",""
"82","JGS_000082","김유신장군상","","JGH_000744","126.97809","37.55575","","김유신(595~673)은 신라가 삼국통일을 이루는 데 중추적인 역할을 하고 통일신라의 토대를 마련한 장군입니다.","","","","서울특별시 중구 소월로 39-2 남산공원 아동광장 내","서울특별시 중구 소월로","서울시 중구청","KOR","2015-12-30","DATA","HTML","","","","","","","","","",""
"83","JGS_000083","삼순이계단","","JGH_001151","126.98175","37.55444","","드라마 <내 이름은 김삼순>의 엔딩씬 촬영 장소로 쓰이면서 삼순이계단이라 불리며 많은 사람들이 즐겨 찾는 장소가 되었습니다.","","","","서울특별시 중구 소파로 46","서울특별시 중구 소파로","서울시 중구청","KOR","2015-12-30","DATA","HTML","","","","","","","","","",""
"84","JGS_000084","서울 한양도성","","JGH_000069","127.01011","37.56417","","이 성곽은 1396년(태조 5년)에 만든 것으로 조선시대의 수도인 한양을 에워싼 도성입니다. 남산(목멱산)구간은 장충체육관 뒷길에서 남산공원까지 이어지는 구간입니다.","","","","서울특별시 중구 장충동 2가","서울특별시 중구 장충동","서울시 중구청","KOR","2015-12-30","DATA","HTML","","사적 제10호","","","","","","","",""
"85","JGS_000085","장충단공원","","JGH_000447","127.00505","37.55877","","을미사변과 임오군란 갑신정변에서 목숨을 잃은 군인과 충신들을 위해 제사를 지내던 곳이었으나 일제강점기에 공원으로 조성되었습니다. 1984년에 근린공원이 되어 남산공원의 일부로 흡수되었습니다.","","","","서울특별시 중구 동호로 257-10","서울특별시 중구 동호로","서울시 중구청","KOR","2015-12-30","DATA","HTML","","","","","","","","","",""
"86","JGS_000086","명동의 시대별 장소적 의미","","","126.98449","37.56103","","명동은 일제강점기 시기 진고개에 주거하던 일본인들에 의해 개발되기 시작했습니다. 광복 이후 명동은 금융 상업 문화가 집중된 곳으로 성장합니다.","","","","서울특별시 중구 명동 일대","서울특별시 중구 명동","서울시 중구청","KOR","2015-12-30","DATA","HTML","","","","","","","","","",""
"87","JGS_000087","명동백작 이봉구","","","126.98354","37.56382","","1943년부터 매일신문 기자생활을 시작한 이봉구는 명동에서 활동한 문인입니다.","","","","서울특별시 중구 명동 일대","서울특별시 중구 명동","서울시 중구청","KOR","2015-12-30","DATA","HTML","","","","","","","","","",""
"88","JGS_000088","명동의 다방 문화(1950~60년대 문화예술의 중심지)","","","126.98492","37.56437","","일제강점기부터 해방기 6?25전쟁을 거쳐 1960년대에 이르기까지 명동의 다방은 문화예술가들이 모여들어 토론하고 작업하고 쉬어가는 장소였습니다.","","","","서울특별시 중구 명동 일대","서울특별시 중구 명동","서울시 중구청","KOR","2015-12-30","DATA","HTML","","","","","","","","","",""
"89","JGS_000089","명동 다방의 변천사","","","126.98428","37.56394","","다방은 일제강점기 때 처음 만들어져 광복과 6?25전쟁을 겪으면서 문화예술가들이 활동하는 종합예술의 장이 됩니다. 1970년대가 되어서는 히피문화를 즐기는 젊은이들이 찾습니다.","","","","서울특별시 중구 명동 일대","서울특별시 중구 명동","서울시 중구청","KOR","2015-12-30","DATA","HTML","","","","","","","","","",""
"90","JGS_000090","1970~80년대 패션과 유행의 공간 명동","","","126.98283","37.56339","","1970년대 명동은 전국에서 가장 땅값이 높은 곳이었고 첨단을 걷는 패션이 유행하던 곳이었습니다. 젊은이들은 서구에서 들어온 히피문화를 다방과 비어홀에서 즐기기도 했습니다.","","","","서울특별시 중구 명동 일대","서울특별시 중구 명동","서울시 중구청","KOR","2015-12-30","DATA","HTML","","","","","","","","","",""
"91","JGS_000091","명동의 소극장들","","","126.98789","37.5634","","6?25전쟁 후 국립극장이 명동 시공관에 자리를 잡습니다. 이후 명동은 공연예술의 중심지가 됩니다. 하지만 1970년대 들어 국립극장이 이전하면서 명동에 하나둘씩 생기기 시작한 소극장이 공연예술을 이끕니다. 대표적인 극단으로 자유극단과 삼일로 창고극장이 있습니다.","","","","서울특별시 중구 명동 일대","서울특별시 중구 명동","서울시 중구청","KOR","2015-12-30","DATA","HTML","","","","","","","","","",""
"92","JGS_000092","명동의 유일한 쉼터 명동공원","","","126.98517","37.56255","","1950년대에 만들어진 명동공원은 상업시설로 번잡했던 명동의 오아시스였습니다. 근처에 살던 아이들의 놀이터가 되기도 하였고 근처 상가나 회사에 근무하던 직장인들이 잠시 쉬던 곳이기도 했습니다. 그리고 거나하게 취한 명동 술꾼들이 집에 가기 전 술을 깨는 장소이기도 했습니다.","","","","서울특별시 중구 명동 일대","서울특별시 중구 명동","서울시 중구청","KOR","2015-12-30","DATA","HTML","","","","","","","","","",""
"93","JGS_000093","요절한 예술인들(박인환 전혜린 윤용하 이중섭 김관식)","","","126.98468","37.56231","","1950년대 명동의 예술가들은 치열하게 예술혼을 불태우며 작품을 남겼습니다. 그 중에는 강렬하게 타오르다 너무 일찍 세상을 떠난 예술가들도 있었습니다.","","","","서울특별시 중구 명동 일대","서울특별시 중구 명동","서울시 중구청","KOR","2015-12-30","DATA","HTML","","","","","","","","","",""
"94","JGS_000094","1950년대 명동의 하루(동아일보 1957년 기사)","","","126.98509","37.56125","","1950년대의 명동은 일제강점기와 6?25전쟁 동안 억눌렸던 사람들의 소비 욕구가 분출되던 곳이었습니다. 1957년 명동의 번잡한 하루를 자료를 기반으로 구성해 보았습니다. (동아일보 1957.11.25 「서울의 축소판 명동의 하루」 기사 참조)","","","","서울특별시 중구 명동 일대","서울특별시 중구 명동","서울시 중구청","KOR","2015-12-30","DATA","HTML","","","","","","","","","",""
"95","JGS_000095","1950~60년대 '명동의 유행과 패션'","","","126.9846","37.56275","","6?25전쟁을 거치면서 한국 여성들은 한복의 불편함을 깨닫고 양장을 선호하게 됩니다. 1950년대부터 명동에서는 여성들의 기호에 맞는 옷을 파는 양장점과 미장원이 들어서기 시작합니다.","","","","서울특별시 중구 명동 일대","서울특별시 중구 명동","서울시 중구청","KOR","2015-12-30","DATA","HTML","","","","","","","","","",""
"96","JGS_000096","명동의 양장점","","","126.98455","37.56303","","1950년대 말부터 명동지역에 양복점 양장점 양화점 미용점 등이 집중적으로 생기고 그에 따라 명동을 중심으로 양장점과 미장원 관련 학원?학교들도 많이 들어섰습니다. 당시 양장점은 여성들에게 새로운 패션을 알려주는 공간이었습니다.","","","","서울특별시 중구 명동 일대","서울특별시 중구 명동","서울시 중구청","KOR","2015-12-30","DATA","HTML","","","","","","","","","",""
"97","JGS_000097","은성주점 명동샹송-세월이 가면(박인환)","","JGH_000489","126.9849","37.56206","","탤런트 최불암의 어머니가 운영했던 은성주점은 1950~60년대 명동의 문화예술가들이 자주 찾던 술집입니다. 다른 술집에 비해 정갈하여 각양각색의 사람들이 모였습니다.","","","","서울특별시 중구 명동 1가 59-7 ARITAUM 앞","서울특별시 중구 명동","서울시 중구청","KOR","2015-12-30","DATA","HTML","","","","","","","","","",""
"98","JGS_000098","중식당 아서원 이야기 중국인 거리","","","126.98287","37.56199","","아서원은 1950~60년대를 대표하는 화교 경영 중화요리점이며 유명 정치인과 경영인들의 회합장소로 많이 쓰였습니다. 명동의 서측 끝 남대문로와 접해있는 삼각형의 블록과 눈스퀘어에서 중앙우체국 뒤로 가면 개화기 때 형성된 중국인 거리가 나타납니다. 이곳에는 오래된 중국인 음식점과 중국 물품을 파는 상점이 있습니다.","","","","서울특별시 중구 명동 일대","서울특별시 중구 명동","서울시 중구청","KOR","2015-12-30","DATA","HTML","","","","","","","","","",""
"99","JGS_000099","남산예술센터","","JGH_000625","126.98824","37.55881","","1962년에 드라마센터로 문을 연 남산예술센터는 리모델링 공사를 거쳐 2009년 6월에 현대적인 공연장으로 재개관하였습니다.","","","","서울특별시 중구 소파로 138","서울특별시 중구 소파로","서울시 중구청","KOR","2015-12-30","DATA","HTML","02-758-2000","","","","","","","","",""
"100","JGS_000100","성공회 성가수녀원","","","126.97533","37.56753","","대한성공회 성가수녀원(Society of Holy Cross)은 1925년 9월 14일 조마가 주교에 의해 창립되었습니다. 6?25전쟁 때 허물어졌다가 1960년에 대한성공회에서 수녀원을 신축했습니다.","","","","서울특별시 중구 정동","서울특별시 중구 정동","서울시 중구청","KOR","2015-12-30","DATA","HTML","","","","","","","","","",""
"501","JGS_000101","청계천의 역사","","","126.9777120","37.5691660","","‘개천’에서 ‘청계천’으로 청계천 복개에서 복원까지","","","","서울특별시 중구/종로구","","서울특별시","KOR","","DATA","HTML","","","","","","","","","",""
"524","JGS_000102","모전교","","","126.979293","37.569052","","과일가게로 가던 모전교 지금은 팔석담(八石潭)에서 소원을 비는 곳","","","","서울특별시 중구/종로구","","서울특별시","KOR","","DATA","HTML","","","","","","","","","",""
"533","JGS_000103","광통교","","","126.981045","37.568949","","신덕왕후릉 장식돌로 만든 광통교","","","","서울특별시 중구/종로구","","서울특별시","KOR","","DATA","HTML","","","","","","","","","",""
"537","JGS_000104","광통교 석축물","","","126.98089","37.569082","","광통교 석축과 교각의 의미","","","","서울특별시 중구/종로구","","서울특별시","KOR","","DATA","HTML","","","","","","","","","",""
"542","JGS_000105","광교","","","126.982828","37.568828","","경복궁과 숭례문을 잇는 청계천의 중심다리","","","","서울특별시 중구/종로구","","서울특별시","KOR","","DATA","HTML","","","","","","","","","",""
"547","JGS_000106","장통교","","","126.985666","37.568355","","역관과 의원들이 살던 마을 중촌이 있던 다리","","","","서울특별시 중구/종로구","","서울특별시","KOR","","DATA","HTML","","","","","","","","","",""
"552","JGS_000107","삼일교","","","126.987684","37.568068","","삼일로 삼일빌딩과 나란히 있는 삼일교 3?1운동을 기념하다","","","","서울특별시 중구/종로구","","서울특별시","KOR","","DATA","HTML","","","","","","","","","",""
"557","JGS_000108","수표교","","","126.990176","37.568149","","조선시대 홍수경보시스템인 수표가 설치된 수표교","","","","서울특별시 중구/종로구","","서울특별시","KOR","","DATA","HTML","","","","","","","","","",""
"562","JGS_000109","관수교","","","126.992429","37.568365","","준천사에서 청계천을 살펴본다는 뜻의 관수교","","","","서울특별시 중구/종로구","","서울특별시","KOR","","DATA","HTML","","","","","","","","","",""
"567","JGS_000110","세운교","","","126.995342","37.568576","","조선시대 시각장애인 마을 옆 효경교 지금은 세운상가아래 세운교","","","","서울특별시 중구/종로구","","서울특별시","KOR","","DATA","HTML","","","","","","","","","",""
"572","JGS_000111","배오개다리","","","126.997975","37.568863","","배오개 시장과 배오개다리","","","","서울특별시 중구/종로구","","서울특별시","KOR","","DATA","HTML","","","","","","","","","",""
"577","JGS_000112","새벽다리","","","127.000211","37.569290","","새벽부터 활기찬 광장시장과 방산시장의 느낌 그대로의 이름","","","","서울특별시 중구/종로구","","서울특별시","KOR","","DATA","HTML","","","","","","","","","",""
"582","JGS_000113","마전교","","","127.002083","37.569597","","소말 팔던 마전이 있던 곳","","","","서울특별시 중구/종로구","","서울특별시","KOR","","DATA","HTML","","","","","","","","","",""
"587","JGS_000114","나래교","","","127.004613","37.569603","","동대문 의류 상업이여 비상의 나래를 펼쳐라!","","","","서울특별시 중구/종로구","","서울특별시","KOR","","DATA","HTML","","","","","","","","","",""
"592","JGS_000115","버들다리(전태일다리)","","","127.006709","37.569631","","1970년 노동현실을 일깨운 전태일","","","","서울특별시 중구/종로구","","서울특별시","KOR","","DATA","HTML","","","","","","","","","",""
"597","JGS_000116","오간수교","","","127.009730","37.569760","","일제가 조선의 오간수문을 헐고 일제가 오간수교를 만들다.","","","","서울특별시 중구/종로구","","서울특별시","KOR","","DATA","HTML","","","","","","","","","",""
"602","JGS_000117","맑은내다리","","","127.012508","37.569762","","맑은 내는 청계천의 순우리말","","","","서울특별시 중구/종로구","","서울특별시","KOR","","DATA","HTML","","","","","","","","","",""
"607","JGS_000118","다산교","","","127.015917","37.569794","","다산 정약용의 삶을 기리는 다리","","","","서울특별시 중구/종로구","","서울특별시","KOR","","DATA","HTML","","","","","","","","","",""
"612","JGS_000119","영도교","","","127.019050","37.571027","","단종과 정순왕후의 비극이 서린 다리","","","","서울특별시 중구/종로구","","서울특별시","KOR","","DATA","HTML","","","","","","","","","",""
"618","JGS_000120","황학교","","","127.023407","37.571725","","가난한 시절 여인이 머리카락을 내다 팔던 곳 골동품시장 도깨비시장","","","","서울특별시 중구/동대문구","","서울특별시","KOR","","DATA","HTML","","","","","","","","","",""
"623","JGS_000121","비우당교","","","127.026658","37.570760","","청렴한 삶의 대명사 비우당 겨우 비나 피할만한 집","","","","서울특별시 동대문구/성동구","","서울특별시","KOR","","DATA","HTML","","","","","","","","","",""
"628","JGS_000122","무학교","","","127.030354","37.569794","","무학대사와 한양도읍 설화","","","","서울특별시 동대문구/성동구","","서울특별시","KOR","","DATA","HTML","","","","","","","","","",""
"633","JGS_000123","두물다리","","","127.033545","37.570804","","두 물줄기가 합쳐지는 곳에 있는 다리 그 아래 청혼의 벽","","","","서울특별시 동대문구/성동구","","서울특별시","KOR","","DATA","HTML","","","","","","","","","",""
"638","JGS_000124","고산자교","","","127.037931","37.572332","","대동여지도를 만든 김정호의 호 고산자","","","","서울특별시 동대문구/성동구","","서울특별시","KOR","","DATA","HTML","","","","","","","","","",""
"643","JGS_000125","청계천 상류와 생활","","","126.983522","37.568693","","조선시대 고급주택단지 중인의 시사(詩社) 물장수의 삶이 있는 곳","","","","서울특별시 청계천","","서울특별시","KOR","","DATA","HTML","","","","","","","","","",""
"650","JGS_000126","청계천 본류와 생활","","","127.003486","37.569572","","서민문화의 중심지-중촌과 시전 술집 전기수 입담이 있는 곳","","","","서울특별시 청계천","","서울특별시","KOR","","DATA","HTML","","","","","","","","","",""
"654","JGS_000127","청계천은 조선여인들의 빨래터","","","127.017441","37.570278","","청계천 빨래터는 조선 여인들의 쉼터","","","","서울특별시 청계천","","서울특별시","KOR","","DATA","HTML","","","","","","","","","",""
"659","JGS_000128","청계천 하류와 생활","","","127.025354","37.571037","","오간수문의 봄놀이와 가산의 땅꾼","","","","서울특별시 청계천","","서울특별시","KOR","","DATA","HTML","","","","","","","","","",""
"664","JGS_000129","다리밟기(답교놀이)","","","126.981870","37.568862","","정월 보름 청계천다리 밟고 한 해의 액은 청계천에 흘려보낸다.","","","","서울특별시 청계천","","서울특별시","KOR","","DATA","HTML","","","","","","","","","",""
"669","JGS_000130","연날리기 ","","","126.991294","37.568252","","연날리기로 반란을 무너뜨린 김유신. 송액영복(送厄迎福)","","","","서울특별시 청계천","","서울특별시","KOR","","DATA","HTML","","","","","","","","","",""
"674","JGS_000131","연등놀이","","","126.981870","37.568862","","부처님께 복을 비는 연등놀이","","","","서울특별시 청계천","","서울특별시","KOR","","DATA","HTML","","","","","","","","","",""
"679","JGS_000132","돌싸움","","","126.984339","37.568659","","조선의 호전적인 돌싸움","","","","서울특별시 청계천","","서울특별시","KOR","","DATA","HTML","","","","","","","","","",""
"684","JGS_000133","택견","","","127.001242","37.569457","","대쾌도. 조선의 마지막 택견수련터와 인사동 택견배틀","","","","서울특별시 청계천","","서울특별시","KOR","","DATA","HTML","","","","","","","","","",""
"689","JGS_000134","수선전도","","","126.98489","37.568552","","한양을 그린 수선전도","","","","서울특별시 종로구","","서울특별시","KOR","","DATA","HTML","","","","","","","","","",""
"694","JGS_000135","정조대왕능행반차도","","","126.98527","37.568509","","사도세자의 묘에 참배 가는 정조대왕 행렬","","","","서울특별시 종로구","","서울특별시","KOR","","DATA","HTML","","","","","","","","","",""
"699","JGS_000136","영조어필/준천가","","","127.009682","37.569826","","영조의 준천공사에 대한 기쁨과 채제공의 시","","","","서울특별시 종로구","","서울특별시","KOR","","DATA","HTML","","","","","","","","","",""
"704","JGS_000137","오간수문","","","127.010614","37.569765","","청계천의 물길이 나가는 한양의 성벽 오간수문","","","","서울특별시 종로구","","서울특별시","KOR","","DATA","HTML","","","","","","","","","",""
"709","JGS_000138","준천도","","","127.009680","37.569675","","영조 오간수문에서 준천공사를 독려하다.","","","","서울특별시 중구","","서울특별시","KOR","","DATA","HTML","","","","","","","","","",""
"714","JGS_000139","청계천 옛 모습 벽화","","","127.013774","37.569842","","청계천 옛 모습","","","","서울특별시 종로구","","서울특별시","KOR","","DATA","HTML","","","","","","","","","",""
"19","JGS_000019","세실극장","","JGH_001147","126.97599","37.56673","","1976년 대한성공회 대성당 부속건물에 개관한 소극장입니다. 대한민국연극제를 1회부터 5회까지 개최한 소극장으로 1970년대 불었던 소극장 운동의 중심지였습니다.","","","","서울특별시 중구 세종대로19길 16","서울특별시 중구 세종대로","서울시 중구청","KOR","2015-12-30","DATA","HTML","02-742-7601","","","","","","","","",""