"서비스구분","서비스ID","대분류명","소분류명","서비스상태","서비스명","결제방법","장소명","서비스대상","바로가기URL","장소X좌표","장소Y좌표","서비스개시시작일시","서비스개시종료일시","접수시작일시","접수종료일시","지역명"
"자체","S110425135046048219","교육","자연/과학","접수종료","여의도샛강] 여의도샛강의 사계(유아생태프로그램)","무료","여의도한강공원>여의도샛강생태공원","유아(만5세)","http://yeyak.seoul.go.kr/reservation/view.web?rsvsvcid=S110425135046048219","37.5187175999836","126.92194868061986","2017-06-23 00:00:00.0","2020-11-30 00:00:00.0","2018-03-25 09:00:00.0","2020-11-23 00:00:00.0","영등포구"
"자체","S200509205243752701","교육","체험/견학","접수중","안양천 자연생태 체험교실","무료","안양천>안양천 생태운영센터","제한없음","http://yeyak.seoul.go.kr/reservation/view.web?rsvsvcid=S200509205243752701","37.52252568813805","126.88136955233747","2020-05-11 00:00:00.0","2021-11-30 00:00:00.0","2020-05-11 10:00:00.0","2020-11-18 10:00:00.0","영등포구"
"자체","S200610164756306896","교육","자연/과학","접수중","[샛숲학교] 샛강 얼리버드","무료","여의도한강공원>여의도샛강생태공원","제한없음","http://yeyak.seoul.go.kr/reservation/view.web?rsvsvcid=S200610164756306896","37.5187175999836","126.92194868061986","2020-06-10 00:00:00.0","2020-06-29 00:00:00.0","2020-06-10 00:00:00.0","2020-06-25 23:59:00.0","영등포구"
"자체","S200610172019280327","교육","자연/과학","접수중","[샛숲학교] 샛강 버드나무 교실","무료","여의도한강공원>여의도샛강생태공원","제한없음","http://yeyak.seoul.go.kr/reservation/view.web?rsvsvcid=S200610172019280327","37.5187175999836","126.92194868061986","2020-06-10 00:00:00.0","2020-06-30 00:00:00.0","2020-06-10 00:00:00.0","2020-06-26 23:59:00.0","영등포구"
"자체","S200610174115974014","교육","자연/과학","접수중","[샛숲학교] 샛강의 소리를 찾아서","무료","여의도한강공원>여의도샛강생태공원","제한없음","http://yeyak.seoul.go.kr/reservation/view.web?rsvsvcid=S200610174115974014","37.5187175999836","126.92194868061986","2020-06-10 00:00:00.0","2020-06-30 00:00:00.0","2020-06-10 00:00:00.0","2020-06-26 23:59:00.0","영등포구"
"자체","S200610174951949569","교육","자연/과학","접수중","[샛숲학교] 샛강 꽃과 나무의 시간","무료","여의도한강공원>여의도샛강생태공원","제한없음","http://yeyak.seoul.go.kr/reservation/view.web?rsvsvcid=S200610174951949569","37.5187175999836","126.92194868061986","2020-06-10 00:00:00.0","2020-06-24 00:00:00.0","2020-06-10 00:00:00.0","2020-06-22 23:59:00.0","영등포구"
"자체","S200610175702081895","교육","자연/과학","접수중","[샛숲학교] 시가 있는 한낮의 샛강 산책","무료","여의도한강공원>여의도샛강생태공원","제한없음","http://yeyak.seoul.go.kr/reservation/view.web?rsvsvcid=S200610175702081895","37.5187175999836","126.92194868061986","2020-06-10 00:00:00.0","2020-06-26 00:00:00.0","2020-06-10 00:00:00.0","2020-06-24 23:59:00.0","영등포구"
"자체","S200610180329964133","교육","자연/과학","접수중","[샛숲학교] 샛강 수달 교실","무료","여의도한강공원>여의도샛강생태공원","제한없음","http://yeyak.seoul.go.kr/reservation/view.web?rsvsvcid=S200610180329964133","37.5187175999836","126.92194868061986","2020-06-10 00:00:00.0","2020-06-26 00:00:00.0","2020-06-10 00:00:00.0","2020-06-24 23:59:00.0","영등포구"