"서비스구분","서비스ID","대분류명","소분류명","서비스상태","서비스명","결제방법","장소명","서비스대상","바로가기URL","장소X좌표","장소Y좌표","서비스개시시작일시","서비스개시종료일시","접수시작일시","접수종료일시","지역명"
"자체","S200108103136218416","교육","자연/과학","예약일시중지","개운산 생태체험관 프로그램","유료(요금안내문의)","개운산 생태체험관","제한없음","http://yeyak.seoul.go.kr/reservation/view.web?rsvsvcid=S200108103136218416","37.597206623368976","127.02577717409962","2020-01-01 00:00:00.0","2020-12-27 00:00:00.0","2020-01-01 00:00:00.0","2020-12-27 00:00:00.0","성북구"
"자체","S200108113533419289","교육","자연/과학","예약일시중지","북한산 성북생태체험관 프로그램","유료(요금안내문의)","개운산 생태체험관","제한없음","http://yeyak.seoul.go.kr/reservation/view.web?rsvsvcid=S200108113533419289","37.597206623368976","127.02577717409962","2020-01-08 00:00:00.0","2020-12-27 00:00:00.0","2020-01-08 00:00:00.0","2020-12-27 00:00:00.0","성북구"
"자체","S200108113831239359","교육","자연/과학","예약일시중지","북악산 청소년 체험의 숲 체험관 프로그램","유료(요금안내문의)","개운산 생태체험관","제한없음","http://yeyak.seoul.go.kr/reservation/view.web?rsvsvcid=S200108113831239359","37.597206623368976","127.02577717409962","2020-01-08 00:00:00.0","2020-12-27 00:00:00.0","2020-01-08 00:00:00.0","2020-12-27 00:00:00.0","성북구"