"서비스구분","서비스ID","대분류명","소분류명","서비스상태","서비스명","결제방법","장소명","서비스대상","바로가기URL","장소X좌표","장소Y좌표","서비스개시시작일시","서비스개시종료일시","접수시작일시","접수종료일시","지역명"
"자체","S140714091649053869","체육시설","풋살경기장","접수종료","잠실제2풋살경기장-평일(주간사용)","유료","잠실종합운동장>제2풋살경기장","제한없음","http://yeyak.seoul.go.kr/reservation/view.web?rsvsvcid=S140714091649053869","","","2014-07-14 00:00:00.0","2020-12-31 00:00:00.0","2020-05-15 13:30:00.0","2020-05-20 18:00:00.0","송파구"
"자체","S140714093209070904","체육시설","풋살경기장","접수종료","잠실제2풋살경기장-평일(야간사용)","유료","잠실종합운동장>제2풋살경기장","제한없음","http://yeyak.seoul.go.kr/reservation/view.web?rsvsvcid=S140714093209070904","","","2014-07-14 00:00:00.0","2020-12-31 00:00:00.0","2020-05-15 13:30:00.0","2020-05-20 18:00:00.0","송파구"
"자체","S140714094447178534","체육시설","풋살경기장","접수종료","잠실제2풋살경기장-토/일/공휴일(주간사용)","유료","잠실종합운동장>제2풋살경기장","제한없음","http://yeyak.seoul.go.kr/reservation/view.web?rsvsvcid=S140714094447178534","","","2014-07-14 00:00:00.0","2020-12-31 00:00:00.0","2020-05-15 13:30:00.0","2020-05-20 18:00:00.0","송파구"
"자체","S140714095223436002","체육시설","풋살경기장","접수종료","잠실제2풋살경기장-토/일/공휴일(야간사용)","유료","잠실종합운동장>제2풋살경기장","제한없음","http://yeyak.seoul.go.kr/reservation/view.web?rsvsvcid=S140714095223436002","","","2014-07-14 00:00:00.0","2020-12-31 00:00:00.0","2020-05-15 13:30:00.0","2020-05-20 18:00:00.0","송파구"
"자체","S190514100448426466","체육시설","다목적경기장","예약일시중지","오금공원 다목적경기장  풋살장 예약 ","무료","오금공원","제한없음","http://yeyak.seoul.go.kr/reservation/view.web?rsvsvcid=S190514100448426466","","","2019-05-15 00:00:00.0","2020-12-31 00:00:00.0","2019-05-15 12:00:00.0","2020-12-31 18:00:00.0","송파구"
"자체","S190514190059570846","체육시설","다목적경기장","예약일시중지","오금공원 다목적경기장 정구장 예약 (정구 외의 용도로 사용 금지)","무료","오금공원","제한없음","http://yeyak.seoul.go.kr/reservation/view.web?rsvsvcid=S190514190059570846","","","2019-05-15 00:00:00.0","2020-12-31 00:00:00.0","2019-05-15 00:00:00.0","2020-12-31 18:00:00.0","송파구"
"자체","S191117150638569151","체육시설","배구장","예약일시중지","2020년 배구장2-잠실","유료","잠실한강공원>배구장 2","제한없음","http://yeyak.seoul.go.kr/reservation/view.web?rsvsvcid=S191117150638569151","37.51817546661984","127.08912717246348","2019-12-01 00:00:00.0","2020-12-31 00:00:00.0","2019-12-01 00:00:00.0","2020-12-31 00:00:00.0","송파구"
"자체","S191116131741624863","체육시설","족구장","예약일시중지","2020년 족구장-잠실","유료","잠실한강공원>족구장","제한없음","http://yeyak.seoul.go.kr/reservation/view.web?rsvsvcid=S191116131741624863","37.518056510444076","127.0891587042459","2019-12-01 00:00:00.0","2020-12-31 00:00:00.0","2019-12-01 00:00:00.0","2020-12-31 00:00:00.0","송파구"
"자체","S191117150124259611","체육시설","배구장","예약일시중지","2020년 배구장1-잠실","유료","잠실한강공원>배구장 1","제한없음","http://yeyak.seoul.go.kr/reservation/view.web?rsvsvcid=S191117150124259611","37.518358897408426","127.08902558541877","2019-12-01 00:00:00.0","2020-12-31 00:00:00.0","2019-12-01 00:00:00.0","2020-12-31 00:00:00.0","송파구"
"자체","S200221083453519229","체육시설","다목적경기장","예약일시중지","탄천유수지 A구장(축구야구) 예약","무료","탄천유수지","제한없음","http://yeyak.seoul.go.kr/reservation/view.web?rsvsvcid=S200221083453519229","37.49666562874596","127.10054123654068","2020-02-27 00:00:00.0","2020-12-31 00:00:00.0","2020-02-27 00:00:00.0","2020-12-31 23:59:00.0","송파구"
"자체","S200227163724682113","체육시설","야구장","예약일시중지","탄천유수지 B구장(야구) 예약","무료","탄천유수지","제한없음","http://yeyak.seoul.go.kr/reservation/view.web?rsvsvcid=S200227163724682113","37.49666562874596","127.10054123654068","2020-02-27 00:00:00.0","2020-12-31 00:00:00.0","2020-02-27 00:00:00.0","2020-12-31 23:59:00.0","송파구"
"자체","S140714101055498825","체육시설","풋살경기장","접수종료","잠실제1풋살경기장-토/일/공휴일(야간사용)","유료","잠실종합운동장>풋살경기장","제한없음","http://yeyak.seoul.go.kr/reservation/view.web?rsvsvcid=S140714101055498825","37.51619977107392","127.07594025137807","2014-07-14 00:00:00.0","2020-12-31 00:00:00.0","2020-05-15 13:30:00.0","2020-05-20 18:00:00.0","송파구"
"자체","S140714102750189648","체육시설","풋살경기장","접수종료","잠실제1풋살경기장 토/일/공휴일(주간사용)","유료","잠실종합운동장>풋살경기장","제한없음","http://yeyak.seoul.go.kr/reservation/view.web?rsvsvcid=S140714102750189648","37.51619977107392","127.07594025137807","2014-07-14 00:00:00.0","2020-12-31 00:00:00.0","2020-05-15 13:30:00.0","2020-05-20 18:00:00.0","송파구"
"자체","S140714103209662036","체육시설","풋살경기장","접수종료","잠실제1풋살경기장-평일(주간사용)","유료","잠실종합운동장>풋살경기장","제한없음","http://yeyak.seoul.go.kr/reservation/view.web?rsvsvcid=S140714103209662036","37.51619977107392","127.07594025137807","2014-07-14 00:00:00.0","2020-12-31 00:00:00.0","2020-05-15 13:30:00.0","2020-05-20 18:00:00.0","송파구"
"자체","S140714103708340242","체육시설","풋살경기장","접수종료","잠실제1풋살경기장-평일(야간사용)","유료","잠실종합운동장>풋살경기장","제한없음","http://yeyak.seoul.go.kr/reservation/view.web?rsvsvcid=S140714103708340242","37.51619977107392","127.07594025137807","2014-07-14 00:00:00.0","2020-12-31 00:00:00.0","2020-05-15 13:30:00.0","2020-05-20 18:00:00.0","송파구"
"자체","S150713145938618139","체육시설","풋살경기장","접수종료","잠실제3풋살경기장-토/일/공휴일(주간사용)","유료","잠실종합운동장>풋살경기장","제한없음","http://yeyak.seoul.go.kr/reservation/view.web?rsvsvcid=S150713145938618139","37.51619977107392","127.07594025137807","2015-07-13 00:00:00.0","2020-12-31 00:00:00.0","2020-05-15 13:30:00.0","2020-05-20 18:00:00.0","송파구"
"자체","S150713152202637422","체육시설","풋살경기장","접수종료","잠실제3풋살경기장-토/일/공휴일(야간사용)","유료","잠실종합운동장>풋살경기장","제한없음","http://yeyak.seoul.go.kr/reservation/view.web?rsvsvcid=S150713152202637422","37.51619977107392","127.07594025137807","2015-07-13 00:00:00.0","2020-12-31 00:00:00.0","2020-05-15 13:30:00.0","2020-05-20 18:00:00.0","송파구"
"자체","S150713152847326974","체육시설","풋살경기장","접수종료","잠실제3풋살경기장-평일(주간사용)","유료","잠실종합운동장>풋살경기장","제한없음","http://yeyak.seoul.go.kr/reservation/view.web?rsvsvcid=S150713152847326974","37.51619977107392","127.07594025137807","2015-07-13 00:00:00.0","2020-12-31 00:00:00.0","2020-05-15 13:30:00.0","2020-05-20 18:00:00.0","송파구"
"자체","S150713160023141494","체육시설","풋살경기장","접수종료","잠실제3풋살경기장-평일(야간사용)","유료","잠실종합운동장>풋살경기장","제한없음","http://yeyak.seoul.go.kr/reservation/view.web?rsvsvcid=S150713160023141494","37.51619977107392","127.07594025137807","2015-07-13 00:00:00.0","2020-12-31 00:00:00.0","2020-05-15 13:30:00.0","2020-05-20 18:00:00.0","송파구"