"서비스구분","서비스ID","대분류명","소분류명","서비스상태","서비스명","결제방법","장소명","서비스대상","바로가기URL","장소X좌표","장소Y좌표","서비스개시시작일시","서비스개시종료일시","접수시작일시","접수종료일시","지역명"
"자체","S170624140054212458","교육","체험/견학","접수종료","(주말)해설이 있는 서울로 산책","무료","서울역고가","제한없음","http://yeyak.seoul.go.kr/reservation/view.web?rsvsvcid=S170624140054212458","","","2017-07-01 00:00:00.0","2020-08-31 00:00:00.0","2017-06-01 00:00:00.0","2020-06-01 00:00:00.0","중구"
"자체","S170628164534896155","교육","체험/견학","접수중","(평일)서울로 식물 드로잉 교실","무료","서울역고가","제한없음","http://yeyak.seoul.go.kr/reservation/view.web?rsvsvcid=S170628164534896155","","","2017-07-01 00:00:00.0","2020-09-30 00:00:00.0","2017-08-18 00:00:00.0","2020-06-30 00:00:00.0","중구"
"자체","S170717174907952559","교육","체험/견학","접수중","(평일)서울로 공감각 놀이","무료","서울역고가","유아","http://yeyak.seoul.go.kr/reservation/view.web?rsvsvcid=S170717174907952559","","","2017-07-17 00:00:00.0","2020-08-31 00:00:00.0","2017-07-17 09:00:00.0","2020-06-30 12:00:00.0","중구"
"자체","S170717180209591958","교육","체험/견학","접수중","(주말)서울로 공감각 놀이","무료","서울역고가","가족","http://yeyak.seoul.go.kr/reservation/view.web?rsvsvcid=S170717180209591958","","","2017-07-17 00:00:00.0","2020-08-31 00:00:00.0","2017-07-17 09:00:00.0","2020-06-30 12:00:00.0","중구"
"자체","S171227130808917225","교육","체험/견학","접수종료","2020년 짚공예 체험(매주 일요일 14:00~16:00)","무료","남산골한옥마을","제한없음","http://yeyak.seoul.go.kr/reservation/view.web?rsvsvcid=S171227130808917225","37.559547763488105","126.9946805606533","2020-01-19 00:00:00.0","2020-12-13 00:00:00.0","2020-01-19 00:00:00.0","2020-12-13 23:00:00.0","중구"
"자체","S171228131308233929","교육","체험/견학","접수종료","2020년 목편  (매주 일요일 10:30~12:30)","무료","남산골한옥마을","제한없음","http://yeyak.seoul.go.kr/reservation/view.web?rsvsvcid=S171228131308233929","37.559547763488105","126.9946805606533","2020-01-19 00:00:00.0","2020-12-13 00:00:00.0","2020-01-19 00:00:00.0","2020-12-13 00:00:00.0","중구"
"자체","S171228132116414983","교육","체험/견학","접수종료","2020년 미니솟대만들기(  매주 토 14:00~16:00)","무료","남산골한옥마을","제한없음","http://yeyak.seoul.go.kr/reservation/view.web?rsvsvcid=S171228132116414983","37.559547763488105","126.9946805606533","2020-01-18 00:00:00.0","2020-12-12 00:00:00.0","2020-01-18 00:00:00.0","2020-12-12 00:00:00.0","중구"
"자체","S171228132554320397","교육","체험/견학","접수종료","2020년 미니장승만들기(매주 토 10:30~12:30)","무료","남산골한옥마을","제한없음","http://yeyak.seoul.go.kr/reservation/view.web?rsvsvcid=S171228132554320397","37.559547763488105","126.9946805606533","2020-01-18 00:00:00.0","2020-12-12 00:00:00.0","2020-01-18 00:00:00.0","2020-12-12 23:00:00.0","중구"
"자체","S200401155337212981","교육","체험/견학","접수중","'서울 중구 순례역사길' 역사탐방","무료","명동문화공원","제한없음","http://yeyak.seoul.go.kr/reservation/view.web?rsvsvcid=S200401155337212981","37.56467202644852","126.98690988733106","2020-05-27 00:00:00.0","2020-11-28 00:00:00.0","2020-05-27 09:00:00.0","2020-11-28 00:00:00.0","중구"
"자체","S200406000532945502","교육","교양","접수종료","2020년 상반기 시민조경아카데미 수강생 모집","유료","서울시청>후생동강당","성인(서울시민 누구나)","http://yeyak.seoul.go.kr/reservation/view.web?rsvsvcid=S200406000532945502","","","2020-04-07 00:00:00.0","2020-06-18 00:00:00.0","2020-04-13 09:00:00.0","2020-04-24 18:00:00.0","중구"
"자체","S200406094137494879","교육","체험/견학","접수중","일제식민지 흔적 '남산 기억로'를 걷다.","무료","서울시 중부공원녹지사업소","제한없음","http://yeyak.seoul.go.kr/reservation/view.web?rsvsvcid=S200406094137494879","37.555633694533235","126.99221818046783","2020-05-27 00:00:00.0","2020-11-28 00:00:00.0","2020-05-27 09:00:00.0","2020-11-28 00:00:00.0","중구"
"자체","S200406095346061015","교육","체험/견학","접수중","광희문 달빛로드 역사투어","무료","광희문","제한없음","http://yeyak.seoul.go.kr/reservation/view.web?rsvsvcid=S200406095346061015","","","2020-05-27 00:00:00.0","2020-11-30 00:00:00.0","2020-05-27 09:00:00.0","2020-11-30 02:00:00.0","중구"
"자체","S200406095757687113","교육","체험/견학","접수중","명동 역사문화 투어 도보탐방 프로그램","무료","명동문화공원","제한없음","http://yeyak.seoul.go.kr/reservation/view.web?rsvsvcid=S200406095757687113","37.56467202644852","126.98690988733106","2020-05-27 00:00:00.0","2020-11-28 00:00:00.0","2020-05-27 09:00:00.0","2020-11-28 00:00:00.0","중구"
"자체","S200406112423094358","교육","체험/견학","접수중","정동 한바퀴 도보탐방 프로그램","무료","정동극장","제한없음","http://yeyak.seoul.go.kr/reservation/view.web?rsvsvcid=S200406112423094358","37.5659346275","126.9728436419","2020-05-27 00:00:00.0","2020-11-28 00:00:00.0","2020-05-27 09:00:00.0","2020-11-28 00:00:00.0","중구"
"자체","S200406113130197194","교육","체험/견학","접수중","장충단 호국의길 도보탐방 프로그램","무료","장충단공원(수표교)","제한없음","http://yeyak.seoul.go.kr/reservation/view.web?rsvsvcid=S200406113130197194","37.558362104978066","127.00395216763103","2020-05-27 00:00:00.0","2020-11-28 00:00:00.0","2020-05-27 09:00:00.0","2020-11-28 00:00:00.0","중구"
"자체","S200414105144168406","교육","역사","접수중","2020 보고 듣고 느끼며 걷는 기억의 길 - 기억의터?기림비 연계해설프로그램","무료","기억의터","제한없음","http://yeyak.seoul.go.kr/reservation/view.web?rsvsvcid=S200414105144168406","37.5584915741","126.9910317782","2020-04-17 00:00:00.0","2020-12-31 00:00:00.0","2020-04-17 00:00:00.0","2020-12-29 00:00:00.0","중구"
"자체","S200428130749723423","교육","미술제작","접수종료","마이 컬렉션북 ","무료","서울시립미술관","제한없음","http://yeyak.seoul.go.kr/reservation/view.web?rsvsvcid=S200428130749723423","37.5641076011","126.9736999947","2020-04-28 00:00:00.0","2020-06-13 00:00:00.0","2020-05-13 00:00:00.0","2020-06-13 00:00:00.0","중구"
"자체","S200525132832759726","교육","미술제작","접수중","토크 Torque 토크 Talk","무료","서울시립미술관","제한없음","http://yeyak.seoul.go.kr/reservation/view.web?rsvsvcid=S200525132832759726","37.5641076011","126.9736999947","2020-05-25 00:00:00.0","2020-06-22 00:00:00.0","2020-05-27 00:00:00.0","2020-06-22 00:00:00.0","중구"
"자체","S200608092745803783","교육","자연/과학","접수중","응답하라! 랜선놀이 '공원'","무료","서울시 중부공원녹지사업소","제한없음","http://yeyak.seoul.go.kr/reservation/view.web?rsvsvcid=S200608092745803783","37.555633694533235","126.99221818046783","2020-06-08 00:00:00.0","2020-06-12 00:00:00.0","2020-06-08 10:00:00.0","2020-06-12 08:00:00.0","중구"
"자체","S200610094312926587","교육","체험/견학","접수중","한양도성 남산구간","무료","광희문","제한없음","http://yeyak.seoul.go.kr/reservation/view.web?rsvsvcid=S200610094312926587","","","2020-06-10 00:00:00.0","2020-11-30 00:00:00.0","2020-06-10 09:00:00.0","2020-11-30 00:00:00.0","중구"