"일련번호","SPO 일자","SPO 표지","등록일시","수정일시"
"149","202004","http://www.seoulphil.or.kr/upload/spo/20200325_44fbb192966b63f083fb6b51100000f7.PNG","2020-03-25 10:02:55.0","2020-03-25 10:09:01.0"
"148","202003","http://www.seoulphil.or.kr/upload/spo/20200228_3bcccf75a4f246a883fb6b51100000f7.PNG","2020-02-28 15:01:30.0","2020-02-28 15:15:10.0"
"147","202002","http://www.seoulphil.or.kr/upload/spo/20200128_a4841072e25b6b9e6910df06100000f7.PNG","2020-01-28 10:14:23.0","2020-01-28 10:35:32.0"
"146","202001","http://www.seoulphil.or.kr/upload/spo/20191230_8672eafab29e2a45dfde4da7100000f7.PNG","2019-12-30 11:29:19.0","2019-12-30 11:36:48.0"
"145","201912","http://www.seoulphil.or.kr/upload/spo/20191125_6e257efcddafac1a35caa6f0100000f7.PNG","2019-11-25 17:55:25.0","2019-11-25 18:05:33.0"
"144","201911","http://www.seoulphil.or.kr/upload/spo/20191029_353ee15dc79dff417c37bb54100000f7.PNG","2019-10-29 09:50:50.0","2019-10-29 10:00:47.0"
"143","201910","http://www.seoulphil.or.kr/upload/spo/20190930_0a4d3850a6a469f7309aa832100000f7.PNG","2019-09-30 09:33:38.0","2019-09-30 09:41:11.0"
"142","201909","http://www.seoulphil.or.kr/upload/spo/20190827_6ac8e7ddd8c6f12d7d3bc8b7100000f7.PNG","2019-08-27 17:09:30.0","2019-08-27 17:26:43.0"
"141","201908","http://www.seoulphil.or.kr/upload/spo/20190725_a4109d50212d8382e98e3ac0100000f7.PNG","2019-07-25 17:21:47.0","2019-07-25 17:38:11.0"
"140","201907","http://www.seoulphil.or.kr/upload/spo/20190625_0d4e79fbdcfe4dc80f961352100000f7.PNG","2019-06-25 13:11:34.0","2019-06-25 13:21:31.0"
"139","201906","http://www.seoulphil.or.kr/upload/spo/20190529_2c3b405244d70c20d005a9c4100000f7.PNG","2019-05-29 17:41:37.0","2019-05-29 17:56:59.0"
"138","201905","http://www.seoulphil.or.kr/upload/spo/20190430_b102d423cb2d5bb614300c74100000f7.PNG","2019-04-30 09:47:19.0","2019-04-30 10:00:53.0"
"137","201904","http://www.seoulphil.or.kr/upload/spo/20190326_d4f6ba89ff49129b8092f231100000f7.PNG","2019-03-26 17:32:59.0","2019-03-26 17:42:58.0"
"136","201903","http://www.seoulphil.or.kr/upload/spo/20190227_c4fdf1a3d22044e2a606d5e2100000f7.PNG","2019-02-27 18:16:41.0","2019-02-28 11:01:46.0"
"135","201902","http://www.seoulphil.or.kr/upload/spo/20190130_e2de01201dc790d911bdd282100000f7.PNG","2019-01-30 13:34:31.0","2019-01-30 13:46:42.0"
"134","201901","http://www.seoulphil.or.kr/upload/spo/20181227_be1b5f2ecccbc6dedc17d265100000f7.PNG","2018-12-27 11:07:40.0","2019-01-30 13:36:35.0"
"133","201812","http://www.seoulphil.or.kr/upload/spo/20181127_61844d6f4638734572e28296100000f7.PNG","2018-11-27 17:03:12.0","2018-11-27 17:29:15.0"
"132","201811","http://www.seoulphil.or.kr/upload/spo/20181101_61840f29fd1dabcc14856f47100000f7.PNG","2018-11-01 09:38:08.0","2018-11-01 17:50:17.0"
"131","201810","http://www.seoulphil.or.kr/upload/spo/20180927_477dcd4a3f0b7b91299bad41100000f7.PNG","2018-09-27 15:29:20.0","2018-10-02 17:30:50.0"
"130","201809","http://www.seoulphil.or.kr/upload/spo/20180829_8e7a19fa9f4a8638264a0eb0100000f7.PNG","2018-08-29 10:59:57.0","2018-08-29 11:04:08.0"
"129","201808","http://www.seoulphil.or.kr/upload/spo/20180725_6b5f9757c258600d1f910436100000f7.PNG","2018-07-25 15:00:45.0","2018-07-25 15:00:54.0"
"128","201807","http://www.seoulphil.or.kr/upload/spo/20180627_b087d3207c6f4de3c37c4793100000f7.PNG","2018-06-27 10:21:41.0","2018-07-04 09:51:07.0"
"127","201806","http://www.seoulphil.or.kr/upload/spo/20180530_4865afaf889b84fa4bde04f4100000f7.PNG","2018-05-30 13:22:44.0",""
"126","201805","http://www.seoulphil.or.kr/upload/spo/20180502_d08d96632df197e15a3a0426100000f7.jpg","2018-05-02 10:30:47.0",""
"125","201804","http://www.seoulphil.or.kr/upload/spo/20180402_141ef66f49e0c05834dc29e0100000f7.jpg","2018-04-02 15:07:12.0","2018-04-02 15:29:45.0"
"124","201803","http://www.seoulphil.or.kr/upload/spo/20180223_4f8cf932948ade1c152565d5100000f7.jpg","2018-02-23 18:10:32.0",""
"123","201802","http://www.seoulphil.or.kr/upload/spo/20180122_200a4db1e53a21d1c35057d1100000f7.jpg","2018-01-22 17:53:33.0",""
"122","201801","http://www.seoulphil.or.kr/upload/spo/20171222_55237c14e42aa3d79bab88f6100000f7.jpg","2017-12-22 16:57:59.0","2017-12-22 17:01:17.0"
"121","201712","http://www.seoulphil.or.kr/upload/spo/20171122_aac2de566f73ff1e9bab88f6100000f7.jpg","2017-11-22 13:31:59.0","2017-11-22 13:36:20.0"
"120","201711","http://www.seoulphil.or.kr/upload/spo/20171026_c1fcc265cfa0b285e4428ad2100000f7.jpg","2017-10-26 19:12:16.0","2017-10-26 19:26:01.0"
"119","201710","http://www.seoulphil.or.kr/upload/spo/20170929_549029513e29d6bce03f81c4100000f7.jpg","2017-09-29 11:18:29.0",""
"118","201709","http://www.seoulphil.or.kr/upload/spo/20170825_0ff4e5af2fb74b81e03f81c4100000f7.jpg","2017-08-25 18:06:57.0","2017-08-25 18:23:54.0"
"117","201708","http://www.seoulphil.or.kr/upload/spo/20170726_d09e1b3aa90a77e77aa9b786100000f7.jpg","2017-07-26 19:13:28.0","2017-07-26 19:35:55.0"
"116","201707","http://www.seoulphil.or.kr/upload/spo/20170628_43c4c55808571edeff5dc156100000f7.jpg","2017-06-28 17:45:45.0","2017-06-28 17:48:28.0"
"115","201706","http://www.seoulphil.or.kr/upload/spo/20170530_a247a29f2f6b017585baeaa2100000f7.jpg","2017-05-30 10:55:32.0","2017-05-30 10:57:51.0"
"114","201705","http://www.seoulphil.or.kr/upload/spo/20170515_9bddabcf527e6aa085baeaa2100000f7.jpg","2017-05-15 14:48:49.0","2017-05-15 14:54:04.0"
"113","201704","http://www.seoulphil.or.kr/upload/spo/20170322_f88b38f6fc92de4fe3dd7681100000f7.jpg","2017-03-22 16:31:11.0","2017-03-22 16:32:04.0"
"112","201703","http://www.seoulphil.or.kr/upload/spo/20170228_ab6ca880cd452228c1f64225100000f7.jpg","2017-02-28 09:20:50.0","2017-02-28 09:34:31.0"
"111","201702","http://www.seoulphil.or.kr/upload/spo/20181206_597b8ea38dbc102832c475d5100000f7.PNG","2017-01-25 09:50:02.0","2018-12-06 14:33:34.0"
"110","201701","http://www.seoulphil.or.kr/upload/spo/20181206_8c623a8bf439102832c475d5100000f7.PNG","2016-12-26 15:03:22.0","2018-12-06 14:33:20.0"
"109","201612","http://www.seoulphil.or.kr/upload/spo/20181206_d8cb464e5ea2102832c475d5100000f7.PNG","2016-12-07 10:22:27.0","2018-12-06 14:32:53.0"
"106","201611","","2016-10-28 16:31:31.0",""
"108","201611","http://www.seoulphil.or.kr/upload/spo/20181206_87f31ddb7f6f002832c475d5100000f7.PNG","2016-10-28 16:43:24.0","2018-12-06 14:32:40.0"
"105","201611","http://www.seoulphil.or.kr/upload/spo/20161028_e4f1a978aad923a09d0911f2100000f7.jpg","2016-10-28 16:30:38.0","2016-10-28 16:31:04.0"
"104","201610","http://www.seoulphil.or.kr/upload/spo/20181206_1509a438de0b002832c475d5100000f7.PNG","2016-09-29 15:27:31.0","2018-12-06 14:32:22.0"
"103","201609","http://www.seoulphil.or.kr/upload/spo/20181206_a182735b7817002832c475d5100000f7.PNG","2016-09-01 18:43:27.0","2018-12-06 14:32:05.0"
"102","201608","http://www.seoulphil.or.kr/upload/spo/20181206_72ae9d0ad60eff1832c475d5100000f7.PNG","2016-08-19 13:09:08.0","2018-12-06 14:31:28.0"
"101","201607","http://www.seoulphil.or.kr/upload/spo/20181206_f8769dc2f8f8ff1832c475d5100000f7.PNG","2016-07-04 15:57:28.0","2018-12-06 14:31:08.0"
"100","201606","http://www.seoulphil.or.kr/upload/spo/20181206_d865572343d5ef1832c475d5100000f7.PNG","2016-05-30 15:56:16.0","2018-12-06 14:29:49.0"
"99","201605","http://www.seoulphil.or.kr/upload/spo/20160429_3c9191e21fa81b1648c58ed7100000f7.jpg","2016-04-29 20:05:05.0","2018-12-06 14:29:35.0"
"98","201604","http://www.seoulphil.or.kr/upload/spo/20181206_d59c701d2febdf1832c475d5100000f7.PNG","2016-04-01 22:24:56.0","2018-12-06 14:29:09.0"
"97","201603","http://www.seoulphil.or.kr/upload/spo/20181206_f2c640e2a798df1832c475d5100000f7.PNG","2016-02-24 11:50:05.0","2018-12-06 14:28:55.0"
"96","201602","http://www.seoulphil.or.kr/upload/spo/20181206_67a8b389333ecf1832c475d5100000f7.PNG","2016-02-01 17:58:11.0","2018-12-06 14:28:12.0"
"107","201601","","2016-10-28 16:32:06.0",""
"95","201601","http://www.seoulphil.or.kr/upload/spo/20181206_bd7148ef1ef9cf1832c475d5100000f7.PNG","2016-01-05 15:32:21.0","2018-12-06 14:27:55.0"
"94","201512","http://www.seoulphil.or.kr/upload/spo/20181206_30ac98f82b4faf1832c475d5100000f7.PNG","2015-12-01 00:56:31.0","2018-12-06 14:26:06.0"
"93","201511","http://www.seoulphil.or.kr/upload/spo/20181206_65139ad5732baf1832c475d5100000f7.PNG","2015-11-13 18:41:34.0","2018-12-06 14:25:49.0"
"92","201510","http://www.seoulphil.or.kr/upload/spo/20181206_5756fcbd1c87af1832c475d5100000f7.PNG","2015-09-24 11:22:59.0","2018-12-07 11:22:32.0"
"91","201509","http://www.seoulphil.or.kr/upload/spo/20181206_fe4c033cae73af1832c475d5100000f7.PNG","2015-08-28 18:07:18.0","2018-12-07 11:21:59.0"
"90","201508","http://www.seoulphil.or.kr/upload/spo/20181206_3497e5eb4f3c9f1832c475d5100000f7.PNG","2015-07-29 11:57:58.0","2018-12-07 11:20:52.0"
"89","201507","http://www.seoulphil.or.kr/upload/spo/20181206_5ba345d643c89f1832c475d5100000f7.PNG","2015-07-03 18:40:02.0","2018-12-07 11:19:35.0"
"88","201506","http://www.seoulphil.or.kr/upload/spo/20181206_bf32e9674a129f1832c475d5100000f7.PNG","2015-06-02 11:23:18.0","2018-12-06 14:24:06.0"
"87","201505","http://www.seoulphil.or.kr/upload/spo/20181206_4bfc7d7e6ecc8f1832c475d5100000f7.PNG","2015-05-04 10:36:54.0","2018-12-06 14:23:45.0"
"86","201504","http://www.seoulphil.or.kr/upload/spo/20181206_f4b9c4e480078f1832c475d5100000f7.PNG","2015-04-02 16:49:48.0","2018-12-07 11:16:53.0"
"85","201503","http://www.seoulphil.or.kr/upload/spo/20181206_43297032f3918f1832c475d5100000f7.PNG","2015-02-25 16:49:07.0","2018-12-07 11:13:44.0"
"84","201502","http://www.seoulphil.or.kr/upload/spo/20181206_8359808d01fb7f1832c475d5100000f7.PNG","2015-01-27 11:33:49.0","2018-12-07 11:11:20.0"
"83","201501","http://www.seoulphil.or.kr/upload/spo/20181206_eb5e22ed50057f1832c475d5100000f7.PNG","2014-12-31 10:38:42.0","2018-12-07 11:10:21.0"
"80","201412","","2014-12-05 16:52:28.0",""
"81","201412","http://www.seoulphil.or.kr/upload/spo/20181206_85cf38cfb5c96f1832c475d5100000f7.PNG","2014-12-05 16:57:21.0","2018-12-07 11:02:05.0"
"82","201412","http://www.seoulphil.or.kr/upload/spo/20141205_1f37b17742718791b1587754a75d04c4.jpg","2014-12-05 17:01:28.0","2018-12-07 11:07:09.0"
"79","201411","http://www.seoulphil.or.kr/upload/spo/20181207_5718aba7483d7668c499fc74100000f7.PNG","2014-10-31 09:59:04.0","2018-12-07 11:03:30.0"
"78","201410","http://www.seoulphil.or.kr/upload/spo/20181206_82dc97d4081d5f1832c475d5100000f7.PNG","2014-10-17 17:23:54.0","2018-12-06 14:20:29.0"
"77","201409","http://www.seoulphil.or.kr/upload/spo/20181206_614a5bf1efc65f1832c475d5100000f7.PNG","2014-08-27 11:08:06.0","2018-12-07 10:38:38.0"
"76","201408","http://www.seoulphil.or.kr/upload/spo/20181206_f2a73a96225b4f1832c475d5100000f7.PNG","2014-08-05 11:34:13.0","2018-12-06 14:19:16.0"
"75","201407","http://www.seoulphil.or.kr/upload/spo/20181206_b562f8dfdeb14f1832c475d5100000f7.PNG","2014-07-02 16:01:15.0","2018-12-06 14:18:37.0"
"74","201406","http://www.seoulphil.or.kr/upload/spo/20181206_ec6a2e7e8d623f1832c475d5100000f7.PNG","2014-06-02 15:09:17.0","2018-12-06 14:17:34.0"
"73","201405","http://www.seoulphil.or.kr/upload/spo/20181206_b7be6813fba82f1832c475d5100000f7.PNG","2014-05-14 16:38:02.0","2018-12-06 14:16:54.0"
"72","201404","http://www.seoulphil.or.kr/upload/spo/20181206_3d527303d5722f1832c475d5100000f7.PNG","2014-04-04 15:23:34.0","2018-12-06 14:16:29.0"
"71","201403","http://www.seoulphil.or.kr/upload/spo/20181206_21992697b27c1f1832c475d5100000f7.PNG","2014-03-14 10:38:40.0","2018-12-06 14:16:04.0"
"70","201402","http://www.seoulphil.or.kr/upload/spo/20181206_16cdbef5b9161f1832c475d5100000f7.PNG","2014-02-04 14:54:17.0","2018-12-06 14:15:38.0"
"69","201401","http://www.seoulphil.or.kr/upload/spo/20181206_bf9fe65ce8200f1832c475d5100000f7.PNG","2014-01-23 16:01:57.0","2018-12-06 14:14:08.0"
"68","201312","http://www.seoulphil.or.kr/upload/spo/20181206_532b873d8588fe1832c475d5100000f7.PNG","2013-12-13 17:05:01.0","2018-12-06 14:13:37.0"
"67","201311","http://www.seoulphil.or.kr/upload/spo/20181206_227775ab40c1fe1832c475d5100000f7.PNG","2013-11-27 15:57:58.0","2018-12-06 14:13:09.0"
"66","201310","http://www.seoulphil.or.kr/upload/spo/20181206_4305db734fa3ee1832c475d5100000f7.PNG","2013-10-17 14:34:21.0","2018-12-07 10:29:27.0"
"65","201310","http://www.seoulphil.or.kr/upload/spo/20131017_f817c23b4c3db25c85786c10c5b2a7ed.JPG","2013-10-17 14:29:04.0","2013-10-17 14:30:42.0"
"63","201309","http://www.seoulphil.or.kr/upload/spo/20130924_a7051dcf055374f4ec80ce10c5b2a7ed.JPG","2013-09-24 17:04:33.0","2013-09-24 17:06:40.0"
"64","201309","http://www.seoulphil.or.kr/upload/spo/20181206_b2c33b8f6dd8de1832c475d5100000f7.PNG","2013-09-25 09:43:01.0","2018-12-06 14:11:28.0"
"62","201308","http://www.seoulphil.or.kr/upload/spo/20181206_571554e6b05dce1832c475d5100000f7.PNG","2013-08-30 14:07:43.0","2018-12-07 10:25:01.0"
"61","201307","http://www.seoulphil.or.kr/upload/spo/20130705_a10236f75ccaff7bca272bb8c5b2a7ed.jpg","2013-07-05 10:29:30.0",""
"60","201306","http://www.seoulphil.or.kr/upload/spo/20130614_a5777a7fffe0a86914e92334c5b2a7ed.jpg","2013-06-14 15:14:22.0","2013-07-01 17:24:26.0"
"59","201305","http://www.seoulphil.or.kr/upload/spo/20130507_dab4f87323516a7bc7bc178fc5b2a7ed.png","2013-05-07 09:46:32.0","2013-05-07 09:48:27.0"
"58","201305","http://www.seoulphil.or.kr/upload/spo/20130506_e127c71bceb678f197bc178fc5b2a7ed.png","2013-05-06 17:01:33.0","2013-05-06 18:20:57.0"
"56","201304","http://www.seoulphil.or.kr/upload/spo/","2013-04-19 14:28:42.0","2013-04-19 15:11:50.0"
"57","201304","http://www.seoulphil.or.kr/upload/spo/20130419_6751f9973e547755128170bac5b2a7ed.jpg","2013-04-19 15:54:18.0","2013-05-06 17:04:53.0"
"55","201304","http://www.seoulphil.or.kr/upload/spo/20130418_892bf98f591cf46ec18170bac5b2a7ed.jpg","2013-04-18 19:14:27.0","2013-04-18 19:14:46.0"
"54","201303","http://www.seoulphil.or.kr/upload/spo/20130320_ec20013d3099137877614d10c5b2a7ed.jpg","2013-03-20 17:30:39.0","2013-03-20 17:55:25.0"
"53","201302","http://www.seoulphil.or.kr/upload/spo/20130204_701a96879f4d023a95939210c5b2a7ed.jpg","2013-02-04 10:37:37.0","2013-02-04 10:50:21.0"
"52","201301","http://www.seoulphil.or.kr/upload/spo/20130102_aacd767b153fd694af14a6a8c5b2a7ed.jpg","2013-01-02 15:53:51.0","2013-01-03 09:22:12.0"
"51","201212","http://www.seoulphil.or.kr/upload/spo/20130102_c3538606adf40484af14a6a8c5b2a7ed.jpg","2012-12-14 16:22:18.0","2013-01-03 09:10:33.0"
"50","201211","http://www.seoulphil.or.kr/upload/spo/20121106_bbf7a8ccbb708f3d9d4ba710c5b2a7ed.jpg","2012-11-06 12:18:05.0","2012-11-15 13:15:25.0"
"49","201210","http://www.seoulphil.or.kr/upload/spo/20121106_74205a0825477f3d9d4ba710c5b2a7ed.jpg","2012-11-06 12:17:27.0","2012-11-15 13:11:30.0"
"48","201209","http://www.seoulphil.or.kr/upload/spo/20120831_1704fd35979797a7c1c8e310878d012d.png","2012-08-31 11:19:05.0","2012-11-15 20:14:45.0"
"40","201208","http://www.seoulphil.or.kr/upload/spo/2012080817004200542_0.jpg","2012-08-08 15:55:41.0",""
"47","201208","http://www.seoulphil.or.kr/upload/spo/20120831_34871389a579e5a7c1c8e310878d012d.png","2012-08-31 10:47:47.0","2012-11-15 20:18:14.0"
"39","201207","http://www.seoulphil.or.kr/upload/spo/2012070515373400146_0.jpg","2012-07-05 14:33:36.0",""
"46","201207","http://www.seoulphil.or.kr/upload/spo/20120831_562e0c7ed0f6e5a7c1c8e310878d012d.png","2012-08-31 10:43:19.0","2012-12-05 17:05:45.0"
"45","201206","http://www.seoulphil.or.kr/upload/spo/20120831_d2eec9297525e5a7c1c8e310878d012d.png","2012-08-31 10:38:19.0","2012-09-26 15:05:06.0"
"38","201206","http://www.seoulphil.or.kr/upload/spo/2012061416093400443_0.jpg","2012-06-14 15:06:13.0","2012-06-14 15:45:03.0"
"44","201205","http://www.seoulphil.or.kr/upload/spo/20120831_6bde75e131e2e5a7c1c8e310878d012d.png","2012-08-31 10:33:28.0","2012-09-26 15:04:34.0"
"37","201205","http://www.seoulphil.or.kr/upload/spo/2012051816150300685_0.jpg","2012-05-18 15:12:30.0",""
"36","201204","http://www.seoulphil.or.kr/upload/spo/2012040613091600485_0.jpg","2012-04-06 12:07:59.0",""
"43","201204","http://www.seoulphil.or.kr/upload/spo/20120831_5ca5ddd70990e5a7c1c8e310878d012d.png","2012-08-31 10:14:24.0","2012-09-26 15:03:52.0"
"35","201204","http://www.seoulphil.or.kr/upload/spo/2012040609505100705_0.jpg","2012-04-06 08:49:35.0",""
"34","201204","http://www.seoulphil.or.kr/upload/spo/2012040515590900450_0.jpg","2012-04-05 14:57:54.0","2012-04-05 14:58:01.0"
"42","201203","http://www.seoulphil.or.kr/upload/spo/20120831_65091c44657ed5a7c1c8e310878d012d.png","2012-08-31 10:09:18.0","2012-09-26 15:03:04.0"
"41","201202","http://www.seoulphil.or.kr/upload/spo/20120831_26a3e306af3cd5a7c1c8e310878d012d.png","2012-08-31 10:05:40.0","2012-09-26 15:02:00.0"
"6","201201","http://www.seoulphil.or.kr/upload/spo/20120831_3cee2fa4204ad5a7c1c8e310878d012d.png","2009-11-02 20:17:35.0","2012-09-26 15:01:18.0"
"33","201111","http://www.seoulphil.or.kr/upload/spo/2011111814181100342_0.jpg","2011-11-18 13:21:11.0","2011-11-18 15:52:44.0"
"32","201110","http://www.seoulphil.or.kr/upload/spo/2011101121205400428_0.jpg","2011-10-11 20:24:26.0","2011-10-11 20:25:05.0"
"30","201108","http://www.seoulphil.or.kr/upload/spo/2011080821170900896_0.jpg","2011-08-08 20:23:14.0","2011-08-08 20:54:09.0"
"31","201108","http://www.seoulphil.or.kr/upload/spo/2011101118384300787_0.jpg","2011-10-11 17:42:54.0",""
"29","201107","http://www.seoulphil.or.kr/upload/spo/2011070520220300645_0.jpg","2011-07-05 19:29:11.0",""
"28","201106","http://www.seoulphil.or.kr/upload/spo/2011060720003900631_0.jpg","2011-06-07 19:07:54.0",""
"27","201105","http://www.seoulphil.or.kr/upload/spo/2011053016581800358_0.jpg","2011-05-30 16:05:52.0",""
"26","201104","http://www.seoulphil.or.kr/upload/spo/2011040520125600458_0.jpg","2011-04-05 19:22:40.0",""
"25","201103","http://www.seoulphil.or.kr/upload/spo/2011030420173800655_0.jpg","2011-03-04 19:26:05.0",""
"24","201102","http://www.seoulphil.or.kr/upload/spo/2011013116061100323_0.jpg","2011-01-31 15:15:45.0","2011-01-31 15:15:56.0"
"23","201101","http://www.seoulphil.or.kr/upload/spo/2011010417583000545_0.jpg","2011-01-04 17:09:01.0",""
"22","201012","http://www.seoulphil.or.kr/upload/spo/2010120318585000350_0.jpg","2010-12-03 18:10:28.0",""
"21","201011","http://www.seoulphil.or.kr/upload/spo/2010110218075300190_0.jpg","2010-11-02 17:20:36.0",""
"20","201010","http://www.seoulphil.or.kr/upload/spo/2010100418190100473_0.jpg","2010-10-04 17:32:45.0",""
"19","201009","http://www.seoulphil.or.kr/upload/spo/2010090718060700773_0.jpg","2010-09-07 17:20:47.0",""
"18","201008","http://www.seoulphil.or.kr/upload/spo/2010080523211600882_0.jpg","2010-08-05 22:37:04.0",""
"15","201007","http://www.seoulphil.or.kr/upload/spo/2010070720390500094_0.jpg","2010-07-07 19:20:54.0","2010-07-07 20:15:11.0"
"17","201007","http://www.seoulphil.or.kr/upload/spo/2010070721282600173_0.jpg","2010-07-07 20:45:13.0",""
"16","201006","http://www.seoulphil.or.kr/upload/spo/2010070720573600118_0.jpg","2010-07-07 20:14:23.0","2010-07-07 20:44:20.0"
"14","201005","http://www.seoulphil.or.kr/upload/spo/2010050716060100953_0.jpg","2010-05-07 15:24:54.0",""
"13","201004","http://www.seoulphil.or.kr/upload/spo/2010040921410400349_0.jpg","2010-04-09 21:00:53.0",""
"12","201003","http://www.seoulphil.or.kr/upload/spo/2010030520551100934_0.jpg","2010-03-05 20:16:12.0",""
"10","201002","http://www.seoulphil.or.kr/upload/spo/2010020516361300938_0.jpg","2010-02-05 15:58:12.0","2010-02-05 16:12:55.0"
"11","201002","http://www.seoulphil.or.kr/upload/spo/2010020516575300622_0.jpg","2010-02-05 16:19:52.0","2010-02-05 16:35:17.0"
"9","201001","http://www.seoulphil.or.kr/upload/spo/2010010721400700855_0.jpg","2010-01-07 21:03:05.0",""
"8","200912","http://www.seoulphil.or.kr/upload/spo/2009120214571300066_0.jpg","2009-12-02 14:21:25.0","2009-12-02 16:39:53.0"
"5","200911","http://www.seoulphil.or.kr/upload/spo/2009110220460000839_0.jpg","2009-11-02 20:06:05.0","2009-11-02 20:11:14.0"
"7","200911","http://www.seoulphil.or.kr/upload/spo/2009110220523200192_0.jpg","2009-11-02 20:17:46.0",""
"4","200910","http://www.seoulphil.or.kr/upload/spo/2009101513160100285_0.jpg","2009-10-15 12:41:53.0","2009-10-21 21:51:52.0"
"3","200906","http://www.seoulphil.or.kr/upload/spo/","2009-06-04 15:24:17.0",""
"2","200905","http://www.seoulphil.or.kr/upload/spo/2009052718112300109_0.jpg","2009-05-27 17:38:40.0","2009-05-27 17:41:26.0"
"1","200904","http://www.seoulphil.or.kr/upload/spo/2009051820354000031_0.jpg","2009-05-18 20:06:06.0","2009-05-27 17:15:58.0"