"서비스구분","서비스ID","대분류명","소분류명","서비스상태","서비스명","결제방법","장소명","서비스대상","바로가기URL","장소X좌표","장소Y좌표","서비스개시시작일시","서비스개시종료일시","접수시작일시","접수종료일시","지역명"
"자체","S200109103456588169","시설대관","다목적실","접수중","2020 동대문구 용두청소년독서실(7층 다목적실)","유료","동대문구 용두 청소년 독서실","제한없음","http://yeyak.seoul.go.kr/reservation/view.web?rsvsvcid=S200109103456588169","37.578605624809434","127.02963795909291","2020-01-09 00:00:00.0","2020-12-31 00:00:00.0","2020-01-09 09:00:00.0","2020-12-31 18:00:00.0","동대문구"
"자체","S191230164140346873","시설대관","다목적실","예약일시중지","2020 동대문구 답십리2동 청소년독서실(지층 다목적실)","유료(요금안내문의)","답십리2동청소년독서실","제한없음","http://yeyak.seoul.go.kr/reservation/view.web?rsvsvcid=S191230164140346873","37.57208197285036","127.05947903061778","2019-12-30 00:00:00.0","2020-12-31 00:00:00.0","2019-12-30 00:00:00.0","2020-12-30 18:00:00.0","동대문구"
"자체","S200103113431005845","시설대관","회의실","예약일시중지","2020 동대문구 답십리1동 주민센터 (5층 다목적강당)","유료","동대문구 답십리1동 자치회관","제한없음","http://yeyak.seoul.go.kr/reservation/view.web?rsvsvcid=S200103113431005845","37.569765360117536","127.05010464185966","2020-01-03 00:00:00.0","2020-12-31 00:00:00.0","2020-01-03 00:00:00.0","2020-12-24 00:00:00.0","동대문구"
"자체","S191219173410906713","시설대관","다목적실","접수중","2020 동대문구 휘경1동주민센터 창작실(4층)","유료","휘경1동주민센터","제한없음","http://yeyak.seoul.go.kr/reservation/view.web?rsvsvcid=S191219173410906713","37.59291322696283","127.0657323171316","2019-12-19 00:00:00.0","2020-12-31 00:00:00.0","2019-12-19 09:00:00.0","2020-12-31 18:00:00.0","동대문구"
"자체","S191219175455571261","시설대관","강당","접수중","2020 동대문구 휘경1동 주민센터(4층 강당)","유료","휘경1동주민센터","제한없음","http://yeyak.seoul.go.kr/reservation/view.web?rsvsvcid=S191219175455571261","37.59291322696283","127.0657323171316","2019-12-19 00:00:00.0","2020-12-31 00:00:00.0","2019-12-19 09:00:00.0","2020-12-31 18:00:00.0","동대문구"
"자체","S200204101815545006","시설대관","기타","접수종료","2020 동대문구 휘경1동 북카페(새싹마루 작은도서관)","무료","휘경1동주민센터","제한없음","http://yeyak.seoul.go.kr/reservation/view.web?rsvsvcid=S200204101815545006","37.59291322696283","127.0657323171316","2020-02-04 00:00:00.0","2020-12-31 00:00:00.0","2020-02-04 09:00:00.0","2020-02-04 18:00:00.0","동대문구"
"자체","S191230110854555223","시설대관","회의실","접수중","2020 동대문구 배봉꿈마루독서실 (북까페)","유료(요금안내문의)","동대문구 배봉꿈마루청소년독서실","제한없음","http://yeyak.seoul.go.kr/reservation/view.web?rsvsvcid=S191230110854555223","37.578454753","127.0575686175","2019-12-31 00:00:00.0","2020-12-31 00:00:00.0","2019-12-30 00:00:00.0","2020-12-31 00:18:00.0","동대문구"
"자체","S191230111727065467","시설대관","회의실","접수중","2020 동대문구 배봉꿈마루독서실 (지하 세미나실)","유료(요금안내문의)","동대문구 배봉꿈마루청소년독서실","제한없음","http://yeyak.seoul.go.kr/reservation/view.web?rsvsvcid=S191230111727065467","37.578454753","127.0575686175","2019-12-31 00:00:00.0","2020-12-31 00:00:00.0","2019-12-31 00:00:00.0","2020-12-31 00:00:00.0","동대문구"
"자체","S191230113604450243","시설대관","강의실","접수중","2020 동대문구 배봉꿈마루청소년독서실(지하 강의실)","유료(요금안내문의)","동대문구 배봉꿈마루청소년독서실","제한없음","http://yeyak.seoul.go.kr/reservation/view.web?rsvsvcid=S191230113604450243","37.578454753","127.0575686175","2019-12-31 00:00:00.0","2020-12-31 00:00:00.0","2019-12-31 00:00:00.0","2020-12-31 18:00:00.0","동대문구"
"자체","S200109094825869762","시설대관","기타","접수중","2020 동대문구 구민체육센터 (대체육관)","유료(요금안내문의)","동대문구시설관리공단 구민체육센터(대체육관)","제한없음","http://yeyak.seoul.go.kr/reservation/view.web?rsvsvcid=S200109094825869762","37.56653116900712","127.07347396908028","2020-01-09 00:00:00.0","2021-12-31 00:00:00.0","2020-01-09 09:00:00.0","2020-12-31 18:00:00.0","동대문구"
"자체","S200109093944858605","시설대관","기타","접수중","2020 동대문구 체육관[대체육관]","유료(요금안내문의)","동대문구 체육관(대체육관)","제한없음","http://yeyak.seoul.go.kr/reservation/view.web?rsvsvcid=S200109093944858605","37.57228866489582","127.06395281242548","2020-01-09 00:00:00.0","2020-12-31 00:00:00.0","2020-01-09 09:00:00.0","2020-12-31 18:00:00.0","동대문구"
"자체","S200109104340970289","시설대관","기타","접수중","2020 동대문구 동대문청소년독서실(동아리방)","유료(요금안내문의)","동대문구 장안동 청소년 독서실 ","제한없음","http://yeyak.seoul.go.kr/reservation/view.web?rsvsvcid=S200109104340970289","37.57716448134166","127.07090331461401","2020-01-09 00:00:00.0","2020-12-31 00:00:00.0","2020-01-09 09:00:00.0","2020-12-31 18:00:00.0","동대문구"
"자체","S200109191917048857","시설대관","회의실","접수중","2020 동대문구 이문1동 주민센터(3층 회의실)","유료(요금안내문의)","동대문구 이문1동 주민센터","제한없음","http://yeyak.seoul.go.kr/reservation/view.web?rsvsvcid=S200109191917048857","37.597814758695016","127.0654829768473","2020-01-02 00:00:00.0","2020-12-31 00:00:00.0","2020-01-02 09:00:00.0","2020-12-31 18:00:00.0","동대문구"
"자체","S200109210240741520","시설대관","강의실","접수중","2020 동대문구 이문1동 주민센터(3층 프로그램실)","유료(요금안내문의)","동대문구 이문1동 주민센터","제한없음","http://yeyak.seoul.go.kr/reservation/view.web?rsvsvcid=S200109210240741520","37.597814758695016","127.0654829768473","2020-01-02 00:00:00.0","2020-12-31 00:00:00.0","2020-01-02 09:00:00.0","2020-12-31 18:00:00.0","동대문구"
"자체","S200109211044527991","시설대관","강당","접수중","2020 동대문구 이문1동 주민센터(4층 다목적강당)","유료(요금안내문의)","동대문구 이문1동 주민센터","제한없음","http://yeyak.seoul.go.kr/reservation/view.web?rsvsvcid=S200109211044527991","37.597814758695016","127.0654829768473","2020-01-02 00:00:00.0","2020-12-31 00:00:00.0","2020-01-02 09:00:00.0","2020-12-31 18:00:00.0","동대문구"
"자체","S200109102049105697","시설대관","주민사랑방","접수중","2020 동대문구 정보화도서관(사랑방)","유료","동대문구정보화도서관(사랑방)","제한없음","http://yeyak.seoul.go.kr/reservation/view.web?rsvsvcid=S200109102049105697","37.58997040774298","127.0472875435033","2020-01-09 00:00:00.0","2020-12-31 00:00:00.0","2020-01-09 09:00:00.0","2020-12-31 18:00:00.0","동대문구"
"자체","S200109101509130117","시설대관","강의실","접수중","2020 동대문구 정보화도서관(세미나실)","유료","정보화도서관(세미나실)","제한없음","http://yeyak.seoul.go.kr/reservation/view.web?rsvsvcid=S200109101509130117","37.58997040592847","127.04729207252624","2020-01-09 00:00:00.0","2020-12-31 00:00:00.0","2020-01-09 09:00:00.0","2020-12-31 18:00:00.0","동대문구"
"자체","S191230173807205122","시설대관","강당","접수중","2020 구립 동대문장애인종합복지관(10층 다목적강당)","유료(요금안내문의)","구립 동대문장애인종합복지관","제한없음","http://yeyak.seoul.go.kr/reservation/view.web?rsvsvcid=S191230173807205122","37.571814540785105","127.03404546635643","2019-12-31 00:00:00.0","2020-12-31 00:00:00.0","2019-12-31 00:00:00.0","2020-12-31 18:00:00.0","동대문구"
"자체","S200110144912227323","시설대관","기타","접수중","2020 구립 동대문장애인종합복지관(3층 프로그램실)","유료(요금안내문의)","구립 동대문장애인종합복지관","제한없음","http://yeyak.seoul.go.kr/reservation/view.web?rsvsvcid=S200110144912227323","37.571814540785105","127.03404546635643","2020-01-10 00:00:00.0","2020-12-31 00:00:00.0","2020-01-10 09:00:00.0","2020-12-31 18:00:00.0","동대문구"
"자체","S191217140318644831","시설대관","회의실","접수중","2020 동대문구 장안2동 주민센터( 3층 회의실)","유료","동대문구 장안2동자치회관","성인","http://yeyak.seoul.go.kr/reservation/view.web?rsvsvcid=S191217140318644831","37.578472913916464","127.0705875724139","2020-01-02 00:00:00.0","2020-12-31 00:00:00.0","2020-01-02 09:00:00.0","2020-12-25 18:00:00.0","동대문구"
"자체","S200102131738623446","시설대관","회의실","예약일시중지","2020 동대문구 답십리2동주민센터 소회의실(3층)","유료(요금안내문의)","동대문구 답십리2동 주민센터","제한없음","http://yeyak.seoul.go.kr/reservation/view.web?rsvsvcid=S200102131738623446","37.56739947907118","127.06128184228775","2020-01-02 00:00:00.0","2020-12-31 00:00:00.0","2020-01-02 09:00:00.0","2020-12-28 18:00:00.0","동대문구"
"자체","S200102132508469258","시설대관","회의실","예약일시중지","2020 동대문구 답십리2동 주민센터( 2층 회의실)","유료(요금안내문의)","동대문구 답십리2동 주민센터","제한없음","http://yeyak.seoul.go.kr/reservation/view.web?rsvsvcid=S200102132508469258","37.56739947907118","127.06128184228775","2020-01-02 00:00:00.0","2020-12-31 00:00:00.0","2020-01-02 00:00:00.0","2020-12-29 18:00:00.0","동대문구"
"자체","S200103151144484733","시설대관","강당","접수중","2020년 동대문구 회기동 주민센터 (2층 소강당)","유료","동대문구 회기동 주민센터","제한없음","http://yeyak.seoul.go.kr/reservation/view.web?rsvsvcid=S200103151144484733","37.59063376598963","127.05507342462626","2020-01-03 00:00:00.0","2020-12-31 00:00:00.0","2020-01-03 09:00:00.0","2020-12-31 18:00:00.0","동대문구"
"자체","S200109143252648967","시설대관","회의실","접수중","2020년 동대문구 회기동 주민센터 (지하1층 회의실)","유료","동대문구 회기동 주민센터","제한없음","http://yeyak.seoul.go.kr/reservation/view.web?rsvsvcid=S200109143252648967","37.59063376598963","127.05507342462626","2020-01-09 00:00:00.0","2020-12-31 00:00:00.0","2020-01-09 09:00:00.0","2020-12-31 18:00:00.0","동대문구"
"자체","S191230175701158152","시설대관","강당","접수중","2020 서울한방진흥센터(3층 다목적강당)","유료(요금안내문의)","동대문구청 서울한방진흥센터","제한없음","http://yeyak.seoul.go.kr/reservation/view.web?rsvsvcid=S191230175701158152","37.5805999642","127.037586191","2019-12-31 00:00:00.0","2020-12-31 00:00:00.0","2019-12-31 09:00:00.0","2020-12-31 18:00:00.0","동대문구"